,467.00000000077364,-0.19
0,467.00400000077366,-0.23
1,467.0080000007737,-0.27
2,467.0120000007737,-0.31
3,467.0160000007737,-0.335
4,467.02000000077373,-0.36
5,467.02400000077375,-0.38
6,467.0280000007738,-0.395
7,467.0320000007738,-0.4
8,467.0360000007738,-0.395
9,467.04000000077383,-0.38
10,467.04400000077385,-0.355
11,467.04800000077387,-0.335
12,467.0520000007739,-0.3
13,467.0560000007739,-0.275
14,467.0600000007739,-0.24
15,467.06400000077394,-0.22
16,467.06800000077396,-0.19
17,467.072000000774,-0.16
18,467.076000000774,-0.14
19,467.080000000774,-0.115
20,467.08400000077404,-0.095
21,467.08800000077406,-0.07
22,467.0920000007741,-0.045
23,467.0960000007741,-0.025
24,467.1000000007741,-0.005
25,467.10400000077414,0.015
26,467.10800000077415,0.05
27,467.1120000007742,0.095
28,467.1160000007742,0.14
29,467.1200000007742,0.18
30,467.12400000077423,0.22
31,467.12800000077425,0.245
32,467.13200000077427,0.275
33,467.1360000007743,0.29
34,467.1400000007743,0.29
35,467.1440000007743,0.28500000000000003
36,467.14800000077435,0.27
37,467.15200000077436,0.245
38,467.1560000007744,0.21
39,467.1600000007744,0.185
40,467.1640000007744,0.16
41,467.16800000077444,0.145
42,467.17200000077446,0.135
43,467.1760000007745,0.13
44,467.1800000007745,0.14
45,467.1840000007745,0.135
46,467.18800000077454,0.13
47,467.19200000077456,0.125
48,467.1960000007746,0.115
49,467.2000000007746,0.1
50,467.2040000007746,0.1
51,467.20800000077463,0.095
52,467.21200000077465,0.075
53,467.21600000077467,0.045
54,467.2200000007747,0.005
55,467.2240000007747,-0.04
56,467.2280000007747,-0.09
57,467.23200000077475,-0.135
58,467.23600000077477,-0.185
59,467.2400000007748,-0.24
60,467.2440000007748,-0.275
61,467.2480000007748,-0.295
62,467.25200000077484,-0.31
63,467.25600000077486,-0.295
64,467.2600000007749,-0.28
65,467.2640000007749,-0.25
66,467.2680000007749,-0.225
67,467.27200000077494,-0.195
68,467.27600000077496,-0.17
69,467.280000000775,-0.15
70,467.284000000775,-0.135
71,467.288000000775,-0.12
72,467.29200000077503,-0.115
73,467.29600000077505,-0.105
74,467.30000000077507,-0.105
75,467.3040000007751,-0.105
76,467.3080000007751,-0.11
77,467.31200000077513,-0.105
78,467.31600000077515,-0.1
79,467.32000000077517,-0.08
80,467.3240000007752,-0.065
81,467.3280000007752,-0.035
82,467.3320000007752,0.0
83,467.33600000077524,0.035
84,467.34000000077526,0.07
85,467.3440000007753,0.09
86,467.3480000007753,0.115
87,467.3520000007753,0.12
88,467.35600000077534,0.125
89,467.36000000077536,0.115
90,467.3640000007754,0.115
91,467.3680000007754,0.11
92,467.3720000007754,0.1
93,467.37600000077543,0.08
94,467.38000000077545,0.07
95,467.3840000007755,0.055
96,467.3880000007755,0.04
97,467.3920000007755,0.03
98,467.39600000077553,0.015
99,467.40000000077555,0.01
100,467.40400000077557,0.01
101,467.4080000007756,0.005
102,467.4120000007756,0.0
103,467.4160000007756,-0.005
104,467.42000000077564,-0.01
105,467.42400000077566,-0.015
106,467.4280000007757,-0.035
107,467.4320000007757,-0.06
108,467.4360000007757,-0.095
109,467.44000000077574,-0.145
110,467.44400000077576,-0.19
111,467.4480000007758,-0.225
112,467.4520000007758,-0.255
113,467.4560000007758,-0.275
114,467.46000000077584,-0.295
115,467.46400000077585,-0.32
116,467.4680000007759,-0.34
117,467.4720000007759,-0.355
118,467.4760000007759,-0.36
119,467.48000000077593,-0.35000000000000003
120,467.48400000077595,-0.335
121,467.48800000077597,-0.315
122,467.492000000776,-0.29
123,467.496000000776,-0.27
124,467.500000000776,-0.23500000000000001
125,467.50400000077605,-0.20500000000000002
126,467.50800000077606,-0.17500000000000002
127,467.5120000007761,-0.13
128,467.5160000007761,-0.09
129,467.5200000007761,-0.045
130,467.52400000077614,0.0
131,467.52800000077616,0.035
132,467.5320000007762,0.085
133,467.5360000007762,0.12
134,467.5400000007762,0.155
135,467.54400000077624,0.195
136,467.54800000077626,0.225
137,467.5520000007763,0.255
138,467.5560000007763,0.275
139,467.5600000007763,0.275
140,467.56400000077633,0.275
141,467.56800000077635,0.27
142,467.57200000077637,0.265
143,467.5760000007764,0.26
144,467.5800000007764,0.255
145,467.5840000007764,0.245
146,467.58800000077645,0.225
147,467.59200000077647,0.20500000000000002
148,467.5960000007765,0.185
149,467.6000000007765,0.165
150,467.6040000007765,0.15
151,467.60800000077654,0.12
152,467.61200000077656,0.1
153,467.6160000007766,0.075
154,467.6200000007766,0.055
155,467.6240000007766,0.025
156,467.62800000077664,-0.005
157,467.63200000077666,-0.04
158,467.6360000007767,-0.085
159,467.6400000007767,-0.11
160,467.6440000007767,-0.14
161,467.64800000077673,-0.17
162,467.65200000077675,-0.21
163,467.65600000077677,-0.265
164,467.6600000007768,-0.32
165,467.6640000007768,-0.36
166,467.66800000077683,-0.395
167,467.67200000077685,-0.41000000000000003
168,467.67600000077687,-0.42
169,467.6800000007769,-0.42
170,467.6840000007769,-0.42
171,467.6880000007769,-0.405
172,467.69200000077694,-0.38
173,467.69600000077696,-0.35000000000000003
174,467.700000000777,-0.32
175,467.704000000777,-0.265
176,467.708000000777,-0.215
177,467.71200000077704,-0.17
178,467.71600000077706,-0.13
179,467.7200000007771,-0.1
180,467.7240000007771,-0.07
181,467.7280000007771,-0.045
182,467.73200000077713,-0.02
183,467.73600000077715,0.0
184,467.7400000007772,0.03
185,467.7440000007772,0.05
186,467.7480000007772,0.07
187,467.75200000077723,0.08
188,467.75600000077725,0.085
189,467.76000000077727,0.075
190,467.7640000007773,0.07
191,467.7680000007773,0.06
192,467.7720000007773,0.065
193,467.77600000077734,0.07
194,467.78000000077736,0.085
195,467.7840000007774,0.09
196,467.7880000007774,0.085
197,467.7920000007774,0.085
198,467.79600000077744,0.08
199,467.80000000077746,0.075
200,467.8040000007775,0.065
201,467.8080000007775,0.055
202,467.8120000007775,0.045
203,467.81600000077754,0.045
204,467.82000000077755,0.045
205,467.8240000007776,0.06
206,467.8280000007776,0.07
207,467.8320000007776,0.085
208,467.83600000077763,0.095
209,467.84000000077765,0.1
210,467.84400000077767,0.11
211,467.8480000007777,0.11
212,467.8520000007777,0.11
213,467.8560000007777,0.105
214,467.86000000077775,0.115
215,467.86400000077776,0.11
216,467.8680000007778,0.1
217,467.8720000007778,0.095
218,467.8760000007778,0.08
219,467.88000000077784,0.07
220,467.88400000077786,0.05
221,467.8880000007779,0.03
222,467.8920000007779,0.01
223,467.8960000007779,-0.01
224,467.90000000077794,-0.04
225,467.90400000077796,-0.085
226,467.908000000778,-0.135
227,467.912000000778,-0.185
228,467.916000000778,-0.225
229,467.92000000077803,-0.26
230,467.92400000077805,-0.28500000000000003
231,467.92800000077807,-0.31
232,467.9320000007781,-0.335
233,467.9360000007781,-0.37
234,467.9400000007781,-0.41500000000000004
235,467.94400000077815,-0.445
236,467.94800000077817,-0.465
237,467.9520000007782,-0.47500000000000003
238,467.9560000007782,-0.47000000000000003
239,467.9600000007782,-0.44
240,467.96400000077824,-0.4
241,467.96800000077826,-0.35000000000000003
242,467.9720000007783,-0.3
243,467.9760000007783,-0.245
244,467.9800000007783,-0.19
245,467.98400000077834,-0.135
246,467.98800000077836,-0.085
247,467.9920000007784,-0.025
248,467.9960000007784,0.035
249,468.0000000007784,0.09
250,468.00400000077843,0.135
251,468.00800000077845,0.17
252,468.01200000077847,0.2
253,468.0160000007785,0.225
254,468.0200000007785,0.23500000000000001
255,468.0240000007785,0.25
256,468.02800000077855,0.255
257,468.03200000077857,0.255
258,468.0360000007786,0.255
259,468.0400000007786,0.255
260,468.0440000007786,0.255
261,468.04800000077864,0.25
262,468.05200000077866,0.245
263,468.0560000007787,0.23500000000000001
264,468.0600000007787,0.23
265,468.0640000007787,0.22
266,468.06800000077874,0.195
267,468.07200000077876,0.165
268,468.0760000007788,0.135
269,468.0800000007788,0.095
270,468.0840000007788,0.055
271,468.08800000077883,0.015
272,468.09200000077885,-0.015
273,468.0960000007789,-0.05
274,468.1000000007789,-0.09
275,468.1040000007789,-0.12
276,468.10800000077893,-0.15
277,468.11200000077895,-0.18
278,468.11600000077897,-0.21
279,468.120000000779,-0.23500000000000001
280,468.124000000779,-0.255
281,468.128000000779,-0.28
282,468.13200000077904,-0.3
283,468.13600000077906,-0.32
284,468.1400000007791,-0.34
285,468.1440000007791,-0.34
286,468.1480000007791,-0.355
287,468.15200000077914,-0.34500000000000003
288,468.15600000077916,-0.335
289,468.1600000007792,-0.31
290,468.1640000007792,-0.275
291,468.1680000007792,-0.245
292,468.17200000077924,-0.21
293,468.17600000077925,-0.18
294,468.1800000007793,-0.15
295,468.1840000007793,-0.115
296,468.1880000007793,-0.075
297,468.19200000077933,-0.035
298,468.19600000077935,-0.015
299,468.20000000077937,0.0
300,468.2040000007794,0.0
301,468.2080000007794,-0.005
302,468.2120000007794,-0.01
303,468.21600000077945,-0.015
304,468.22000000077946,0.0
305,468.2240000007795,0.0
306,468.2280000007795,0.005
307,468.2320000007795,0.01
308,468.23600000077954,0.02
309,468.24000000077956,0.03
310,468.2440000007796,0.035
311,468.2480000007796,0.04
312,468.2520000007796,0.045
313,468.25600000077964,0.05
314,468.26000000077966,0.06
315,468.2640000007797,0.065
316,468.2680000007797,0.08
317,468.2720000007797,0.09
318,468.27600000077973,0.095
319,468.28000000077975,0.095
320,468.28400000077977,0.1
321,468.2880000007798,0.085
322,468.2920000007798,0.08
323,468.2960000007798,0.075
324,468.30000000077985,0.08
325,468.30400000077987,0.075
326,468.3080000007799,0.065
327,468.3120000007799,0.065
328,468.3160000007799,0.045
329,468.32000000077994,0.03
330,468.32400000077996,0.01
331,468.32800000078,-0.01
332,468.33200000078,-0.035
333,468.33600000078,-0.065
334,468.34000000078004,-0.08
335,468.34400000078006,-0.095
336,468.3480000007801,-0.11
337,468.3520000007801,-0.115
338,468.3560000007801,-0.125
339,468.36000000078013,-0.13
340,468.36400000078015,-0.14
341,468.36800000078017,-0.145
342,468.3720000007802,-0.14
343,468.3760000007802,-0.145
344,468.3800000007802,-0.135
345,468.38400000078025,-0.15
346,468.38800000078027,-0.155
347,468.3920000007803,-0.16
348,468.3960000007803,-0.17
349,468.4000000007803,-0.185
350,468.40400000078034,-0.21
351,468.40800000078036,-0.23
352,468.4120000007804,-0.245
353,468.4160000007804,-0.26
354,468.4200000007804,-0.27
355,468.42400000078044,-0.27
356,468.42800000078046,-0.265
357,468.4320000007805,-0.25
358,468.4360000007805,-0.225
359,468.4400000007805,-0.19
360,468.44400000078053,-0.155
361,468.44800000078055,-0.105
362,468.4520000007806,-0.065
363,468.4560000007806,-0.025
364,468.4600000007806,0.0
365,468.46400000078063,0.035
366,468.46800000078065,0.055
367,468.47200000078067,0.075
368,468.4760000007807,0.095
369,468.4800000007807,0.115
370,468.4840000007807,0.13
371,468.48800000078074,0.145
372,468.49200000078076,0.16
373,468.4960000007808,0.18
374,468.5000000007808,0.21
375,468.5040000007808,0.23
376,468.50800000078084,0.245
377,468.51200000078086,0.265
378,468.5160000007809,0.27
379,468.5200000007809,0.265
380,468.5240000007809,0.255
381,468.52800000078093,0.25
382,468.53200000078095,0.23500000000000001
383,468.536000000781,0.21
384,468.540000000781,0.165
385,468.544000000781,0.125
386,468.54800000078103,0.085
387,468.55200000078105,0.045
388,468.55600000078107,0.015
389,468.5600000007811,-0.015
390,468.5640000007811,-0.05
391,468.5680000007811,-0.09
392,468.57200000078114,-0.13
393,468.57600000078116,-0.165
394,468.5800000007812,-0.195
395,468.5840000007812,-0.22
396,468.5880000007812,-0.25
397,468.59200000078124,-0.27
398,468.59600000078126,-0.28500000000000003
399,468.6000000007813,-0.3
400,468.6040000007813,-0.305
401,468.6080000007813,-0.295
402,468.61200000078134,-0.28
403,468.61600000078136,-0.255
404,468.6200000007814,-0.23
405,468.6240000007814,-0.20500000000000002
406,468.6280000007814,-0.18
407,468.63200000078143,-0.165
408,468.63600000078145,-0.145
409,468.64000000078147,-0.14
410,468.6440000007815,-0.135
411,468.6480000007815,-0.135
412,468.6520000007815,-0.015
413,468.65600000078155,-0.025
414,468.66000000078157,-0.145
415,468.6640000007816,-0.145
416,468.6680000007816,-0.155
417,468.6720000007816,-0.155
418,468.67600000078164,-0.135
419,468.68000000078166,-0.085
420,468.6840000007817,-0.045
421,468.6880000007817,-0.03
422,468.6920000007817,-0.025
423,468.69600000078174,0.0
424,468.70000000078176,0.045
425,468.7040000007818,0.215
426,468.7080000007818,0.23500000000000001
427,468.7120000007818,0.085
428,468.71600000078183,0.115
429,468.72000000078185,0.13
430,468.72400000078187,0.145
431,468.7280000007819,0.165
432,468.7320000007819,0.19
433,468.7360000007819,0.20500000000000002
434,468.74000000078195,0.19
435,468.74400000078197,0.165
436,468.748000000782,0.145
437,468.752000000782,0.14
438,468.756000000782,0.125
439,468.76000000078204,0.09
440,468.76400000078206,0.055
441,468.7680000007821,0.015
442,468.7720000007821,-0.005
443,468.7760000007821,-0.03
444,468.78000000078214,-0.075
445,468.78400000078216,-0.125
446,468.7880000007822,-0.16
447,468.7920000007822,-0.19
448,468.7960000007822,-0.2
449,468.80000000078223,-0.225
450,468.80400000078225,-0.24
451,468.8080000007823,-0.245
452,468.8120000007823,-0.26
453,468.8160000007823,-0.27
454,468.82000000078233,-0.295
455,468.82400000078235,-0.31
456,468.82800000078237,-0.315
457,468.8320000007824,-0.31
458,468.8360000007824,-0.295
459,468.8400000007824,-0.28500000000000003
460,468.84400000078244,-0.28
461,468.84800000078246,-0.27
462,468.8520000007825,-0.265
463,468.8560000007825,-0.25
464,468.8600000007825,-0.24
465,468.86400000078254,-0.24
466,468.86800000078256,-0.23
467,468.8720000007826,-0.215
468,468.8760000007826,-0.185
469,468.8800000007826,-0.16
470,468.88400000078263,-0.14
471,468.88800000078265,-0.115
472,468.8920000007827,-0.1
473,468.8960000007827,-0.075
474,468.9000000007827,-0.065
475,468.90400000078273,-0.055
476,468.90800000078275,-0.045
477,468.91200000078277,-0.03
478,468.9160000007828,-0.015
479,468.9200000007828,0.005
480,468.9240000007828,0.035
481,468.92800000078284,0.07
482,468.93200000078286,0.11
483,468.9360000007829,0.145
484,468.9400000007829,0.165
485,468.9440000007829,0.19
486,468.94800000078294,0.20500000000000002
487,468.95200000078296,0.215
488,468.956000000783,0.225
489,468.960000000783,0.225
490,468.964000000783,0.23
491,468.96800000078304,0.23500000000000001
492,468.97200000078305,0.23
493,468.9760000007831,0.225
494,468.9800000007831,0.21
495,468.9840000007831,0.17500000000000002
496,468.98800000078313,0.15
497,468.99200000078315,0.12
498,468.99600000078317,0.09
499,469.0000000007832,0.08
500,469.0040000007832,0.07
501,469.0080000007832,0.05
502,469.01200000078325,0.025
503,469.01600000078327,0.0
504,469.0200000007833,-0.045
505,469.0240000007833,-0.085
506,469.0280000007833,-0.13
507,469.03200000078334,-0.17500000000000002
508,469.03600000078336,-0.20500000000000002
509,469.0400000007834,-0.245
510,469.0440000007834,-0.275
511,469.0480000007834,-0.3
512,469.05200000078344,-0.32
513,469.05600000078346,-0.325
514,469.0600000007835,-0.34
515,469.0640000007835,-0.34
516,469.0680000007835,-0.34
517,469.07200000078353,-0.34
518,469.07600000078355,-0.34500000000000003
519,469.08000000078357,-0.335
520,469.0840000007836,-0.32
521,469.0880000007836,-0.305
522,469.0920000007836,-0.28
523,469.09600000078365,-0.255
524,469.10000000078367,-0.23500000000000001
525,469.1040000007837,-0.22
526,469.1080000007837,-0.21
527,469.1120000007837,-0.195
528,469.11600000078374,-0.17500000000000002
529,469.12000000078376,-0.145
530,469.1240000007838,-0.11
531,469.1280000007838,-0.07
532,469.1320000007838,-0.035
533,469.13600000078384,0.0
534,469.14000000078386,0.05
535,469.1440000007839,0.095
536,469.1480000007839,0.15
537,469.1520000007839,0.20500000000000002
538,469.15600000078393,0.245
539,469.16000000078395,0.29
540,469.164000000784,0.325
541,469.168000000784,0.35000000000000003
542,469.172000000784,0.37
543,469.17600000078403,0.39
544,469.18000000078405,0.395
545,469.18400000078407,0.41000000000000003
546,469.1880000007841,0.42
547,469.1920000007841,0.425
548,469.1960000007841,0.41500000000000004
549,469.20000000078414,0.395
550,469.20400000078416,0.365
551,469.2080000007842,0.335
552,469.2120000007842,0.295
553,469.2160000007842,0.255
554,469.22000000078424,0.21
555,469.22400000078426,0.17
556,469.2280000007843,0.12
557,469.2320000007843,0.08
558,469.2360000007843,0.035
559,469.24000000078433,-0.005
560,469.24400000078435,-0.065
561,469.2480000007844,-0.12
562,469.2520000007844,-0.165
563,469.2560000007844,-0.21
564,469.26000000078443,-0.255
565,469.26400000078445,-0.305
566,469.26800000078447,-0.35000000000000003
567,469.2720000007845,-0.4
568,469.2760000007845,-0.44
569,469.2800000007845,-0.46
570,469.28400000078454,-0.485
571,469.28800000078456,-0.49
572,469.2920000007846,-0.49
573,469.2960000007846,-0.485
574,469.3000000007846,-0.47000000000000003
575,469.30400000078464,-0.45
576,469.30800000078466,-0.425
577,469.3120000007847,-0.39
578,469.3160000007847,-0.34500000000000003
579,469.3200000007847,-0.295
580,469.32400000078474,-0.23
581,469.32800000078475,-0.17
582,469.3320000007848,-0.115
583,469.3360000007848,-0.065
584,469.3400000007848,-0.03
585,469.34400000078483,0.0
586,469.34800000078485,0.015
587,469.35200000078487,0.035
588,469.3560000007849,0.04
589,469.3600000007849,0.05
590,469.3640000007849,0.055
591,469.36800000078495,0.065
592,469.37200000078496,0.075
593,469.376000000785,0.08
594,469.380000000785,0.09
595,469.384000000785,0.1
596,469.38800000078504,0.11
597,469.39200000078506,0.12
598,469.3960000007851,0.125
599,469.4000000007851,0.13
600,469.4040000007851,0.14
601,469.40800000078514,0.15
602,469.41200000078516,0.16
603,469.4160000007852,0.165
604,469.4200000007852,0.17500000000000002
605,469.4240000007852,0.17
606,469.42800000078523,0.145
607,469.43200000078525,0.12
608,469.43600000078527,0.075
609,469.4400000007853,0.04
610,469.4440000007853,0.0
611,469.4480000007853,-0.03
612,469.45200000078535,-0.065
613,469.45600000078537,-0.1
614,469.4600000007854,-0.125
615,469.4640000007854,-0.155
616,469.4680000007854,-0.17
617,469.47200000078544,-0.18
618,469.47600000078546,-0.185
619,469.4800000007855,-0.17500000000000002
620,469.4840000007855,-0.165
621,469.4880000007855,-0.145
622,469.49200000078554,-0.12
623,469.49600000078556,-0.1
624,469.5000000007856,-0.085
625,469.5040000007856,-0.065
626,469.5080000007856,-0.05
627,469.51200000078563,-0.04
628,469.51600000078565,-0.025
629,469.52000000078567,-0.015
630,469.5240000007857,-0.01
631,469.5280000007857,-0.005
632,469.53200000078573,-0.015
633,469.53600000078575,-0.02
634,469.54000000078577,-0.04
635,469.5440000007858,-0.06
636,469.5480000007858,-0.085
637,469.5520000007858,-0.11
638,469.55600000078584,-0.135
639,469.56000000078586,-0.145
640,469.5640000007859,-0.15
641,469.5680000007859,-0.15
642,469.5720000007859,-0.135
643,469.57600000078594,-0.105
644,469.58000000078596,-0.08
645,469.584000000786,-0.04
646,469.588000000786,0.0
647,469.592000000786,0.04
648,469.59600000078603,0.08
649,469.60000000078605,0.11
650,469.6040000007861,0.135
651,469.6080000007861,0.15
652,469.6120000007861,0.155
653,469.61600000078613,0.155
654,469.62000000078615,0.145
655,469.62400000078617,0.12
656,469.6280000007862,0.085
657,469.6320000007862,0.05
658,469.6360000007862,0.005
659,469.64000000078624,-0.015
660,469.64400000078626,-0.045
661,469.6480000007863,-0.07
662,469.6520000007863,-0.095
663,469.6560000007863,-0.115
664,469.66000000078634,-0.14
665,469.66400000078636,-0.15
666,469.6680000007864,-0.16
667,469.6720000007864,-0.165
668,469.6760000007864,-0.165
669,469.68000000078644,-0.17500000000000002
670,469.68400000078645,-0.18
671,469.6880000007865,-0.19
672,469.6920000007865,-0.19
673,469.6960000007865,-0.17500000000000002
674,469.70000000078653,-0.16
675,469.70400000078655,-0.14
676,469.70800000078657,-0.11
677,469.7120000007866,-0.08
678,469.7160000007866,-0.05
679,469.7200000007866,-0.015
680,469.72400000078665,0.015
681,469.72800000078666,0.045
682,469.7320000007867,0.065
683,469.7360000007867,0.085
684,469.7400000007867,0.095
685,469.74400000078674,0.11
686,469.74800000078676,0.12
687,469.7520000007868,0.13
688,469.7560000007868,0.135
689,469.7600000007868,0.14
690,469.76400000078684,0.12
691,469.76800000078686,0.1
692,469.7720000007869,0.065
693,469.7760000007869,0.02
694,469.7800000007869,-0.025
695,469.78400000078693,-0.07
696,469.78800000078695,-0.11
697,469.79200000078697,-0.14
698,469.796000000787,-0.165
699,469.800000000787,-0.185
700,469.804000000787,-0.20500000000000002
701,469.80800000078705,-0.23
702,469.81200000078707,-0.25
703,469.8160000007871,-0.27
704,469.8200000007871,-0.29
705,469.8240000007871,-0.305
706,469.82800000078714,-0.31
707,469.83200000078716,-0.315
708,469.8360000007872,-0.305
709,469.8400000007872,-0.29
710,469.8440000007872,-0.27
711,469.84800000078724,-0.245
712,469.85200000078726,-0.225
713,469.8560000007873,-0.20500000000000002
714,469.8600000007873,-0.19
715,469.8640000007873,-0.17
716,469.86800000078733,-0.15
717,469.87200000078735,-0.115
718,469.87600000078737,-0.07
719,469.8800000007874,-0.025
720,469.8840000007874,0.015
721,469.88800000078743,0.045
722,469.89200000078745,0.075
723,469.89600000078747,0.095
724,469.9000000007875,0.11
725,469.9040000007875,0.125
726,469.9080000007875,0.14
727,469.91200000078754,0.155
728,469.91600000078756,0.17500000000000002
729,469.9200000007876,0.19
730,469.9240000007876,0.20500000000000002
731,469.9280000007876,0.22
732,469.93200000078764,0.225
733,469.93600000078766,0.23
734,469.9400000007877,0.23500000000000001
735,469.9440000007877,0.23500000000000001
736,469.9480000007877,0.23500000000000001
737,469.95200000078773,0.23500000000000001
738,469.95600000078775,0.23
739,469.9600000007878,0.22
740,469.9640000007878,0.22
741,469.9680000007878,0.2
742,469.97200000078783,0.185
743,469.97600000078785,0.17
744,469.98000000078787,0.16
745,469.9840000007879,0.15
746,469.9880000007879,0.145
747,469.9920000007879,0.14
748,469.99600000078794,0.13
749,470.00000000078796,0.115
750,470.004000000788,0.085
751,470.008000000788,0.04
752,470.012000000788,-0.005
753,470.01600000078804,-0.07
754,470.02000000078806,-0.14
755,470.0240000007881,-0.20500000000000002
756,470.0280000007881,-0.265
757,470.0320000007881,-0.31
758,470.03600000078814,-0.335
759,470.04000000078815,-0.355
760,470.0440000007882,-0.36
761,470.0480000007882,-0.34500000000000003
762,470.0520000007882,-0.34500000000000003
763,470.05600000078823,-0.34
764,470.06000000078825,-0.33
765,470.06400000078827,-0.315
766,470.0680000007883,-0.29
767,470.0720000007883,-0.265
768,470.0760000007883,-0.24
769,470.08000000078835,-0.21
770,470.08400000078836,-0.18
771,470.0880000007884,-0.15
772,470.0920000007884,-0.115
773,470.0960000007884,-0.08
774,470.10000000078844,-0.05
775,470.10400000078846,-0.025
776,470.1080000007885,-0.01
777,470.1120000007885,0.005
778,470.1160000007885,0.015
779,470.12000000078854,0.035
780,470.12400000078856,0.05
781,470.1280000007886,0.07
782,470.1320000007886,0.095
783,470.1360000007886,0.11
784,470.14000000078863,0.135
785,470.14400000078865,0.15
786,470.14800000078867,0.16
787,470.1520000007887,0.165
788,470.1560000007887,0.17
789,470.1600000007887,0.165
790,470.16400000078875,0.165
791,470.16800000078877,0.165
792,470.1720000007888,0.17
793,470.1760000007888,0.165
794,470.1800000007888,0.15
795,470.18400000078884,0.145
796,470.18800000078886,0.135
797,470.1920000007889,0.13
798,470.1960000007889,0.13
799,470.2000000007889,0.145
800,470.20400000078894,0.16
801,470.20800000078896,0.17
802,470.212000000789,0.18
803,470.216000000789,0.17500000000000002
804,470.220000000789,0.16
805,470.22400000078903,0.14
806,470.22800000078905,0.125
807,470.23200000078907,0.105
808,470.2360000007891,0.08
809,470.2400000007891,0.07
810,470.24400000078913,0.045
811,470.24800000078915,0.015
812,470.25200000078917,-0.02
813,470.2560000007892,-0.075
814,470.2600000007892,-0.14
815,470.2640000007892,-0.20500000000000002
816,470.26800000078924,-0.265
817,470.27200000078926,-0.32
818,470.2760000007893,-0.375
819,470.2800000007893,-0.425
820,470.2840000007893,-0.485
821,470.28800000078934,-0.54
822,470.29200000078936,-0.5700000000000001
823,470.2960000007894,-0.585
824,470.3000000007894,-0.58
825,470.3040000007894,-0.5650000000000001
826,470.30800000078943,-0.54
827,470.31200000078945,-0.5
828,470.3160000007895,-0.47000000000000003
829,470.3200000007895,-0.435
830,470.3240000007895,-0.39
831,470.32800000078953,-0.34500000000000003
832,470.33200000078955,-0.295
833,470.33600000078957,-0.24
834,470.3400000007896,-0.17500000000000002
835,470.3440000007896,-0.115
836,470.3480000007896,-0.055
837,470.35200000078964,0.0
838,470.35600000078966,0.055
839,470.3600000007897,0.1
840,470.3640000007897,0.15
841,470.3680000007897,0.195
842,470.37200000078974,0.245
843,470.37600000078976,0.28500000000000003
844,470.3800000007898,0.31
845,470.3840000007898,0.33
846,470.3880000007898,0.35000000000000003
847,470.39200000078984,0.35000000000000003
848,470.39600000078985,0.355
849,470.4000000007899,0.36
850,470.4040000007899,0.35000000000000003
851,470.4080000007899,0.34500000000000003
852,470.41200000078993,0.325
853,470.41600000078995,0.305
854,470.42000000078997,0.27
855,470.42400000079,0.225
856,470.42800000079,0.185
857,470.43200000079,0.13
858,470.43600000079005,0.075
859,470.44000000079006,0.025
860,470.4440000007901,-0.015
861,470.4480000007901,-0.055
862,470.4520000007901,-0.09
863,470.45600000079014,-0.125
864,470.46000000079016,-0.155
865,470.4640000007902,-0.185
866,470.4680000007902,-0.215
867,470.4720000007902,-0.24
868,470.47600000079024,-0.255
869,470.48000000079026,-0.265
870,470.4840000007903,-0.275
871,470.4880000007903,-0.28
872,470.4920000007903,-0.28
873,470.49600000079033,-0.28500000000000003
874,470.50000000079035,-0.28500000000000003
875,470.50400000079037,-0.275
876,470.5080000007904,-0.26
877,470.5120000007904,-0.245
878,470.5160000007904,-0.215
879,470.52000000079045,-0.17500000000000002
880,470.52400000079047,-0.14
881,470.5280000007905,-0.1
882,470.5320000007905,-0.055
883,470.5360000007905,-0.015
884,470.54000000079054,0.015
885,470.54400000079056,0.055
886,470.5480000007906,0.09
887,470.5520000007906,0.115
888,470.5560000007906,0.135
889,470.56000000079064,0.145
890,470.56400000079066,0.155
891,470.5680000007907,0.155
892,470.5720000007907,0.15
893,470.5760000007907,0.15
894,470.58000000079073,0.16
895,470.58400000079075,0.16
896,470.58800000079077,0.165
897,470.5920000007908,0.165
898,470.5960000007908,0.17500000000000002
899,470.6000000007908,0.17
900,470.60400000079085,0.17
901,470.60800000079087,0.16
902,470.6120000007909,0.155
903,470.6160000007909,0.145
904,470.6200000007909,0.13
905,470.62400000079094,0.115
906,470.62800000079096,0.09
907,470.632000000791,0.055
908,470.636000000791,0.025
909,470.640000000791,0.0
910,470.64400000079104,-0.025
911,470.64800000079106,-0.045
912,470.6520000007911,-0.08
913,470.6560000007911,-0.105
914,470.6600000007911,-0.13
915,470.66400000079113,-0.145
916,470.66800000079115,-0.16
917,470.6720000007912,-0.165
918,470.6760000007912,-0.165
919,470.6800000007912,-0.165
920,470.68400000079123,-0.165
921,470.68800000079125,-0.155
922,470.69200000079127,-0.15
923,470.6960000007913,-0.145
924,470.7000000007913,-0.15
925,470.7040000007913,-0.17
926,470.70800000079134,-0.2
927,470.71200000079136,-0.245
928,470.7160000007914,-0.29
929,470.7200000007914,-0.34500000000000003
930,470.7240000007914,-0.39
931,470.72800000079144,-0.435
932,470.73200000079146,-0.47000000000000003
933,470.7360000007915,-0.495
934,470.7400000007915,-0.52
935,470.7440000007915,-0.525
936,470.74800000079154,-0.535
937,470.75200000079155,-0.505
938,470.7560000007916,-0.47500000000000003
939,470.7600000007916,-0.435
940,470.7640000007916,-0.39
941,470.76800000079163,-0.34500000000000003
942,470.77200000079165,-0.295
943,470.77600000079167,-0.255
944,470.7800000007917,-0.20500000000000002
945,470.7840000007917,-0.16
946,470.7880000007917,-0.11
947,470.79200000079175,-0.055
948,470.79600000079176,-0.015
949,470.8000000007918,0.025
950,470.8040000007918,0.08
951,470.8080000007918,0.125
952,470.81200000079184,0.17
953,470.81600000079186,0.21
954,470.8200000007919,0.23500000000000001
955,470.8240000007919,0.265
956,470.8280000007919,0.295
957,470.83200000079194,0.32
958,470.83600000079196,0.34500000000000003
959,470.840000000792,0.36
960,470.844000000792,0.375
961,470.848000000792,0.365
962,470.85200000079203,0.36
963,470.85600000079205,0.34
964,470.86000000079207,0.31
965,470.8640000007921,0.28500000000000003
966,470.8680000007921,0.26
967,470.8720000007921,0.23500000000000001
968,470.87600000079215,0.22
969,470.88000000079217,0.2
970,470.8840000007922,0.17
971,470.8880000007922,0.14
972,470.8920000007922,0.105
973,470.89600000079224,0.075
974,470.90000000079226,0.05
975,470.9040000007923,0.02
976,470.9080000007923,-0.005
977,470.9120000007923,-0.03
978,470.91600000079234,-0.055
979,470.92000000079236,-0.08
980,470.9240000007924,-0.105
981,470.9280000007924,-0.135
982,470.9320000007924,-0.165
983,470.93600000079243,-0.195
984,470.94000000079245,-0.23
985,470.94400000079247,-0.265
986,470.9480000007925,-0.29
987,470.9520000007925,-0.315
988,470.9560000007925,-0.33
989,470.96000000079255,-0.34500000000000003
990,470.96400000079257,-0.355
991,470.9680000007926,-0.365
992,470.9720000007926,-0.37
993,470.9760000007926,-0.385
994,470.98000000079264,-0.385
995,470.98400000079266,-0.395
996,470.9880000007927,-0.405
997,470.9920000007927,-0.395
998,470.9960000007927,-0.375
999,471.00000000079274,-0.34500000000000003
1000,471.00400000079276,-0.305
1001,471.0080000007928,-0.26
1002,471.0120000007928,-0.215
1003,471.0160000007928,-0.17500000000000002
1004,471.02000000079283,-0.145
1005,471.02400000079285,-0.115
1006,471.0280000007929,-0.09
1007,471.0320000007929,-0.065
1008,471.0360000007929,-0.035
1009,471.04000000079293,-0.02
1010,471.04400000079295,0.0
1011,471.04800000079297,0.005
1012,471.052000000793,0.005
1013,471.056000000793,0.0
1014,471.060000000793,-0.015
1015,471.06400000079304,-0.025
1016,471.06800000079306,-0.04
1017,471.0720000007931,-0.045
1018,471.0760000007931,-0.045
1019,471.0800000007931,-0.04
1020,471.08400000079314,-0.03
1021,471.08800000079316,-0.02
1022,471.0920000007932,0.0
1023,471.0960000007932,0.015
1024,471.1000000007932,0.035
1025,471.10400000079323,0.055
1026,471.10800000079325,0.08
1027,471.1120000007933,0.12
1028,471.1160000007933,0.155
1029,471.1200000007933,0.195
1030,471.12400000079333,0.225
1031,471.12800000079335,0.255
1032,471.13200000079337,0.28500000000000003
1033,471.1360000007934,0.3
1034,471.1400000007934,0.31
1035,471.1440000007934,0.315
1036,471.14800000079344,0.3
1037,471.15200000079346,0.275
1038,471.1560000007935,0.245
1039,471.1600000007935,0.20500000000000002
1040,471.1640000007935,0.18
1041,471.16800000079354,0.16
1042,471.17200000079356,0.14
1043,471.1760000007936,0.12
1044,471.1800000007936,0.105
1045,471.1840000007936,0.09
1046,471.18800000079364,0.06
1047,471.19200000079366,0.03
1048,471.1960000007937,0.0
1049,471.2000000007937,-0.045
1050,471.2040000007937,-0.085
1051,471.20800000079373,-0.115
1052,471.21200000079375,-0.15
1053,471.21600000079377,-0.17
1054,471.2200000007938,-0.185
1055,471.2240000007938,-0.19
1056,471.2280000007938,-0.20500000000000002
1057,471.23200000079385,-0.22
1058,471.23600000079387,-0.23500000000000001
1059,471.2400000007939,-0.25
1060,471.2440000007939,-0.265
1061,471.2480000007939,-0.275
1062,471.25200000079394,-0.28
1063,471.25600000079396,-0.28500000000000003
1064,471.260000000794,-0.28500000000000003
1065,471.264000000794,-0.28500000000000003
1066,471.268000000794,-0.275
1067,471.27200000079404,-0.27
1068,471.27600000079406,-0.265
1069,471.2800000007941,-0.255
1070,471.2840000007941,-0.26
1071,471.2880000007941,-0.25
1072,471.29200000079413,-0.24
1073,471.29600000079415,-0.21
1074,471.30000000079417,-0.185
1075,471.3040000007942,-0.16
1076,471.3080000007942,-0.125
1077,471.3120000007942,-0.095
1078,471.31600000079425,-0.075
1079,471.32000000079427,-0.055
1080,471.3240000007943,-0.04
1081,471.3280000007943,-0.005
1082,471.3320000007943,0.005
1083,471.33600000079434,0.03
1084,471.34000000079436,0.05
1085,471.3440000007944,0.065
1086,471.3480000007944,0.07
1087,471.3520000007944,0.085
1088,471.35600000079444,0.09
1089,471.36000000079446,0.09
1090,471.3640000007945,0.09
1091,471.3680000007945,0.085
1092,471.3720000007945,0.075
1093,471.37600000079453,0.07
1094,471.38000000079455,0.065
1095,471.3840000007946,0.05
1096,471.3880000007946,0.045
1097,471.3920000007946,0.045
1098,471.39600000079463,0.035
1099,471.40000000079465,0.035
1100,471.40400000079467,0.015
1101,471.4080000007947,0.005
1102,471.4120000007947,-0.015
1103,471.4160000007947,-0.035
1104,471.42000000079474,-0.05
1105,471.42400000079476,-0.055
1106,471.4280000007948,-0.07
1107,471.4320000007948,-0.08
1108,471.4360000007948,-0.085
1109,471.44000000079484,-0.085
1110,471.44400000079486,-0.095
1111,471.4480000007949,-0.095
1112,471.4520000007949,-0.1
1113,471.4560000007949,-0.1
1114,471.46000000079493,-0.09
1115,471.46400000079495,-0.07
1116,471.468000000795,-0.055
1117,471.472000000795,-0.025
1118,471.476000000795,-0.005
1119,471.48000000079503,0.01
1120,471.48400000079505,0.025
1121,471.48800000079507,0.03
1122,471.4920000007951,0.025
1123,471.4960000007951,0.02
1124,471.5000000007951,0.015
1125,471.50400000079514,0.01
1126,471.50800000079516,0.005
1127,471.5120000007952,0.005
1128,471.5160000007952,0.0
1129,471.5200000007952,0.0
1130,471.52400000079524,0.0
1131,471.52800000079526,-0.005
1132,471.5320000007953,0.0
1133,471.5360000007953,-0.01
1134,471.5400000007953,-0.02
1135,471.54400000079534,-0.035
1136,471.54800000079535,-0.05
1137,471.5520000007954,-0.055
1138,471.5560000007954,-0.07
1139,471.5600000007954,-0.07
1140,471.56400000079543,-0.08
1141,471.56800000079545,-0.08
1142,471.57200000079547,-0.075
1143,471.5760000007955,-0.07
1144,471.5800000007955,-0.06
1145,471.5840000007955,-0.05
1146,471.58800000079555,-0.04
1147,471.59200000079557,-0.03
1148,471.5960000007956,-0.025
1149,471.6000000007956,-0.02
1150,471.6040000007956,-0.03
1151,471.60800000079564,-0.035
1152,471.61200000079566,-0.045
1153,471.6160000007957,-0.05
1154,471.6200000007957,-0.06
1155,471.6240000007957,-0.065
1156,471.62800000079574,-0.07
1157,471.63200000079576,-0.08
1158,471.6360000007958,-0.085
1159,471.6400000007958,-0.095
1160,471.6440000007958,-0.09
1161,471.64800000079583,-0.065
1162,471.65200000079585,-0.04
1163,471.65600000079587,-0.005
1164,471.6600000007959,0.03
1165,471.6640000007959,0.075
1166,471.6680000007959,0.11
1167,471.67200000079595,0.15
1168,471.67600000079597,0.17
1169,471.680000000796,0.185
1170,471.684000000796,0.195
1171,471.688000000796,0.21
1172,471.69200000079604,0.225
1173,471.69600000079606,0.225
1174,471.7000000007961,0.22
1175,471.7040000007961,0.20500000000000002
1176,471.7080000007961,0.185
1177,471.71200000079614,0.155
1178,471.71600000079616,0.11
1179,471.7200000007962,0.055
1180,471.7240000007962,-0.01
1181,471.7280000007962,-0.08
1182,471.73200000079623,-0.145
1183,471.73600000079625,-0.195
1184,471.7400000007963,-0.24
1185,471.7440000007963,-0.27
1186,471.7480000007963,-0.29
1187,471.75200000079633,-0.315
1188,471.75600000079635,-0.335
1189,471.76000000079637,-0.34500000000000003
1190,471.7640000007964,-0.35000000000000003
1191,471.7680000007964,-0.35000000000000003
1192,471.7720000007964,-0.35000000000000003
1193,471.77600000079644,-0.33
1194,471.78000000079646,-0.32
1195,471.7840000007965,-0.3
1196,471.7880000007965,-0.295
1197,471.7920000007965,-0.28500000000000003
1198,471.79600000079654,-0.28
1199,471.80000000079656,-0.275
1200,471.8040000007966,-0.26
1201,471.8080000007966,-0.25
1202,471.8120000007966,-0.23500000000000001
1203,471.81600000079663,-0.21
1204,471.82000000079665,-0.18
1205,471.8240000007967,-0.145
1206,471.8280000007967,-0.09
1207,471.8320000007967,-0.045
1208,471.83600000079673,0.01
1209,471.84000000079675,0.075
1210,471.84400000079677,0.13
1211,471.8480000007968,0.17
1212,471.8520000007968,0.215
1213,471.8560000007968,0.24
1214,471.86000000079684,0.265
1215,471.86400000079686,0.28500000000000003
1216,471.8680000007969,0.295
1217,471.8720000007969,0.315
1218,471.8760000007969,0.32
1219,471.88000000079694,0.32
1220,471.88400000079696,0.315
1221,471.888000000797,0.305
1222,471.892000000797,0.28
1223,471.896000000797,0.26
1224,471.90000000079704,0.23
1225,471.90400000079705,0.195
1226,471.9080000007971,0.16
1227,471.9120000007971,0.11
1228,471.9160000007971,0.065
1229,471.92000000079713,0.02
1230,471.92400000079715,-0.015
1231,471.92800000079717,-0.06
1232,471.9320000007972,-0.11
1233,471.9360000007972,-0.145
1234,471.9400000007972,-0.19
1235,471.94400000079725,-0.23
1236,471.94800000079726,-0.255
1237,471.9520000007973,-0.27
1238,471.9560000007973,-0.27
1239,471.9600000007973,-0.25
1240,471.96400000079734,-0.225
1241,471.96800000079736,-0.195
1242,471.9720000007974,-0.165
1243,471.9760000007974,-0.15
1244,471.9800000007974,-0.135
1245,471.98400000079744,-0.125
1246,471.98800000079746,-0.125
1247,471.9920000007975,-0.13
1248,471.9960000007975,-0.14
1249,472.0000000007975,-0.16
1250,472.00400000079753,-0.18
1251,472.00800000079755,-0.20500000000000002
1252,472.01200000079757,-0.22
1253,472.0160000007976,-0.24
1254,472.0200000007976,-0.255
1255,472.0240000007976,-0.265
1256,472.02800000079765,-0.26
1257,472.03200000079767,-0.25
1258,472.0360000007977,-0.23
1259,472.0400000007977,-0.2
1260,472.0440000007977,-0.17
1261,472.04800000079774,-0.13
1262,472.05200000079776,-0.095
1263,472.0560000007978,-0.07
1264,472.0600000007978,-0.055
1265,472.0640000007978,-0.025
1266,472.06800000079784,-0.01
1267,472.07200000079786,0.0
1268,472.0760000007979,0.015
1269,472.0800000007979,0.025
1270,472.0840000007979,0.03
1271,472.08800000079793,0.03
1272,472.09200000079795,0.035
1273,472.09600000079797,0.055
1274,472.100000000798,0.07
1275,472.104000000798,0.105
1276,472.10800000079803,0.14
1277,472.11200000079805,0.17
1278,472.11600000079807,0.195
1279,472.1200000007981,0.2
1280,472.1240000007981,0.185
1281,472.1280000007981,0.16
1282,472.13200000079814,0.125
1283,472.13600000079816,0.09
1284,472.1400000007982,0.045
1285,472.1440000007982,0.005
1286,472.1480000007982,-0.03
1287,472.15200000079824,-0.07
1288,472.15600000079826,-0.105
1289,472.1600000007983,-0.13
1290,472.1640000007983,-0.145
1291,472.1680000007983,-0.15
1292,472.17200000079833,-0.15
1293,472.17600000079835,-0.125
1294,472.1800000007984,-0.115
1295,472.1840000007984,-0.095
1296,472.1880000007984,-0.075
1297,472.19200000079843,-0.05
1298,472.19600000079845,-0.03
1299,472.20000000079847,-0.01
1300,472.2040000007985,0.005
1301,472.2080000007985,0.025
1302,472.2120000007985,0.055
1303,472.21600000079854,0.075
1304,472.22000000079856,0.075
1305,472.2240000007986,0.075
1306,472.2280000007986,0.045
1307,472.2320000007986,0.005
1308,472.23600000079864,-0.035
1309,472.24000000079866,-0.07
1310,472.2440000007987,-0.09
1311,472.2480000007987,-0.095
1312,472.2520000007987,-0.09
1313,472.25600000079874,-0.08
1314,472.26000000079875,-0.06
1315,472.2640000007988,-0.045
1316,472.2680000007988,-0.035
1317,472.2720000007988,-0.02
1318,472.27600000079883,-0.01
1319,472.28000000079885,0.0
1320,472.28400000079887,0.01
1321,472.2880000007989,0.035
1322,472.2920000007989,0.06
1323,472.2960000007989,0.09
1324,472.30000000079895,0.115
1325,472.30400000079896,0.135
1326,472.308000000799,0.15
1327,472.312000000799,0.165
1328,472.316000000799,0.18
1329,472.32000000079904,0.185
1330,472.32400000079906,0.2
1331,472.3280000007991,0.20500000000000002
1332,472.3320000007991,0.20500000000000002
1333,472.3360000007991,0.19
1334,472.34000000079914,0.17500000000000002
1335,472.34400000079916,0.15
1336,472.3480000007992,0.12
1337,472.3520000007992,0.09
1338,472.3560000007992,0.06
1339,472.36000000079923,0.035
1340,472.36400000079925,0.0
1341,472.36800000079927,-0.025
1342,472.3720000007993,-0.065
1343,472.3760000007993,-0.105
1344,472.3800000007993,-0.14
1345,472.38400000079935,-0.18
1346,472.38800000079937,-0.21
1347,472.3920000007994,-0.23500000000000001
1348,472.3960000007994,-0.25
1349,472.4000000007994,-0.26
1350,472.40400000079944,-0.26
1351,472.40800000079946,-0.255
1352,472.4120000007995,-0.25
1353,472.4160000007995,-0.24
1354,472.4200000007995,-0.225
1355,472.42400000079954,-0.20500000000000002
1356,472.42800000079956,-0.195
1357,472.4320000007996,-0.18
1358,472.4360000007996,-0.17500000000000002
1359,472.4400000007996,-0.18
1360,472.44400000079963,-0.185
1361,472.44800000079965,-0.195
1362,472.45200000079967,-0.2
1363,472.4560000007997,-0.20500000000000002
1364,472.4600000007997,-0.215
1365,472.46400000079973,-0.225
1366,472.46800000079975,-0.23500000000000001
1367,472.47200000079977,-0.23500000000000001
1368,472.4760000007998,-0.23500000000000001
1369,472.4800000007998,-0.22
1370,472.4840000007998,-0.20500000000000002
1371,472.48800000079984,-0.18
1372,472.49200000079986,-0.155
1373,472.4960000007999,-0.12
1374,472.5000000007999,-0.085
1375,472.5040000007999,-0.045
1376,472.50800000079994,-0.005
1377,472.51200000079996,0.025
1378,472.5160000008,0.055
1379,472.5200000008,0.08
1380,472.5240000008,0.11
1381,472.52800000080003,0.14
1382,472.53200000080005,0.155
1383,472.5360000008001,0.17500000000000002
1384,472.5400000008001,0.19
1385,472.5440000008001,0.195
1386,472.54800000080013,0.195
1387,472.55200000080015,0.19
1388,472.55600000080017,0.165
1389,472.5600000008002,0.13
1390,472.5640000008002,0.085
1391,472.5680000008002,0.035
1392,472.57200000080024,-0.005
1393,472.57600000080026,-0.05
1394,472.5800000008003,-0.095
1395,472.5840000008003,-0.135
1396,472.5880000008003,-0.17500000000000002
1397,472.59200000080034,-0.225
1398,472.59600000080036,-0.265
1399,472.6000000008004,-0.305
1400,472.6040000008004,-0.335
1401,472.6080000008004,-0.36
1402,472.61200000080044,-0.39
1403,472.61600000080045,-0.405
1404,472.6200000008005,-0.425
1405,472.6240000008005,-0.425
1406,472.6280000008005,-0.42
1407,472.63200000080053,-0.41000000000000003
1408,472.63600000080055,-0.395
1409,472.64000000080057,-0.37
1410,472.6440000008006,-0.34
1411,472.6480000008006,-0.305
1412,472.6520000008006,-0.265
1413,472.65600000080065,-0.23
1414,472.66000000080066,-0.19
1415,472.6640000008007,-0.155
1416,472.6680000008007,-0.11
1417,472.6720000008007,-0.06
1418,472.67600000080074,-0.005
1419,472.68000000080076,0.04
1420,472.6840000008008,0.09
1421,472.6880000008008,0.14
1422,472.6920000008008,0.17
1423,472.69600000080084,0.195
1424,472.70000000080086,0.21
1425,472.7040000008009,0.215
1426,472.7080000008009,0.215
1427,472.7120000008009,0.21
1428,472.71600000080093,0.215
1429,472.72000000080095,0.21
1430,472.72400000080097,0.215
1431,472.728000000801,0.20500000000000002
1432,472.732000000801,0.2
1433,472.736000000801,0.2
1434,472.74000000080105,0.195
1435,472.74400000080107,0.185
1436,472.7480000008011,0.17
1437,472.7520000008011,0.15
1438,472.7560000008011,0.135
1439,472.76000000080114,0.12
1440,472.76400000080116,0.105
1441,472.7680000008012,0.09
1442,472.7720000008012,0.075
1443,472.7760000008012,0.06
1444,472.78000000080124,0.05
1445,472.78400000080126,0.04
1446,472.7880000008013,0.03
1447,472.7920000008013,0.035
1448,472.7960000008013,0.03
1449,472.80000000080133,0.03
1450,472.80400000080135,0.03
1451,472.80800000080137,0.025
1452,472.8120000008014,0.025
1453,472.8160000008014,0.015
1454,472.82000000080143,0.005
1455,472.82400000080145,0.0
1456,472.82800000080147,-0.015
1457,472.8320000008015,-0.015
1458,472.8360000008015,-0.03
1459,472.8400000008015,-0.035
1460,472.84400000080154,-0.045
1461,472.84800000080156,-0.055
1462,472.8520000008016,-0.07
1463,472.8560000008016,-0.105
1464,472.8600000008016,-0.155
1465,472.86400000080164,-0.21
1466,472.86800000080166,-0.27
1467,472.8720000008017,-0.32
1468,472.8760000008017,-0.35000000000000003
1469,472.8800000008017,-0.37
1470,472.88400000080173,-0.375
1471,472.88800000080175,-0.37
1472,472.8920000008018,-0.365
1473,472.8960000008018,-0.36
1474,472.9000000008018,-0.36
1475,472.90400000080183,-0.365
1476,472.90800000080185,-0.365
1477,472.91200000080187,-0.36
1478,472.9160000008019,-0.34500000000000003
1479,472.9200000008019,-0.325
1480,472.9240000008019,-0.3
1481,472.92800000080194,-0.265
1482,472.93200000080196,-0.23500000000000001
1483,472.936000000802,-0.20500000000000002
1484,472.940000000802,-0.17
1485,472.944000000802,-0.145
1486,472.94800000080204,-0.11
1487,472.95200000080206,-0.075
1488,472.9560000008021,-0.055
1489,472.9600000008021,-0.03
1490,472.9640000008021,-0.01
1491,472.96800000080214,0.01
1492,472.97200000080215,0.04
1493,472.9760000008022,0.065
1494,472.9800000008022,0.09
1495,472.9840000008022,0.115
1496,472.98800000080223,0.135
1497,472.99200000080225,0.155
1498,472.99600000080227,0.17500000000000002
1499,473.0000000008023,0.185
1500,473.0040000008023,0.21
1501,473.0080000008023,0.22
1502,473.01200000080235,0.225
1503,473.01600000080236,0.225
1504,473.0200000008024,0.225
1505,473.0240000008024,0.21
1506,473.0280000008024,0.195
1507,473.03200000080244,0.17500000000000002
1508,473.03600000080246,0.16
1509,473.0400000008025,0.145
1510,473.0440000008025,0.125
1511,473.0480000008025,0.115
1512,473.05200000080254,0.095
1513,473.05600000080256,0.085
1514,473.0600000008026,0.06
1515,473.0640000008026,0.035
1516,473.0680000008026,0.005
1517,473.07200000080263,-0.015
1518,473.07600000080265,-0.045
1519,473.08000000080267,-0.07
1520,473.0840000008027,-0.095
1521,473.0880000008027,-0.12
1522,473.0920000008027,-0.155
1523,473.09600000080275,-0.195
1524,473.10000000080277,-0.23
1525,473.1040000008028,-0.25
1526,473.1080000008028,-0.265
1527,473.1120000008028,-0.27
1528,473.11600000080284,-0.27
1529,473.12000000080286,-0.25
1530,473.1240000008029,-0.24
1531,473.1280000008029,-0.23500000000000001
1532,473.1320000008029,-0.21
1533,473.13600000080294,-0.19
1534,473.14000000080296,-0.165
1535,473.144000000803,-0.135
1536,473.148000000803,-0.105
1537,473.152000000803,-0.07
1538,473.15600000080303,-0.03
1539,473.16000000080305,0.0
1540,473.16400000080307,0.03
1541,473.1680000008031,0.055
1542,473.1720000008031,0.07
1543,473.1760000008031,0.08
1544,473.18000000080315,0.075
1545,473.18400000080317,0.06
1546,473.1880000008032,0.045
1547,473.1920000008032,0.035
1548,473.1960000008032,0.015
1549,473.20000000080324,0.0
1550,473.20400000080326,-0.015
1551,473.2080000008033,-0.035
1552,473.2120000008033,-0.06
1553,473.2160000008033,-0.085
1554,473.22000000080334,-0.1
1555,473.22400000080336,-0.125
1556,473.2280000008034,-0.145
1557,473.2320000008034,-0.16
1558,473.2360000008034,-0.17
1559,473.24000000080343,-0.165
1560,473.24400000080345,-0.145
1561,473.2480000008035,-0.12
1562,473.2520000008035,-0.09
1563,473.2560000008035,-0.055
1564,473.26000000080353,-0.02
1565,473.26400000080355,0.0
1566,473.26800000080357,0.025
1567,473.2720000008036,0.045
1568,473.2760000008036,0.07
1569,473.2800000008036,0.075
1570,473.28400000080364,0.09
1571,473.28800000080366,0.105
1572,473.2920000008037,0.115
1573,473.2960000008037,0.13
1574,473.3000000008037,0.14
1575,473.30400000080374,0.155
1576,473.30800000080376,0.17
1577,473.3120000008038,0.17
1578,473.3160000008038,0.17
1579,473.3200000008038,0.16
1580,473.32400000080384,0.15
1581,473.32800000080385,0.135
1582,473.3320000008039,0.12
1583,473.3360000008039,0.105
1584,473.3400000008039,0.095
1585,473.34400000080393,0.065
1586,473.34800000080395,0.035
1587,473.35200000080397,0.0
1588,473.356000000804,-0.035
1589,473.360000000804,-0.055
1590,473.364000000804,-0.08
1591,473.36800000080405,-0.105
1592,473.37200000080406,-0.12
1593,473.3760000008041,-0.13
1594,473.3800000008041,-0.14
1595,473.3840000008041,-0.155
1596,473.38800000080414,-0.165
1597,473.39200000080416,-0.185
1598,473.3960000008042,-0.21
1599,473.4000000008042,-0.23
1600,473.4040000008042,-0.25
1601,473.40800000080424,-0.265
1602,473.41200000080426,-0.27
1603,473.4160000008043,-0.28
1604,473.4200000008043,-0.28500000000000003
1605,473.4240000008043,-0.28
1606,473.42800000080433,-0.275
1607,473.43200000080435,-0.265
1608,473.43600000080437,-0.27
1609,473.4400000008044,-0.265
1610,473.4440000008044,-0.28
1611,473.4480000008044,-0.275
1612,473.45200000080445,-0.28500000000000003
1613,473.45600000080447,-0.28500000000000003
1614,473.4600000008045,-0.28
1615,473.4640000008045,-0.27
1616,473.4680000008045,-0.25
1617,473.47200000080454,-0.22
1618,473.47600000080456,-0.185
1619,473.4800000008046,-0.145
1620,473.4840000008046,-0.09
1621,473.4880000008046,-0.02
1622,473.49200000080464,0.06
1623,473.49600000080466,0.155
1624,473.5000000008047,0.255
1625,473.5040000008047,0.34500000000000003
1626,473.5080000008047,0.425
1627,473.51200000080473,0.495
1628,473.51600000080475,0.555
1629,473.52000000080477,0.61
1630,473.5240000008048,0.65
1631,473.5280000008048,0.68
1632,473.5320000008048,0.7000000000000001
1633,473.53600000080485,0.715
1634,473.54000000080487,0.705
1635,473.5440000008049,0.685
1636,473.5480000008049,0.655
1637,473.5520000008049,0.62
1638,473.55600000080494,0.5750000000000001
1639,473.56000000080496,0.51
1640,473.564000000805,0.45
1641,473.568000000805,0.375
1642,473.572000000805,0.295
1643,473.57600000080504,0.215
1644,473.58000000080506,0.135
1645,473.5840000008051,0.06
1646,473.5880000008051,-0.015
1647,473.5920000008051,-0.095
1648,473.59600000080513,-0.17500000000000002
1649,473.60000000080515,-0.265
1650,473.6040000008052,-0.34500000000000003
1651,473.6080000008052,-0.43
1652,473.6120000008052,-0.505
1653,473.61600000080523,-0.585
1654,473.62000000080525,-0.64
1655,473.62400000080527,-0.6950000000000001
1656,473.6280000008053,-0.745
1657,473.6320000008053,-0.795
1658,473.6360000008053,-0.84
1659,473.64000000080534,-0.885
1660,473.64400000080536,-0.91
1661,473.6480000008054,-0.93
1662,473.6520000008054,-0.925
1663,473.6560000008054,-0.895
1664,473.66000000080544,-0.855
1665,473.66400000080546,-0.805
1666,473.6680000008055,-0.75
1667,473.6720000008055,-0.685
1668,473.6760000008055,-0.62
1669,473.68000000080553,-0.545
1670,473.68400000080555,-0.465
1671,473.6880000008056,-0.385
1672,473.6920000008056,-0.305
1673,473.6960000008056,-0.22
1674,473.70000000080563,-0.12
1675,473.70400000080565,-0.015
1676,473.70800000080567,0.085
1677,473.7120000008057,0.19
1678,473.7160000008057,0.275
1679,473.7200000008057,0.34500000000000003
1680,473.72400000080575,0.385
1681,473.72800000080576,0.41000000000000003
1682,473.7320000008058,0.42
1683,473.7360000008058,0.41500000000000004
1684,473.7400000008058,0.405
1685,473.74400000080584,0.385
1686,473.74800000080586,0.375
1687,473.7520000008059,0.355
1688,473.7560000008059,0.335
1689,473.7600000008059,0.305
1690,473.76400000080594,0.275
1691,473.76800000080596,0.245
1692,473.772000000806,0.21
1693,473.776000000806,0.17500000000000002
1694,473.780000000806,0.14
1695,473.78400000080603,0.11
1696,473.78800000080605,0.075
1697,473.79200000080607,0.03
1698,473.7960000008061,-0.01
1699,473.8000000008061,-0.055
1700,473.8040000008061,-0.095
1701,473.80800000080615,-0.135
1702,473.81200000080617,-0.165
1703,473.8160000008062,-0.19
1704,473.8200000008062,-0.21
1705,473.8240000008062,-0.22
1706,473.82800000080624,-0.24
1707,473.83200000080626,-0.255
1708,473.8360000008063,-0.265
1709,473.8400000008063,-0.265
1710,473.8440000008063,-0.26
1711,473.84800000080634,-0.25
1712,473.85200000080636,-0.245
1713,473.8560000008064,-0.23
1714,473.8600000008064,-0.23500000000000001
1715,473.8640000008064,-0.23
1716,473.86800000080643,-0.225
1717,473.87200000080645,-0.20500000000000002
1718,473.87600000080647,-0.17500000000000002
1719,473.8800000008065,-0.13
1720,473.8840000008065,-0.075
1721,473.8880000008065,-0.015
1722,473.89200000080655,0.045
1723,473.89600000080657,0.095
1724,473.9000000008066,0.145
1725,473.9040000008066,0.195
1726,473.9080000008066,0.24
1727,473.91200000080664,0.28
1728,473.91600000080666,0.315
1729,473.9200000008067,0.34
1730,473.9240000008067,0.35000000000000003
1731,473.9280000008067,0.35000000000000003
1732,473.93200000080674,0.35000000000000003
1733,473.93600000080676,0.33
1734,473.9400000008068,0.31
1735,473.9440000008068,0.28500000000000003
1736,473.9480000008068,0.255
1737,473.95200000080683,0.225
1738,473.95600000080685,0.19
1739,473.9600000008069,0.155
1740,473.9640000008069,0.12
1741,473.9680000008069,0.085
1742,473.97200000080693,0.045
1743,473.97600000080695,0.005
1744,473.98000000080697,-0.025
1745,473.984000000807,-0.06
1746,473.988000000807,-0.085
1747,473.992000000807,-0.115
1748,473.99600000080704,-0.135
1749,474.00000000080706,-0.15
1750,474.0040000008071,-0.16
1751,474.0080000008071,-0.185
1752,474.0120000008071,-0.20500000000000002
1753,474.01600000080714,-0.23500000000000001
1754,474.02000000080716,-0.27
1755,474.0240000008072,-0.29
1756,474.0280000008072,-0.315
1757,474.0320000008072,-0.32
1758,474.03600000080723,-0.315
1759,474.04000000080725,-0.305
1760,474.0440000008073,-0.295
1761,474.0480000008073,-0.28
1762,474.0520000008073,-0.255
1763,474.05600000080733,-0.225
1764,474.06000000080735,-0.195
1765,474.06400000080737,-0.17
1766,474.0680000008074,-0.15
1767,474.0720000008074,-0.125
1768,474.0760000008074,-0.11
1769,474.08000000080744,-0.085
1770,474.08400000080746,-0.07
1771,474.0880000008075,-0.04
1772,474.0920000008075,-0.005
1773,474.0960000008075,0.02
1774,474.10000000080754,0.045
1775,474.10400000080756,0.07
1776,474.1080000008076,0.085
1777,474.1120000008076,0.095
1778,474.1160000008076,0.095
1779,474.12000000080764,0.095
1780,474.12400000080765,0.085
1781,474.1280000008077,0.07
1782,474.1320000008077,0.06
1783,474.1360000008077,0.05
1784,474.14000000080773,0.045
1785,474.14400000080775,0.045
1786,474.14800000080777,0.05
1787,474.1520000008078,0.055
1788,474.1560000008078,0.055
1789,474.1600000008078,0.07
1790,474.16400000080785,0.065
1791,474.16800000080787,0.075
1792,474.1720000008079,0.08
1793,474.1760000008079,0.08
1794,474.1800000008079,0.09
1795,474.18400000080794,0.085
1796,474.18800000080796,0.08
1797,474.192000000808,0.075
1798,474.196000000808,0.065
1799,474.200000000808,0.055
1800,474.20400000080804,0.035
1801,474.20800000080806,0.02
1802,474.2120000008081,0.01
1803,474.2160000008081,0.0
1804,474.2200000008081,-0.015
1805,474.22400000080813,-0.04
1806,474.22800000080815,-0.08
1807,474.23200000080817,-0.11
1808,474.2360000008082,-0.14
1809,474.2400000008082,-0.165
1810,474.2440000008082,-0.195
1811,474.24800000080825,-0.215
1812,474.25200000080827,-0.23
1813,474.2560000008083,-0.255
1814,474.2600000008083,-0.275
1815,474.2640000008083,-0.29
1816,474.26800000080834,-0.295
1817,474.27200000080836,-0.305
1818,474.2760000008084,-0.3
1819,474.2800000008084,-0.29
1820,474.2840000008084,-0.27
1821,474.28800000080844,-0.25
1822,474.29200000080846,-0.23500000000000001
1823,474.2960000008085,-0.225
1824,474.3000000008085,-0.22
1825,474.3040000008085,-0.22
1826,474.30800000080853,-0.22
1827,474.31200000080855,-0.21
1828,474.3160000008086,-0.195
1829,474.3200000008086,-0.17
1830,474.3240000008086,-0.145
1831,474.32800000080863,-0.12
1832,474.33200000080865,-0.095
1833,474.33600000080867,-0.075
1834,474.3400000008087,-0.05
1835,474.3440000008087,-0.025
1836,474.3480000008087,0.0
1837,474.35200000080874,0.04
1838,474.35600000080876,0.085
1839,474.3600000008088,0.14
1840,474.3640000008088,0.185
1841,474.3680000008088,0.23500000000000001
1842,474.37200000080884,0.27
1843,474.37600000080886,0.29
1844,474.3800000008089,0.3
1845,474.3840000008089,0.3
1846,474.3880000008089,0.28500000000000003
1847,474.39200000080893,0.265
1848,474.39600000080895,0.23
1849,474.400000000809,0.18
1850,474.404000000809,0.13
1851,474.408000000809,0.05
1852,474.41200000080903,-0.02
1853,474.41600000080905,-0.1
1854,474.42000000080907,-0.17500000000000002
1855,474.4240000008091,-0.225
1856,474.4280000008091,-0.26
1857,474.4320000008091,-0.28
1858,474.43600000080914,-0.295
1859,474.44000000080916,-0.295
1860,474.4440000008092,-0.3
1861,474.4480000008092,-0.28500000000000003
1862,474.4520000008092,-0.26
1863,474.45600000080924,-0.23
1864,474.46000000080926,-0.2
1865,474.4640000008093,-0.17
1866,474.4680000008093,-0.145
1867,474.4720000008093,-0.125
1868,474.47600000080934,-0.105
1869,474.48000000080935,-0.065
1870,474.4840000008094,-0.035
1871,474.4880000008094,-0.005
1872,474.4920000008094,0.025
1873,474.49600000080943,0.05
1874,474.50000000080945,0.085
1875,474.50400000080947,0.105
1876,474.5080000008095,0.115
1877,474.5120000008095,0.145
1878,474.5160000008095,0.14
1879,474.52000000080955,0.15
1880,474.52400000080956,0.145
1881,474.5280000008096,0.145
1882,474.5320000008096,0.14
1883,474.5360000008096,0.125
1884,474.54000000080964,0.105
1885,474.54400000080966,0.08
1886,474.5480000008097,0.045
1887,474.5520000008097,0.01
1888,474.5560000008097,-0.03
1889,474.56000000080974,-0.07
1890,474.56400000080976,-0.1
1891,474.5680000008098,-0.12
1892,474.5720000008098,-0.135
1893,474.5760000008098,-0.14
1894,474.58000000080983,-0.145
1895,474.58400000080985,-0.145
1896,474.58800000080987,-0.15
1897,474.5920000008099,-0.14
1898,474.5960000008099,-0.14
1899,474.6000000008099,-0.13
1900,474.60400000080995,-0.115
1901,474.60800000080997,-0.1
1902,474.61200000081,-0.085
1903,474.61600000081,-0.06
1904,474.62000000081,-0.04
1905,474.62400000081004,-0.02
1906,474.62800000081006,0.0
1907,474.6320000008101,0.02
1908,474.6360000008101,0.04
1909,474.6400000008101,0.065
1910,474.64400000081014,0.09
1911,474.64800000081016,0.115
1912,474.6520000008102,0.135
1913,474.6560000008102,0.15
1914,474.6600000008102,0.165
1915,474.66400000081023,0.17500000000000002
1916,474.66800000081025,0.185
1917,474.67200000081027,0.195
1918,474.6760000008103,0.21
1919,474.6800000008103,0.225
1920,474.68400000081033,0.24
1921,474.68800000081035,0.255
1922,474.69200000081037,0.26
1923,474.6960000008104,0.25
1924,474.7000000008104,0.215
1925,474.7040000008104,0.17
1926,474.70800000081044,0.135
1927,474.71200000081046,0.09
1928,474.7160000008105,0.04
1929,474.7200000008105,-0.005
1930,474.7240000008105,-0.065
1931,474.72800000081054,-0.12
1932,474.73200000081056,-0.17
1933,474.7360000008106,-0.215
1934,474.7400000008106,-0.23
1935,474.7440000008106,-0.255
1936,474.74800000081063,-0.265
1937,474.75200000081065,-0.275
1938,474.7560000008107,-0.295
1939,474.7600000008107,-0.31
1940,474.7640000008107,-0.33
1941,474.76800000081073,-0.35000000000000003
1942,474.77200000081075,-0.375
1943,474.77600000081077,-0.395
1944,474.7800000008108,-0.41500000000000004
1945,474.7840000008108,-0.43
1946,474.7880000008108,-0.45
1947,474.79200000081084,-0.46
1948,474.79600000081086,-0.47000000000000003
1949,474.8000000008109,-0.47500000000000003
1950,474.8040000008109,-0.47500000000000003
1951,474.8080000008109,-0.48
1952,474.81200000081094,-0.47500000000000003
1953,474.81600000081096,-0.47000000000000003
1954,474.820000000811,-0.455
1955,474.824000000811,-0.425
1956,474.828000000811,-0.395
1957,474.83200000081104,-0.34500000000000003
1958,474.83600000081105,-0.28500000000000003
1959,474.8400000008111,-0.22
1960,474.8440000008111,-0.16
1961,474.8480000008111,-0.095
1962,474.85200000081113,-0.03
1963,474.85600000081115,0.025
1964,474.86000000081117,0.075
1965,474.8640000008112,0.15
1966,474.8680000008112,0.2
1967,474.8720000008112,0.245
1968,474.87600000081125,0.28
1969,474.88000000081126,0.31
1970,474.8840000008113,0.335
1971,474.8880000008113,0.34500000000000003
1972,474.8920000008113,0.33
1973,474.89600000081134,0.315
1974,474.90000000081136,0.28500000000000003
1975,474.9040000008114,0.25
1976,474.9080000008114,0.215
1977,474.9120000008114,0.17500000000000002
1978,474.91600000081144,0.14
1979,474.92000000081146,0.105
1980,474.9240000008115,0.08
1981,474.9280000008115,0.06
1982,474.9320000008115,0.05
1983,474.93600000081153,0.05
1984,474.94000000081155,0.05
1985,474.94400000081157,0.055
1986,474.9480000008116,0.07
1987,474.9520000008116,0.08
1988,474.9560000008116,0.1
1989,474.96000000081165,0.105
1990,474.96400000081167,0.12
1991,474.9680000008117,0.13
1992,474.9720000008117,0.14
1993,474.9760000008117,0.145
1994,474.98000000081174,0.14
1995,474.98400000081176,0.14
1996,474.9880000008118,0.13
1997,474.9920000008118,0.125
1998,474.9960000008118,0.125
1999,475.00000000081184,0.1
2000,475.00400000081186,0.075
2001,475.0080000008119,0.04
2002,475.0120000008119,0.01
2003,475.0160000008119,-0.025
2004,475.02000000081193,-0.06
2005,475.02400000081195,-0.1
2006,475.02800000081197,-0.14
2007,475.032000000812,-0.165
2008,475.036000000812,-0.185
2009,475.04000000081203,-0.195
2010,475.04400000081205,-0.21
2011,475.04800000081207,-0.215
2012,475.0520000008121,-0.225
2013,475.0560000008121,-0.23500000000000001
2014,475.0600000008121,-0.255
2015,475.06400000081214,-0.265
2016,475.06800000081216,-0.27
2017,475.0720000008122,-0.28
2018,475.0760000008122,-0.28500000000000003
2019,475.0800000008122,-0.28500000000000003
2020,475.08400000081224,-0.3
2021,475.08800000081226,-0.295
2022,475.0920000008123,-0.29
2023,475.0960000008123,-0.28
2024,475.1000000008123,-0.25
2025,475.10400000081233,-0.23
2026,475.10800000081235,-0.20500000000000002
2027,475.1120000008124,-0.185
2028,475.1160000008124,-0.17500000000000002
2029,475.1200000008124,-0.16
2030,475.12400000081243,-0.145
2031,475.12800000081245,-0.125
2032,475.13200000081247,-0.095
2033,475.1360000008125,-0.06
2034,475.1400000008125,-0.025
2035,475.1440000008125,0.005
2036,475.14800000081254,0.03
2037,475.15200000081256,0.065
2038,475.1560000008126,0.08
2039,475.1600000008126,0.095
2040,475.1640000008126,0.105
2041,475.16800000081264,0.12
2042,475.17200000081266,0.125
2043,475.1760000008127,0.15
2044,475.1800000008127,0.165
2045,475.1840000008127,0.18
2046,475.18800000081274,0.19
2047,475.19200000081275,0.19
2048,475.1960000008128,0.18
2049,475.2000000008128,0.18
2050,475.2040000008128,0.17500000000000002
2051,475.20800000081283,0.17500000000000002
2052,475.21200000081285,0.17
2053,475.21600000081287,0.165
2054,475.2200000008129,0.165
2055,475.2240000008129,0.165
2056,475.2280000008129,0.165
2057,475.23200000081295,0.16
2058,475.23600000081296,0.15
2059,475.240000000813,0.145
2060,475.244000000813,0.13
2061,475.248000000813,0.105
2062,475.25200000081304,0.075
2063,475.25600000081306,0.04
2064,475.2600000008131,0.005
2065,475.2640000008131,-0.02
2066,475.2680000008131,-0.055
2067,475.27200000081314,-0.085
2068,475.27600000081316,-0.125
2069,475.2800000008132,-0.165
2070,475.2840000008132,-0.20500000000000002
2071,475.2880000008132,-0.25
2072,475.29200000081323,-0.28500000000000003
2073,475.29600000081325,-0.31
2074,475.30000000081327,-0.32
2075,475.3040000008133,-0.34
2076,475.3080000008133,-0.325
2077,475.3120000008133,-0.33
2078,475.31600000081335,-0.315
2079,475.32000000081337,-0.3
2080,475.3240000008134,-0.28
2081,475.3280000008134,-0.26
2082,475.3320000008134,-0.23500000000000001
2083,475.33600000081344,-0.215
2084,475.34000000081346,-0.19
2085,475.3440000008135,-0.17
2086,475.3480000008135,-0.15
2087,475.3520000008135,-0.13
2088,475.35600000081354,-0.11
2089,475.36000000081356,-0.09
2090,475.3640000008136,-0.065
2091,475.3680000008136,-0.03
2092,475.3720000008136,0.0
2093,475.37600000081363,0.035
2094,475.38000000081365,0.065
2095,475.38400000081367,0.085
2096,475.3880000008137,0.1
2097,475.3920000008137,0.11
2098,475.39600000081373,0.1
2099,475.40000000081375,0.1
2100,475.40400000081377,0.085
2101,475.4080000008138,0.06
2102,475.4120000008138,0.055
2103,475.4160000008138,0.04
2104,475.42000000081384,0.045
2105,475.42400000081386,0.07
2106,475.4280000008139,0.11
2107,475.4320000008139,0.145
2108,475.4360000008139,0.17
2109,475.44000000081394,0.195
2110,475.44400000081396,0.215
2111,475.448000000814,0.225
2112,475.452000000814,0.22
2113,475.456000000814,0.215
2114,475.46000000081403,0.18
2115,475.46400000081405,0.135
2116,475.4680000008141,0.085
2117,475.4720000008141,0.035
2118,475.4760000008141,-0.005
2119,475.48000000081413,-0.06
2120,475.48400000081415,-0.095
2121,475.48800000081417,-0.14
2122,475.4920000008142,-0.17500000000000002
2123,475.4960000008142,-0.215
2124,475.5000000008142,-0.245
2125,475.50400000081424,-0.26
2126,475.50800000081426,-0.265
2127,475.5120000008143,-0.26
2128,475.5160000008143,-0.25
2129,475.5200000008143,-0.23
2130,475.52400000081434,-0.22
2131,475.52800000081436,-0.2
2132,475.5320000008144,-0.185
2133,475.5360000008144,-0.165
2134,475.5400000008144,-0.155
2135,475.54400000081444,-0.15
2136,475.54800000081445,-0.145
2137,475.5520000008145,-0.15
2138,475.5560000008145,-0.155
2139,475.5600000008145,-0.15
2140,475.56400000081453,-0.14
2141,475.56800000081455,-0.14
2142,475.57200000081457,-0.135
2143,475.5760000008146,-0.12
2144,475.5800000008146,-0.11
2145,475.5840000008146,-0.1
2146,475.58800000081465,-0.085
2147,475.59200000081466,-0.075
2148,475.5960000008147,-0.065
2149,475.6000000008147,-0.055
2150,475.6040000008147,-0.04
2151,475.60800000081474,-0.03
2152,475.61200000081476,-0.01
2153,475.6160000008148,-0.005
2154,475.6200000008148,0.0
2155,475.6240000008148,-0.01
2156,475.62800000081484,-0.025
2157,475.63200000081486,-0.055
2158,475.6360000008149,-0.08
2159,475.6400000008149,-0.115
2160,475.6440000008149,-0.14
2161,475.64800000081493,-0.165
2162,475.65200000081495,-0.195
2163,475.65600000081497,-0.21
2164,475.660000000815,-0.225
2165,475.664000000815,-0.23500000000000001
2166,475.668000000815,-0.24
2167,475.67200000081505,-0.23500000000000001
2168,475.67600000081507,-0.24
2169,475.6800000008151,-0.23
2170,475.6840000008151,-0.23
2171,475.6880000008151,-0.225
2172,475.69200000081514,-0.225
2173,475.69600000081516,-0.20500000000000002
2174,475.7000000008152,-0.19
2175,475.7040000008152,-0.155
2176,475.7080000008152,-0.13
2177,475.71200000081524,-0.095
2178,475.71600000081526,-0.06
2179,475.7200000008153,-0.005
2180,475.7240000008153,0.03
2181,475.7280000008153,0.08
2182,475.73200000081533,0.13
2183,475.73600000081535,0.155
2184,475.74000000081537,0.185
2185,475.7440000008154,0.20500000000000002
2186,475.7480000008154,0.225
2187,475.7520000008154,0.245
2188,475.75600000081545,0.265
2189,475.76000000081547,0.275
2190,475.7640000008155,0.28500000000000003
2191,475.7680000008155,0.275
2192,475.7720000008155,0.255
2193,475.77600000081554,0.225
2194,475.78000000081556,0.195
2195,475.7840000008156,0.16
2196,475.7880000008156,0.125
2197,475.7920000008156,0.09
2198,475.79600000081564,0.05
2199,475.80000000081566,0.01
2200,475.8040000008157,-0.005
2201,475.8080000008157,-0.045
2202,475.8120000008157,-0.06
2203,475.81600000081573,-0.075
2204,475.82000000081575,-0.07
2205,475.8240000008158,-0.055
2206,475.8280000008158,-0.035
2207,475.8320000008158,-0.01
2208,475.83600000081583,0.01
2209,475.84000000081585,0.03
2210,475.84400000081587,0.045
2211,475.8480000008159,0.055
2212,475.8520000008159,0.065
2213,475.8560000008159,0.075
2214,475.86000000081594,0.075
2215,475.86400000081596,0.07
2216,475.868000000816,0.055
2217,475.872000000816,0.03
2218,475.876000000816,-0.005
2219,475.88000000081604,-0.055
2220,475.88400000081606,-0.115
2221,475.8880000008161,-0.18
2222,475.8920000008161,-0.245
2223,475.8960000008161,-0.305
2224,475.90000000081614,-0.355
2225,475.90400000081615,-0.395
2226,475.9080000008162,-0.43
2227,475.9120000008162,-0.45
2228,475.9160000008162,-0.465
2229,475.92000000081623,-0.47000000000000003
2230,475.92400000081625,-0.47000000000000003
2231,475.92800000081627,-0.45
2232,475.9320000008163,-0.425
2233,475.9360000008163,-0.375
2234,475.9400000008163,-0.325
2235,475.94400000081635,-0.255
2236,475.94800000081636,-0.195
2237,475.9520000008164,-0.12
2238,475.9560000008164,-0.045
2239,475.9600000008164,0.015
2240,475.96400000081644,0.085
2241,475.96800000081646,0.16
2242,475.9720000008165,0.215
2243,475.9760000008165,0.265
2244,475.9800000008165,0.295
2245,475.98400000081654,0.31
2246,475.98800000081656,0.315
2247,475.9920000008166,0.3
2248,475.9960000008166,0.275
2249,476.0000000008166,0.245
2250,476.00400000081663,0.20500000000000002
2251,476.00800000081665,0.16
2252,476.01200000081667,0.13
2253,476.0160000008167,0.09
2254,476.0200000008167,0.065
2255,476.0240000008167,0.04
2256,476.02800000081675,0.015
2257,476.03200000081677,0.0
2258,476.0360000008168,-0.005
2259,476.0400000008168,-0.02
2260,476.0440000008168,-0.02
2261,476.04800000081684,-0.02
2262,476.05200000081686,-0.02
2263,476.0560000008169,-0.02
2264,476.0600000008169,-0.035
2265,476.0640000008169,-0.035
2266,476.06800000081694,-0.05
2267,476.07200000081696,-0.06
2268,476.076000000817,-0.08
2269,476.080000000817,-0.095
2270,476.084000000817,-0.1
2271,476.08800000081703,-0.11
2272,476.09200000081705,-0.11
2273,476.09600000081707,-0.115
2274,476.1000000008171,-0.11
2275,476.1040000008171,-0.1
2276,476.1080000008171,-0.085
2277,476.11200000081715,-0.07
2278,476.11600000081717,-0.065
2279,476.1200000008172,-0.06
2280,476.1240000008172,-0.06
2281,476.1280000008172,-0.07
2282,476.13200000081724,-0.095
2283,476.13600000081726,-0.12
2284,476.1400000008173,-0.14
2285,476.1440000008173,-0.16
2286,476.1480000008173,-0.18
2287,476.15200000081734,-0.185
2288,476.15600000081736,-0.18
2289,476.1600000008174,-0.17500000000000002
2290,476.1640000008174,-0.155
2291,476.1680000008174,-0.13
2292,476.17200000081743,-0.1
2293,476.17600000081745,-0.07
2294,476.1800000008175,-0.02
2295,476.1840000008175,0.03
2296,476.1880000008175,0.1
2297,476.19200000081753,0.18
2298,476.19600000081755,0.245
2299,476.20000000081757,0.295
2300,476.2040000008176,0.315
2301,476.2080000008176,0.305
2302,476.2120000008176,0.28500000000000003
2303,476.21600000081764,0.245
2304,476.22000000081766,0.215
2305,476.2240000008177,0.17
2306,476.2280000008177,0.135
2307,476.2320000008177,0.1
2308,476.23600000081774,0.065
2309,476.24000000081776,0.025
2310,476.2440000008178,-0.005
2311,476.2480000008178,-0.045
2312,476.2520000008178,-0.09
2313,476.25600000081783,-0.12
2314,476.26000000081785,-0.15
2315,476.2640000008179,-0.17500000000000002
2316,476.2680000008179,-0.19
2317,476.2720000008179,-0.20500000000000002
2318,476.27600000081793,-0.215
2319,476.28000000081795,-0.22
2320,476.28400000081797,-0.23
2321,476.288000000818,-0.23500000000000001
2322,476.292000000818,-0.245
2323,476.296000000818,-0.245
2324,476.30000000081805,-0.245
2325,476.30400000081806,-0.245
2326,476.3080000008181,-0.23
2327,476.3120000008181,-0.225
2328,476.3160000008181,-0.21
2329,476.32000000081814,-0.2
2330,476.32400000081816,-0.195
2331,476.3280000008182,-0.17500000000000002
2332,476.3320000008182,-0.16
2333,476.3360000008182,-0.14
2334,476.34000000081824,-0.115
2335,476.34400000081826,-0.095
2336,476.3480000008183,-0.08
2337,476.3520000008183,-0.07
2338,476.3560000008183,-0.06
2339,476.36000000081833,-0.045
2340,476.36400000081835,-0.04
2341,476.36800000081837,-0.02
2342,476.3720000008184,-0.01
2343,476.3760000008184,-0.005
2344,476.3800000008184,0.0
2345,476.38400000081845,0.025
2346,476.38800000081847,0.05
2347,476.3920000008185,0.075
2348,476.3960000008185,0.11
2349,476.4000000008185,0.15
2350,476.40400000081854,0.195
2351,476.40800000081856,0.23
2352,476.4120000008186,0.25
2353,476.4160000008186,0.27
2354,476.4200000008186,0.275
2355,476.42400000081864,0.26
2356,476.42800000081866,0.25
2357,476.4320000008187,0.23
2358,476.4360000008187,0.2
2359,476.4400000008187,0.18
2360,476.44400000081873,0.15
2361,476.44800000081875,0.12
2362,476.45200000081877,0.085
2363,476.4560000008188,0.045
2364,476.4600000008188,0.0
2365,476.4640000008188,-0.045
2366,476.46800000081885,-0.09
2367,476.47200000081887,-0.135
2368,476.4760000008189,-0.17
2369,476.4800000008189,-0.20500000000000002
2370,476.4840000008189,-0.22
2371,476.48800000081894,-0.23500000000000001
2372,476.49200000081896,-0.245
2373,476.496000000819,-0.26
2374,476.500000000819,-0.27
2375,476.504000000819,-0.27
2376,476.50800000081904,-0.275
2377,476.51200000081906,-0.27
2378,476.5160000008191,-0.255
2379,476.5200000008191,-0.23
2380,476.5240000008191,-0.2
2381,476.52800000081913,-0.165
2382,476.53200000081915,-0.13
2383,476.5360000008192,-0.1
2384,476.5400000008192,-0.075
2385,476.5440000008192,-0.05
2386,476.54800000081923,-0.025
2387,476.55200000081925,-0.005
2388,476.55600000081927,0.015
2389,476.5600000008193,0.025
2390,476.5640000008193,0.04
2391,476.5680000008193,0.045
2392,476.57200000081934,0.045
2393,476.57600000081936,0.045
2394,476.5800000008194,0.04
2395,476.5840000008194,0.03
2396,476.5880000008194,0.01
2397,476.59200000081944,-0.015
2398,476.59600000081946,-0.045
2399,476.6000000008195,-0.07
2400,476.6040000008195,-0.1
2401,476.6080000008195,-0.12
2402,476.61200000081953,-0.145
2403,476.61600000081955,-0.16
2404,476.6200000008196,-0.16
2405,476.6240000008196,-0.155
2406,476.6280000008196,-0.145
2407,476.63200000081963,-0.13
2408,476.63600000081965,-0.115
2409,476.64000000081967,-0.11
2410,476.6440000008197,-0.115
2411,476.6480000008197,-0.115
2412,476.6520000008197,-0.115
2413,476.65600000081974,-0.115
2414,476.66000000081976,-0.115
2415,476.6640000008198,-0.115
2416,476.6680000008198,-0.115
2417,476.6720000008198,-0.115
2418,476.67600000081984,-0.115
2419,476.68000000081986,-0.115
2420,476.6840000008199,-0.13
2421,476.6880000008199,-0.13
2422,476.6920000008199,-0.125
2423,476.69600000081994,-0.12
2424,476.70000000081995,-0.115
2425,476.70400000082,-0.115
2426,476.70800000082,-0.105
2427,476.71200000082,-0.085
2428,476.71600000082003,-0.065
2429,476.72000000082005,-0.035
2430,476.72400000082007,0.0
2431,476.7280000008201,0.03
2432,476.7320000008201,0.065
2433,476.7360000008201,0.085
2434,476.74000000082015,0.095
2435,476.74400000082017,0.105
2436,476.7480000008202,0.11
2437,476.7520000008202,0.1
2438,476.7560000008202,0.095
2439,476.76000000082024,0.075
2440,476.76400000082026,0.06
2441,476.7680000008203,0.05
2442,476.7720000008203,0.035
2443,476.7760000008203,0.025
2444,476.78000000082034,0.01
2445,476.78400000082036,-0.005
2446,476.7880000008204,-0.025
2447,476.7920000008204,-0.05
2448,476.7960000008204,-0.075
2449,476.80000000082043,-0.1
2450,476.80400000082045,-0.12
2451,476.80800000082047,-0.14
2452,476.8120000008205,-0.15
2453,476.8160000008205,-0.155
2454,476.8200000008205,-0.16
2455,476.82400000082055,-0.16
2456,476.82800000082057,-0.145
2457,476.8320000008206,-0.125
2458,476.8360000008206,-0.105
2459,476.8400000008206,-0.08
2460,476.84400000082064,-0.05
2461,476.84800000082066,-0.03
2462,476.8520000008207,-0.01
2463,476.8560000008207,0.005
2464,476.8600000008207,0.015
2465,476.86400000082074,0.025
2466,476.86800000082076,0.025
2467,476.8720000008208,0.025
2468,476.8760000008208,0.015
2469,476.8800000008208,0.02
2470,476.88400000082083,0.005
2471,476.88800000082085,0.01
2472,476.8920000008209,0.025
2473,476.8960000008209,0.05
2474,476.9000000008209,0.08
2475,476.90400000082093,0.12
2476,476.90800000082095,0.14
2477,476.91200000082097,0.155
2478,476.916000000821,0.145
2479,476.920000000821,0.14
2480,476.924000000821,0.125
2481,476.92800000082104,0.105
2482,476.93200000082106,0.09
2483,476.9360000008211,0.065
2484,476.9400000008211,0.04
2485,476.9440000008211,0.005
2486,476.94800000082114,-0.04
2487,476.95200000082116,-0.105
2488,476.9560000008212,-0.18
2489,476.9600000008212,-0.255
2490,476.9640000008212,-0.33
2491,476.96800000082123,-0.39
2492,476.97200000082125,-0.44
2493,476.9760000008213,-0.47000000000000003
2494,476.9800000008213,-0.47500000000000003
2495,476.9840000008213,-0.47000000000000003
2496,476.98800000082133,-0.445
2497,476.99200000082135,-0.42
2498,476.99600000082137,-0.385
2499,477.0000000008214,-0.35000000000000003
2500,477.0040000008214,-0.33
2501,477.0080000008214,-0.3
2502,477.01200000082144,-0.27
2503,477.01600000082146,-0.245
2504,477.0200000008215,-0.23500000000000001
2505,477.0240000008215,-0.225
2506,477.0280000008215,-0.21
2507,477.03200000082154,-0.20500000000000002
2508,477.03600000082156,-0.2
2509,477.0400000008216,-0.195
2510,477.0440000008216,-0.195
2511,477.0480000008216,-0.20500000000000002
2512,477.05200000082164,-0.21
2513,477.05600000082165,-0.22
2514,477.0600000008217,-0.22
2515,477.0640000008217,-0.22
2516,477.0680000008217,-0.20500000000000002
2517,477.07200000082173,-0.18
2518,477.07600000082175,-0.145
2519,477.08000000082177,-0.1
2520,477.0840000008218,-0.065
2521,477.0880000008218,-0.015
2522,477.0920000008218,0.035
2523,477.09600000082185,0.075
2524,477.10000000082186,0.105
2525,477.1040000008219,0.14
2526,477.1080000008219,0.16
2527,477.1120000008219,0.195
2528,477.11600000082194,0.215
2529,477.12000000082196,0.25
2530,477.124000000822,0.28
2531,477.128000000822,0.305
2532,477.132000000822,0.33
2533,477.13600000082204,0.35000000000000003
2534,477.14000000082206,0.37
2535,477.1440000008221,0.39
2536,477.1480000008221,0.41000000000000003
2537,477.1520000008221,0.43
2538,477.15600000082213,0.45
2539,477.16000000082215,0.46
2540,477.16400000082217,0.46
2541,477.1680000008222,0.46
2542,477.1720000008222,0.445
2543,477.1760000008222,0.425
2544,477.18000000082225,0.4
2545,477.18400000082227,0.38
2546,477.1880000008223,0.34500000000000003
2547,477.1920000008223,0.31
2548,477.1960000008223,0.275
2549,477.20000000082234,0.23500000000000001
2550,477.20400000082236,0.19
2551,477.2080000008224,0.15
2552,477.2120000008224,0.1
2553,477.2160000008224,0.055
2554,477.22000000082244,0.01
2555,477.22400000082246,-0.035
2556,477.2280000008225,-0.085
2557,477.2320000008225,-0.135
2558,477.2360000008225,-0.185
2559,477.24000000082253,-0.22
2560,477.24400000082255,-0.24
2561,477.24800000082257,-0.255
2562,477.2520000008226,-0.25
2563,477.2560000008226,-0.24
2564,477.26000000082263,-0.215
2565,477.26400000082265,-0.2
2566,477.26800000082267,-0.18
2567,477.2720000008227,-0.165
2568,477.2760000008227,-0.155
2569,477.2800000008227,-0.155
2570,477.28400000082274,-0.165
2571,477.28800000082276,-0.185
2572,477.2920000008228,-0.215
2573,477.2960000008228,-0.23
2574,477.3000000008228,-0.25
2575,477.30400000082284,-0.265
2576,477.30800000082286,-0.28
2577,477.3120000008229,-0.29
2578,477.3160000008229,-0.295
2579,477.3200000008229,-0.305
2580,477.32400000082293,-0.31
2581,477.32800000082295,-0.31
2582,477.332000000823,-0.325
2583,477.336000000823,-0.335
2584,477.340000000823,-0.35000000000000003
2585,477.34400000082303,-0.36
2586,477.34800000082305,-0.365
2587,477.35200000082307,-0.35000000000000003
2588,477.3560000008231,-0.325
2589,477.3600000008231,-0.295
2590,477.3640000008231,-0.255
2591,477.36800000082314,-0.21
2592,477.37200000082316,-0.165
2593,477.3760000008232,-0.12
2594,477.3800000008232,-0.08
2595,477.3840000008232,-0.035
2596,477.38800000082324,0.0
2597,477.39200000082326,0.035
2598,477.3960000008233,0.07
2599,477.4000000008233,0.09
2600,477.4040000008233,0.105
2601,477.40800000082334,0.11
2602,477.41200000082335,0.11
2603,477.4160000008234,0.11
2604,477.4200000008234,0.11
2605,477.4240000008234,0.105
2606,477.42800000082343,0.1
2607,477.43200000082345,0.095
2608,477.43600000082347,0.085
2609,477.4400000008235,0.065
2610,477.4440000008235,0.065
2611,477.4480000008235,0.065
2612,477.45200000082355,0.075
2613,477.45600000082356,0.09
2614,477.4600000008236,0.1
2615,477.4640000008236,0.1
2616,477.4680000008236,0.095
2617,477.47200000082364,0.08
2618,477.47600000082366,0.05
2619,477.4800000008237,0.03
2620,477.4840000008237,0.0
2621,477.4880000008237,-0.03
2622,477.49200000082374,-0.07
2623,477.49600000082376,-0.105
2624,477.5000000008238,-0.145
2625,477.5040000008238,-0.17
2626,477.5080000008238,-0.19
2627,477.51200000082383,-0.195
2628,477.51600000082385,-0.195
2629,477.52000000082387,-0.185
2630,477.5240000008239,-0.17
2631,477.5280000008239,-0.155
2632,477.5320000008239,-0.13
2633,477.53600000082395,-0.105
2634,477.54000000082397,-0.09
2635,477.544000000824,-0.07
2636,477.548000000824,-0.05
2637,477.552000000824,-0.035
2638,477.55600000082404,-0.025
2639,477.56000000082406,-0.005
2640,477.5640000008241,-0.005
2641,477.5680000008241,0.0
2642,477.5720000008241,0.0
2643,477.57600000082414,-0.005
2644,477.58000000082416,-0.01
2645,477.5840000008242,-0.03
2646,477.5880000008242,-0.045
2647,477.5920000008242,-0.065
2648,477.59600000082423,-0.085
2649,477.60000000082425,-0.11
2650,477.60400000082427,-0.135
2651,477.6080000008243,-0.16
2652,477.6120000008243,-0.17500000000000002
2653,477.61600000082433,-0.19
2654,477.62000000082435,-0.195
2655,477.62400000082437,-0.19
2656,477.6280000008244,-0.17500000000000002
2657,477.6320000008244,-0.155
2658,477.6360000008244,-0.125
2659,477.64000000082444,-0.105
2660,477.64400000082446,-0.06
2661,477.6480000008245,-0.01
2662,477.6520000008245,0.045
2663,477.6560000008245,0.115
2664,477.66000000082454,0.185
2665,477.66400000082456,0.245
2666,477.6680000008246,0.29
2667,477.6720000008246,0.305
2668,477.6760000008246,0.31
2669,477.68000000082463,0.305
2670,477.68400000082465,0.28
2671,477.6880000008247,0.26
2672,477.6920000008247,0.23
2673,477.6960000008247,0.2
2674,477.70000000082473,0.17500000000000002
2675,477.70400000082475,0.145
2676,477.70800000082477,0.125
2677,477.7120000008248,0.11
2678,477.7160000008248,0.095
2679,477.7200000008248,0.085
2680,477.72400000082484,0.07
2681,477.72800000082486,0.055
2682,477.7320000008249,0.04
2683,477.7360000008249,0.025
2684,477.7400000008249,0.01
2685,477.74400000082494,0.0
2686,477.74800000082496,-0.01
2687,477.752000000825,-0.025
2688,477.756000000825,-0.045
2689,477.760000000825,-0.07
2690,477.76400000082504,-0.095
2691,477.76800000082505,-0.115
2692,477.7720000008251,-0.12
2693,477.7760000008251,-0.135
2694,477.7800000008251,-0.145
2695,477.78400000082513,-0.14
2696,477.78800000082515,-0.14
2697,477.79200000082517,-0.15
2698,477.7960000008252,-0.145
2699,477.8000000008252,-0.14
2700,477.8040000008252,-0.13
2701,477.80800000082525,-0.125
2702,477.81200000082526,-0.105
2703,477.8160000008253,-0.1
2704,477.8200000008253,-0.085
2705,477.8240000008253,-0.065
2706,477.82800000082534,-0.06
2707,477.83200000082536,-0.065
2708,477.8360000008254,-0.06
2709,477.8400000008254,-0.08
2710,477.8440000008254,-0.1
2711,477.84800000082544,-0.115
2712,477.85200000082546,-0.13
2713,477.8560000008255,-0.15
2714,477.8600000008255,-0.155
2715,477.8640000008255,-0.155
2716,477.86800000082553,-0.165
2717,477.87200000082555,-0.145
2718,477.87600000082557,-0.125
2719,477.8800000008256,-0.1
2720,477.8840000008256,-0.075
2721,477.8880000008256,-0.045
2722,477.89200000082565,-0.03
2723,477.89600000082567,-0.01
2724,477.9000000008257,0.0
2725,477.9040000008257,0.02
2726,477.9080000008257,0.035
2727,477.91200000082574,0.05
2728,477.91600000082576,0.065
2729,477.9200000008258,0.07
2730,477.9240000008258,0.06
2731,477.9280000008258,0.05
2732,477.93200000082584,0.03
2733,477.93600000082586,0.015
2734,477.9400000008259,0.0
2735,477.9440000008259,-0.025
2736,477.9480000008259,-0.05
2737,477.95200000082593,-0.075
2738,477.95600000082595,-0.1
2739,477.96000000082597,-0.12
2740,477.964000000826,-0.14
2741,477.968000000826,-0.155
2742,477.97200000082603,-0.18
2743,477.97600000082605,-0.20500000000000002
2744,477.98000000082607,-0.225
2745,477.9840000008261,-0.245
2746,477.9880000008261,-0.26
2747,477.9920000008261,-0.27
2748,477.99600000082614,-0.265
2749,478.00000000082616,-0.245
2750,478.0040000008262,-0.215
2751,478.0080000008262,-0.18
2752,478.0120000008262,-0.15
2753,478.01600000082624,-0.11
2754,478.02000000082626,-0.085
2755,478.0240000008263,-0.05
2756,478.0280000008263,-0.02
2757,478.0320000008263,0.0
2758,478.03600000082633,0.02
2759,478.04000000082635,0.035
2760,478.0440000008264,0.035
2761,478.0480000008264,0.035
2762,478.0520000008264,0.025
2763,478.05600000082643,0.01
2764,478.06000000082645,-0.01
2765,478.06400000082647,-0.03
2766,478.0680000008265,-0.045
2767,478.0720000008265,-0.06
2768,478.0760000008265,-0.07
2769,478.08000000082654,-0.085
2770,478.08400000082656,-0.105
2771,478.0880000008266,-0.13
2772,478.0920000008266,-0.15
2773,478.0960000008266,-0.165
2774,478.10000000082664,-0.185
2775,478.10400000082666,-0.185
2776,478.1080000008267,-0.2
2777,478.1120000008267,-0.215
2778,478.1160000008267,-0.225
2779,478.12000000082674,-0.23
2780,478.12400000082675,-0.225
2781,478.1280000008268,-0.21
2782,478.1320000008268,-0.195
2783,478.1360000008268,-0.185
2784,478.14000000082683,-0.165
2785,478.14400000082685,-0.16
2786,478.14800000082687,-0.14
2787,478.1520000008269,-0.135
2788,478.1560000008269,-0.125
2789,478.1600000008269,-0.125
2790,478.16400000082695,-0.125
2791,478.16800000082696,-0.125
2792,478.172000000827,-0.11
2793,478.176000000827,-0.105
2794,478.180000000827,-0.09
2795,478.18400000082704,-0.08
2796,478.18800000082706,-0.065
2797,478.1920000008271,-0.055
2798,478.1960000008271,-0.045
2799,478.2000000008271,-0.025
2800,478.20400000082714,-0.015
2801,478.20800000082716,0.015
2802,478.2120000008272,0.05
2803,478.2160000008272,0.095
2804,478.2200000008272,0.155
2805,478.22400000082723,0.21
2806,478.22800000082725,0.26
2807,478.23200000082727,0.305
2808,478.2360000008273,0.335
2809,478.2400000008273,0.37
2810,478.2440000008273,0.39
2811,478.24800000082735,0.405
2812,478.25200000082737,0.41000000000000003
2813,478.2560000008274,0.41000000000000003
2814,478.2600000008274,0.395
2815,478.2640000008274,0.375
2816,478.26800000082744,0.34
2817,478.27200000082746,0.31
2818,478.2760000008275,0.26
2819,478.2800000008275,0.22
2820,478.2840000008275,0.17
2821,478.28800000082754,0.12
2822,478.29200000082756,0.07
2823,478.2960000008276,0.025
2824,478.3000000008276,-0.005
2825,478.3040000008276,-0.035
2826,478.30800000082763,-0.045
2827,478.31200000082765,-0.065
2828,478.31600000082767,-0.075
2829,478.3200000008277,-0.08
2830,478.3240000008277,-0.09
2831,478.3280000008277,-0.095
2832,478.33200000082775,-0.1
2833,478.33600000082777,-0.105
2834,478.3400000008278,-0.115
2835,478.3440000008278,-0.125
2836,478.3480000008278,-0.145
2837,478.35200000082784,-0.155
2838,478.35600000082786,-0.165
2839,478.3600000008279,-0.17
2840,478.3640000008279,-0.18
2841,478.3680000008279,-0.185
2842,478.37200000082794,-0.185
2843,478.37600000082796,-0.195
2844,478.380000000828,-0.195
2845,478.384000000828,-0.21
2846,478.388000000828,-0.195
2847,478.39200000082803,-0.195
2848,478.39600000082805,-0.185
2849,478.4000000008281,-0.185
2850,478.4040000008281,-0.18
2851,478.4080000008281,-0.19
2852,478.41200000082813,-0.19
2853,478.41600000082815,-0.19
2854,478.42000000082817,-0.185
2855,478.4240000008282,-0.17500000000000002
2856,478.4280000008282,-0.17500000000000002
2857,478.4320000008282,-0.185
2858,478.43600000082824,-0.20500000000000002
2859,478.44000000082826,-0.215
2860,478.4440000008283,-0.225
2861,478.4480000008283,-0.215
2862,478.4520000008283,-0.19
2863,478.45600000082834,-0.15
2864,478.46000000082836,-0.095
2865,478.4640000008284,-0.04
2866,478.4680000008284,0.025
2867,478.4720000008284,0.105
2868,478.47600000082844,0.18
2869,478.48000000082845,0.245
2870,478.4840000008285,0.29
2871,478.4880000008285,0.32
2872,478.4920000008285,0.335
2873,478.49600000082853,0.33
2874,478.50000000082855,0.325
2875,478.50400000082857,0.305
2876,478.5080000008286,0.28
2877,478.5120000008286,0.25
2878,478.5160000008286,0.20500000000000002
2879,478.52000000082865,0.15
2880,478.52400000082866,0.09
2881,478.5280000008287,0.03
2882,478.5320000008287,-0.035
2883,478.5360000008287,-0.105
2884,478.54000000082874,-0.17500000000000002
2885,478.54400000082876,-0.245
2886,478.5480000008288,-0.29
2887,478.5520000008288,-0.325
2888,478.5560000008288,-0.34
2889,478.56000000082884,-0.34500000000000003
2890,478.56400000082886,-0.335
2891,478.5680000008289,-0.32
2892,478.5720000008289,-0.295
2893,478.5760000008289,-0.27
2894,478.58000000082893,-0.245
2895,478.58400000082895,-0.22
2896,478.58800000082897,-0.2
2897,478.592000000829,-0.185
2898,478.596000000829,-0.17
2899,478.600000000829,-0.155
2900,478.60400000082905,-0.145
2901,478.60800000082907,-0.14
2902,478.6120000008291,-0.145
2903,478.6160000008291,-0.155
2904,478.6200000008291,-0.165
2905,478.62400000082914,-0.18
2906,478.62800000082916,-0.195
2907,478.6320000008292,-0.20500000000000002
2908,478.6360000008292,-0.215
2909,478.6400000008292,-0.225
2910,478.64400000082924,-0.23
2911,478.64800000082926,-0.22
2912,478.6520000008293,-0.195
2913,478.6560000008293,-0.165
2914,478.6600000008293,-0.12
2915,478.66400000082933,-0.08
2916,478.66800000082935,-0.045
2917,478.67200000082937,-0.01
2918,478.6760000008294,0.015
2919,478.6800000008294,0.035
2920,478.6840000008294,0.045
2921,478.68800000082945,0.065
2922,478.69200000082947,0.075
2923,478.6960000008295,0.09
2924,478.7000000008295,0.105
2925,478.7040000008295,0.12
2926,478.70800000082954,0.14
2927,478.71200000082956,0.16
2928,478.7160000008296,0.18
2929,478.7200000008296,0.19
2930,478.7240000008296,0.20500000000000002
2931,478.72800000082964,0.22
2932,478.73200000082966,0.23
2933,478.7360000008297,0.23500000000000001
2934,478.7400000008297,0.245
2935,478.7440000008297,0.25
2936,478.74800000082973,0.245
2937,478.75200000082975,0.245
2938,478.7560000008298,0.225
2939,478.7600000008298,0.21
2940,478.7640000008298,0.18
2941,478.76800000082983,0.155
2942,478.77200000082985,0.125
2943,478.77600000082987,0.1
2944,478.7800000008299,0.065
2945,478.7840000008299,0.04
2946,478.7880000008299,0.02
2947,478.79200000082994,0.0
2948,478.79600000082996,-0.01
2949,478.80000000083,-0.02
2950,478.80400000083,-0.02
2951,478.80800000083,-0.03
2952,478.81200000083004,-0.04
2953,478.81600000083006,-0.045
2954,478.8200000008301,-0.05
2955,478.8240000008301,-0.06
2956,478.8280000008301,-0.065
2957,478.83200000083013,-0.075
2958,478.83600000083015,-0.08
2959,478.8400000008302,-0.095
2960,478.8440000008302,-0.11
2961,478.8480000008302,-0.125
2962,478.85200000083023,-0.13
2963,478.85600000083025,-0.14
2964,478.86000000083027,-0.145
2965,478.8640000008303,-0.14
2966,478.8680000008303,-0.135
2967,478.8720000008303,-0.13
2968,478.87600000083035,-0.125
2969,478.88000000083036,-0.12
2970,478.8840000008304,-0.105
2971,478.8880000008304,-0.08
2972,478.8920000008304,-0.05
2973,478.89600000083044,-0.025
2974,478.90000000083046,-0.005
2975,478.9040000008305,0.0
2976,478.9080000008305,0.01
2977,478.9120000008305,0.005
2978,478.91600000083054,0.005
2979,478.92000000083056,0.0
2980,478.9240000008306,-0.005
2981,478.9280000008306,-0.015
2982,478.9320000008306,-0.035
2983,478.93600000083063,-0.055
2984,478.94000000083065,-0.08
2985,478.94400000083067,-0.095
2986,478.9480000008307,-0.1
2987,478.9520000008307,-0.1
2988,478.9560000008307,-0.085
2989,478.96000000083075,-0.075
2990,478.96400000083077,-0.055
2991,478.9680000008308,-0.04
2992,478.9720000008308,-0.015
2993,478.9760000008308,-0.005
2994,478.98000000083084,0.005
2995,478.98400000083086,0.01
2996,478.9880000008309,0.01
2997,478.9920000008309,-0.005
2998,478.9960000008309,-0.005
2999,479.00000000083094,-0.015
3000,479.00400000083096,-0.03
3001,479.008000000831,-0.055
3002,479.012000000831,-0.075
3003,479.016000000831,-0.1
3004,479.02000000083103,-0.12
3005,479.02400000083105,-0.145
3006,479.02800000083107,-0.17500000000000002
3007,479.0320000008311,-0.20500000000000002
3008,479.0360000008311,-0.24
3009,479.0400000008311,-0.275
3010,479.04400000083115,-0.305
3011,479.04800000083117,-0.335
3012,479.0520000008312,-0.355
3013,479.0560000008312,-0.36
3014,479.0600000008312,-0.36
3015,479.06400000083124,-0.34
3016,479.06800000083126,-0.305
3017,479.0720000008313,-0.265
3018,479.0760000008313,-0.23
3019,479.0800000008313,-0.195
3020,479.08400000083134,-0.16
3021,479.08800000083136,-0.13
3022,479.0920000008314,-0.115
3023,479.0960000008314,-0.095
3024,479.1000000008314,-0.08
3025,479.10400000083143,-0.07
3026,479.10800000083145,-0.06
3027,479.1120000008315,-0.055
3028,479.1160000008315,-0.045
3029,479.1200000008315,-0.045
3030,479.12400000083153,-0.04
3031,479.12800000083155,-0.03
3032,479.13200000083157,-0.02
3033,479.1360000008316,-0.01
3034,479.1400000008316,0.0
3035,479.1440000008316,0.0
3036,479.14800000083164,0.0
3037,479.15200000083166,-0.005
3038,479.1560000008317,-0.01
3039,479.1600000008317,-0.02
3040,479.1640000008317,-0.03
3041,479.16800000083174,-0.05
3042,479.17200000083176,-0.065
3043,479.1760000008318,-0.085
3044,479.1800000008318,-0.1
3045,479.1840000008318,-0.11
3046,479.18800000083183,-0.115
3047,479.19200000083185,-0.12
3048,479.1960000008319,-0.115
3049,479.2000000008319,-0.12
3050,479.2040000008319,-0.12
3051,479.20800000083193,-0.12
3052,479.21200000083195,-0.115
3053,479.21600000083197,-0.105
3054,479.220000000832,-0.09
3055,479.224000000832,-0.075
3056,479.228000000832,-0.05
3057,479.23200000083204,-0.03
3058,479.23600000083206,-0.005
3059,479.2400000008321,0.015
3060,479.2440000008321,0.04
3061,479.2480000008321,0.065
3062,479.25200000083214,0.08
3063,479.25600000083216,0.095
3064,479.2600000008322,0.085
3065,479.2640000008322,0.07
3066,479.2680000008322,0.045
3067,479.27200000083224,0.02
3068,479.27600000083225,0.0
3069,479.2800000008323,-0.01
3070,479.2840000008323,-0.025
3071,479.2880000008323,-0.03
3072,479.29200000083233,-0.04
3073,479.29600000083235,-0.04
3074,479.30000000083237,-0.04
3075,479.3040000008324,-0.045
3076,479.3080000008324,-0.035
3077,479.3120000008324,-0.025
3078,479.31600000083245,-0.01
3079,479.32000000083247,0.005
3080,479.3240000008325,0.03
3081,479.3280000008325,0.045
3082,479.3320000008325,0.06
3083,479.33600000083254,0.07
3084,479.34000000083256,0.075
3085,479.3440000008326,0.08
3086,479.3480000008326,0.09
3087,479.3520000008326,0.1
3088,479.35600000083264,0.11
3089,479.36000000083266,0.125
3090,479.3640000008327,0.125
3091,479.3680000008327,0.115
3092,479.3720000008327,0.105
3093,479.37600000083273,0.09
3094,479.38000000083275,0.075
3095,479.38400000083277,0.05
3096,479.3880000008328,0.02
3097,479.3920000008328,-0.005
3098,479.3960000008328,-0.035
3099,479.40000000083285,-0.05
3100,479.40400000083287,-0.075
3101,479.4080000008329,-0.095
3102,479.4120000008329,-0.115
3103,479.4160000008329,-0.135
3104,479.42000000083294,-0.155
3105,479.42400000083296,-0.17500000000000002
3106,479.428000000833,-0.195
3107,479.432000000833,-0.2
3108,479.436000000833,-0.20500000000000002
3109,479.44000000083304,-0.2
3110,479.44400000083306,-0.2
3111,479.4480000008331,-0.20500000000000002
3112,479.4520000008331,-0.215
3113,479.4560000008331,-0.23
3114,479.46000000083313,-0.245
3115,479.46400000083315,-0.25
3116,479.4680000008332,-0.245
3117,479.4720000008332,-0.24
3118,479.4760000008332,-0.23
3119,479.48000000083323,-0.215
3120,479.48400000083325,-0.195
3121,479.48800000083327,-0.16
3122,479.4920000008333,-0.14
3123,479.4960000008333,-0.115
3124,479.5000000008333,-0.095
3125,479.50400000083334,-0.085
3126,479.50800000083336,-0.075
3127,479.5120000008334,-0.065
3128,479.5160000008334,-0.05
3129,479.5200000008334,-0.035
3130,479.52400000083344,-0.005
3131,479.52800000083346,0.015
3132,479.5320000008335,0.04
3133,479.5360000008335,0.055
3134,479.5400000008335,0.07
3135,479.54400000083353,0.075
3136,479.54800000083355,0.08
3137,479.5520000008336,0.09
3138,479.5560000008336,0.09
3139,479.5600000008336,0.08
3140,479.56400000083363,0.065
3141,479.56800000083365,0.05
3142,479.57200000083367,0.04
3143,479.5760000008337,0.035
3144,479.5800000008337,0.05
3145,479.5840000008337,0.065
3146,479.58800000083374,0.08
3147,479.59200000083376,0.095
3148,479.5960000008338,0.105
3149,479.6000000008338,0.11
3150,479.6040000008338,0.115
3151,479.60800000083384,0.115
3152,479.61200000083386,0.11
3153,479.6160000008339,0.1
3154,479.6200000008339,0.09
3155,479.6240000008339,0.085
3156,479.62800000083394,0.075
3157,479.63200000083395,0.065
3158,479.636000000834,0.06
3159,479.640000000834,0.055
3160,479.644000000834,0.055
3161,479.64800000083403,0.065
3162,479.65200000083405,0.075
3163,479.65600000083407,0.08
3164,479.6600000008341,0.085
3165,479.6640000008341,0.085
3166,479.6680000008341,0.09
3167,479.67200000083415,0.09
3168,479.67600000083416,0.1
3169,479.6800000008342,0.105
3170,479.6840000008342,0.115
3171,479.6880000008342,0.12
3172,479.69200000083424,0.13
3173,479.69600000083426,0.13
3174,479.7000000008343,0.115
3175,479.7040000008343,0.1
3176,479.7080000008343,0.08
3177,479.71200000083434,0.06
3178,479.71600000083436,0.03
3179,479.7200000008344,0.0
3180,479.7240000008344,-0.03
3181,479.7280000008344,-0.075
3182,479.73200000083443,-0.115
3183,479.73600000083445,-0.155
3184,479.74000000083447,-0.185
3185,479.7440000008345,-0.20500000000000002
3186,479.7480000008345,-0.215
3187,479.7520000008345,-0.23
3188,479.75600000083455,-0.225
3189,479.76000000083457,-0.225
3190,479.7640000008346,-0.225
3191,479.7680000008346,-0.22
3192,479.7720000008346,-0.215
3193,479.77600000083464,-0.21
3194,479.78000000083466,-0.2
3195,479.7840000008347,-0.19
3196,479.7880000008347,-0.18
3197,479.7920000008347,-0.17500000000000002
3198,479.79600000083474,-0.16
3199,479.80000000083476,-0.165
3200,479.8040000008348,-0.165
3201,479.8080000008348,-0.17
3202,479.8120000008348,-0.17
3203,479.81600000083483,-0.165
3204,479.82000000083485,-0.15
3205,479.82400000083487,-0.135
3206,479.8280000008349,-0.11
3207,479.8320000008349,-0.09
3208,479.83600000083493,-0.065
3209,479.84000000083495,-0.045
3210,479.84400000083497,-0.04
3211,479.848000000835,-0.03
3212,479.852000000835,-0.025
3213,479.856000000835,-0.025
3214,479.86000000083504,-0.03
3215,479.86400000083506,-0.03
3216,479.8680000008351,-0.035
3217,479.8720000008351,-0.04
3218,479.8760000008351,-0.04
3219,479.88000000083514,-0.04
3220,479.88400000083516,-0.025
3221,479.8880000008352,-0.015
3222,479.8920000008352,0.0
3223,479.8960000008352,0.005
3224,479.90000000083523,0.015
3225,479.90400000083525,0.015
3226,479.9080000008353,0.015
3227,479.9120000008353,0.02
3228,479.9160000008353,0.015
3229,479.92000000083533,0.01
3230,479.92400000083535,0.005
3231,479.92800000083537,0.0
3232,479.9320000008354,0.0
3233,479.9360000008354,0.0
3234,479.9400000008354,-0.01
3235,479.94400000083544,-0.02
3236,479.94800000083546,-0.035
3237,479.9520000008355,-0.05
3238,479.9560000008355,-0.07
3239,479.9600000008355,-0.095
3240,479.96400000083554,-0.12
3241,479.96800000083556,-0.14
3242,479.9720000008356,-0.155
3243,479.9760000008356,-0.17
3244,479.9800000008356,-0.17
3245,479.98400000083564,-0.17
3246,479.98800000083565,-0.17
3247,479.9920000008357,-0.17500000000000002
3248,479.9960000008357,-0.17
3249,480.0000000008357,-0.17500000000000002
