,1169.0000000000043,-0.02
0,1169.0040000000042,-0.02
1,1169.0080000000041,-0.02
2,1169.012000000004,-0.025
3,1169.016000000004,-0.02
4,1169.0200000000038,-0.015
5,1169.0240000000038,-0.02
6,1169.0280000000037,-0.02
7,1169.0320000000036,-0.02
8,1169.0360000000035,-0.015
9,1169.0400000000034,-0.015
10,1169.0440000000033,-0.02
11,1169.0480000000032,-0.02
12,1169.052000000003,-0.015
13,1169.056000000003,-0.015
14,1169.060000000003,-0.015
15,1169.0640000000028,-0.02
16,1169.0680000000027,-0.02
17,1169.0720000000026,-0.015
18,1169.0760000000025,-0.015
19,1169.0800000000024,-0.015
20,1169.0840000000023,-0.02
21,1169.0880000000022,-0.015
22,1169.0920000000021,-0.01
23,1169.096000000002,-0.01
24,1169.100000000002,-0.015
25,1169.1040000000019,-0.015
26,1169.1080000000018,-0.02
27,1169.1120000000017,-0.01
28,1169.1160000000016,-0.015
29,1169.1200000000015,-0.015
30,1169.1240000000014,-0.015
31,1169.1280000000013,-0.015
32,1169.1320000000012,-0.015
33,1169.136000000001,-0.01
34,1169.140000000001,-0.01
35,1169.144000000001,-0.015
36,1169.1480000000008,-0.02
37,1169.1520000000007,-0.015
38,1169.1560000000006,-0.015
39,1169.1600000000005,-0.01
40,1169.1640000000004,-0.015
41,1169.1680000000003,-0.02
42,1169.1720000000003,-0.01
43,1169.1760000000002,-0.015
44,1169.18,-0.015
45,1169.184,-0.015
46,1169.1879999999999,-0.02
47,1169.1919999999998,-0.01
48,1169.1959999999997,-0.01
49,1169.1999999999996,-0.02
50,1169.2039999999995,-0.015
51,1169.2079999999994,-0.015
52,1169.2119999999993,-0.02
53,1169.2159999999992,-0.015
54,1169.2199999999991,-0.015
55,1169.223999999999,-0.02
56,1169.227999999999,-0.02
57,1169.2319999999988,-0.015
58,1169.2359999999987,-0.015
59,1169.2399999999986,-0.01
60,1169.2439999999986,-0.01
61,1169.2479999999985,-0.015
62,1169.2519999999984,-0.015
63,1169.2559999999983,-0.02
64,1169.2599999999982,-0.02
65,1169.263999999998,-0.015
66,1169.267999999998,-0.015
67,1169.271999999998,-0.01
68,1169.2759999999978,-0.015
69,1169.2799999999977,-0.015
70,1169.2839999999976,-0.015
71,1169.2879999999975,-0.01
72,1169.2919999999974,-0.015
73,1169.2959999999973,-0.015
74,1169.2999999999972,-0.015
75,1169.3039999999971,-0.015
76,1169.307999999997,-0.01
77,1169.311999999997,-0.02
78,1169.3159999999968,-0.02
79,1169.3199999999968,-0.015
80,1169.3239999999967,-0.01
81,1169.3279999999966,-0.015
82,1169.3319999999965,-0.015
83,1169.3359999999964,-0.015
84,1169.3399999999963,-0.01
85,1169.3439999999962,-0.015
86,1169.347999999996,-0.015
87,1169.351999999996,-0.015
88,1169.355999999996,-0.01
89,1169.3599999999958,-0.01
90,1169.3639999999957,-0.015
91,1169.3679999999956,-0.015
92,1169.3719999999955,-0.015
93,1169.3759999999954,-0.01
94,1169.3799999999953,-0.015
95,1169.3839999999952,-0.015
96,1169.3879999999951,-0.02
97,1169.391999999995,-0.015
98,1169.395999999995,-0.015
99,1169.3999999999949,-0.015
100,1169.4039999999948,-0.015
101,1169.4079999999947,-0.015
102,1169.4119999999946,-0.01
103,1169.4159999999945,-0.01
104,1169.4199999999944,-0.015
105,1169.4239999999943,-0.015
106,1169.4279999999942,-0.02
107,1169.431999999994,-0.015
108,1169.435999999994,-0.015
109,1169.439999999994,-0.02
110,1169.4439999999938,-0.02
111,1169.4479999999937,-0.015
112,1169.4519999999936,-0.01
113,1169.4559999999935,-0.015
114,1169.4599999999934,-0.01
115,1169.4639999999933,-0.02
116,1169.4679999999933,-0.015
117,1169.4719999999932,-0.015
118,1169.475999999993,-0.015
119,1169.479999999993,-0.015
120,1169.4839999999929,-0.015
121,1169.4879999999928,-0.02
122,1169.4919999999927,-0.01
123,1169.4959999999926,-0.01
124,1169.4999999999925,-0.01
125,1169.5039999999924,-0.015
126,1169.5079999999923,-0.02
127,1169.5119999999922,-0.015
128,1169.5159999999921,-0.02
129,1169.519999999992,-0.02
130,1169.523999999992,-0.02
131,1169.5279999999918,-0.01
132,1169.5319999999917,-0.01
133,1169.5359999999916,0.075
134,1169.5399999999916,0.055
135,1169.5439999999915,-0.06
136,1169.5479999999914,-0.065
137,1169.5519999999913,-0.085
138,1169.5559999999912,-0.09
139,1169.559999999991,-0.08
140,1169.563999999991,-0.06
141,1169.567999999991,-0.04
142,1169.5719999999908,-0.045
143,1169.5759999999907,-0.055
144,1169.5799999999906,-0.05
145,1169.5839999999905,-0.04
146,1169.5879999999904,0.075
147,1169.5919999999903,0.0
148,1169.5959999999902,-0.025
149,1169.5999999999901,-0.035
150,1169.60399999999,-0.05
151,1169.60799999999,-0.065
152,1169.6119999999898,-0.075
153,1169.6159999999898,-0.07
154,1169.6199999999897,-0.07
155,1169.6239999999896,-0.065
156,1169.6279999999895,-0.06
157,1169.6319999999894,-0.06
158,1169.6359999999893,-0.055
159,1169.6399999999892,-0.055
160,1169.643999999989,-0.05
161,1169.647999999989,-0.055
162,1169.651999999989,-0.06
163,1169.6559999999888,-0.05
164,1169.6599999999887,-0.045
165,1169.6639999999886,-0.045
166,1169.6679999999885,-0.045
167,1169.6719999999884,-0.045
168,1169.6759999999883,-0.045
169,1169.6799999999882,-0.035
170,1169.6839999999881,-0.035
171,1169.687999999988,-0.04
172,1169.691999999988,-0.04
173,1169.6959999999879,-0.04
174,1169.6999999999878,-0.035
175,1169.7039999999877,-0.03
176,1169.7079999999876,-0.035
177,1169.7119999999875,-0.035
178,1169.7159999999874,-0.035
179,1169.7199999999873,-0.035
180,1169.7239999999872,-0.025
181,1169.727999999987,-0.03
182,1169.731999999987,-0.025
183,1169.735999999987,-0.03
184,1169.7399999999868,-0.03
185,1169.7439999999867,-0.025
186,1169.7479999999866,-0.025
187,1169.7519999999865,-0.02
188,1169.7559999999864,-0.025
189,1169.7599999999863,-0.025
190,1169.7639999999863,-0.02
191,1169.7679999999862,-0.02
192,1169.771999999986,-0.02
193,1169.775999999986,-0.02
194,1169.7799999999859,-0.025
195,1169.7839999999858,-0.025
196,1169.7879999999857,-0.025
197,1169.7919999999856,-0.02
198,1169.7959999999855,-0.02
199,1169.7999999999854,-0.025
200,1169.8039999999853,-0.015
201,1169.8079999999852,-0.015
202,1169.8119999999851,-0.015
203,1169.815999999985,-0.02
204,1169.819999999985,-0.015
205,1169.8239999999848,-0.015
206,1169.8279999999847,-0.015
207,1169.8319999999846,-0.02
208,1169.8359999999846,-0.02
209,1169.8399999999845,-0.015
210,1169.8439999999844,-0.015
211,1169.8479999999843,-0.015
212,1169.8519999999842,-0.02
213,1169.855999999984,-0.015
214,1169.859999999984,-0.015
215,1169.863999999984,-0.015
216,1169.8679999999838,-0.01
217,1169.8719999999837,-0.01
218,1169.8759999999836,-0.015
219,1169.8799999999835,-0.01
220,1169.8839999999834,-0.01
221,1169.8879999999833,-0.005
222,1169.8919999999832,-0.015
223,1169.8959999999831,-0.015
224,1169.899999999983,-0.015
225,1169.903999999983,-0.01
226,1169.9079999999828,-0.01
227,1169.9119999999828,-0.01
228,1169.9159999999827,-0.01
229,1169.9199999999826,-0.01
230,1169.9239999999825,-0.005
231,1169.9279999999824,-0.01
232,1169.9319999999823,-0.015
233,1169.9359999999822,-0.01
234,1169.939999999982,-0.005
235,1169.943999999982,0.0
236,1169.947999999982,-0.005
237,1169.9519999999818,-0.005
238,1169.9559999999817,-0.005
239,1169.9599999999816,0.0
240,1169.9639999999815,-0.005
241,1169.9679999999814,-0.01
242,1169.9719999999813,-0.005
243,1169.9759999999812,-0.005
244,1169.9799999999811,0.0
245,1169.983999999981,-0.005
246,1169.987999999981,-0.005
247,1169.9919999999809,-0.005
248,1169.9959999999808,0.0
249,1169.9999999999807,0.0
250,1170.0039999999806,0.0
251,1170.0079999999805,0.0
252,1170.0119999999804,0.0
253,1170.0159999999803,0.0
254,1170.0199999999802,0.0
255,1170.02399999998,-0.005
256,1170.02799999998,-0.005
257,1170.03199999998,0.0
258,1170.0359999999798,0.0
259,1170.0399999999797,0.0
260,1170.0439999999796,-0.005
261,1170.0479999999795,-0.005
262,1170.0519999999794,0.0
263,1170.0559999999793,0.0
264,1170.0599999999793,0.0
265,1170.0639999999792,-0.005
266,1170.067999999979,-0.005
267,1170.071999999979,0.0
268,1170.0759999999789,0.0
269,1170.0799999999788,0.0
270,1170.0839999999787,-0.005
271,1170.0879999999786,-0.005
272,1170.0919999999785,0.0
273,1170.0959999999784,0.0
274,1170.0999999999783,-0.005
275,1170.1039999999782,-0.005
276,1170.1079999999781,-0.005
277,1170.111999999978,-0.005
278,1170.115999999978,0.0
279,1170.1199999999778,0.0
280,1170.1239999999777,-0.005
281,1170.1279999999776,-0.005
282,1170.1319999999776,-0.01
283,1170.1359999999775,-0.005
284,1170.1399999999774,-0.005
285,1170.1439999999773,-0.01
286,1170.1479999999772,-0.01
287,1170.151999999977,-0.01
288,1170.155999999977,-0.005
289,1170.159999999977,0.0
290,1170.1639999999768,-0.005
291,1170.1679999999767,-0.01
292,1170.1719999999766,0.0
293,1170.1759999999765,-0.005
294,1170.1799999999764,-0.005
295,1170.1839999999763,-0.01
296,1170.1879999999762,-0.01
297,1170.1919999999761,-0.005
298,1170.195999999976,-0.005
299,1170.199999999976,-0.005
300,1170.2039999999758,-0.01
301,1170.2079999999758,-0.01
302,1170.2119999999757,-0.005
303,1170.2159999999756,-0.005
304,1170.2199999999755,-0.005
305,1170.2239999999754,-0.01
306,1170.2279999999753,-0.01
307,1170.2319999999752,-0.005
308,1170.235999999975,-0.005
309,1170.239999999975,-0.005
310,1170.243999999975,-0.01
311,1170.2479999999748,-0.01
312,1170.2519999999747,-0.005
313,1170.2559999999746,-0.01
314,1170.2599999999745,-0.01
315,1170.2639999999744,-0.01
316,1170.2679999999743,-0.01
317,1170.2719999999742,-0.005
318,1170.2759999999741,-0.01
319,1170.279999999974,-0.015
320,1170.283999999974,-0.005
321,1170.2879999999739,-0.01
322,1170.2919999999738,-0.005
323,1170.2959999999737,-0.005
324,1170.2999999999736,0.0
325,1170.3039999999735,-0.01
326,1170.3079999999734,-0.01
327,1170.3119999999733,-0.005
328,1170.3159999999732,-0.005
329,1170.319999999973,-0.01
330,1170.323999999973,-0.01
331,1170.327999999973,-0.015
332,1170.3319999999728,-0.01
333,1170.3359999999727,-0.01
334,1170.3399999999726,-0.015
335,1170.3439999999725,-0.015
336,1170.3479999999724,-0.015
337,1170.3519999999723,-0.01
338,1170.3559999999723,-0.01
339,1170.3599999999722,-0.015
340,1170.363999999972,-0.015
341,1170.367999999972,-0.015
342,1170.3719999999719,-0.01
343,1170.3759999999718,-0.01
344,1170.3799999999717,-0.01
345,1170.3839999999716,-0.01
346,1170.3879999999715,-0.01
347,1170.3919999999714,-0.005
348,1170.3959999999713,-0.005
349,1170.3999999999712,-0.01
350,1170.4039999999711,-0.015
351,1170.407999999971,-0.01
352,1170.411999999971,-0.005
353,1170.4159999999708,-0.01
354,1170.4199999999707,-0.01
355,1170.4239999999706,-0.01
356,1170.4279999999706,-0.01
357,1170.4319999999705,-0.005
358,1170.4359999999704,-0.01
359,1170.4399999999703,-0.01
360,1170.4439999999702,-0.005
361,1170.44799999997,-0.005
362,1170.45199999997,-0.005
363,1170.45599999997,-0.01
364,1170.4599999999698,-0.01
365,1170.4639999999697,-0.01
366,1170.4679999999696,-0.01
367,1170.4719999999695,-0.01
368,1170.4759999999694,-0.01
369,1170.4799999999693,-0.015
370,1170.4839999999692,-0.01
371,1170.4879999999691,-0.01
372,1170.491999999969,-0.015
373,1170.495999999969,-0.015
374,1170.4999999999688,-0.015
375,1170.5039999999688,-0.01
376,1170.5079999999687,-0.01
377,1170.5119999999686,-0.015
378,1170.5159999999685,-0.01
379,1170.5199999999684,-0.015
380,1170.5239999999683,-0.01
381,1170.5279999999682,-0.01
382,1170.531999999968,-0.015
383,1170.535999999968,-0.02
384,1170.539999999968,-0.015
385,1170.5439999999678,-0.01
386,1170.5479999999677,-0.005
387,1170.5519999999676,-0.015
388,1170.5559999999675,-0.015
389,1170.5599999999674,-0.015
390,1170.5639999999673,-0.015
391,1170.5679999999672,-0.015
392,1170.5719999999671,-0.01
393,1170.575999999967,-0.01
394,1170.579999999967,-0.015
395,1170.5839999999669,-0.015
396,1170.5879999999668,-0.01
397,1170.5919999999667,-0.01
398,1170.5959999999666,-0.01
399,1170.5999999999665,-0.01
400,1170.6039999999664,-0.015
401,1170.6079999999663,-0.01
402,1170.6119999999662,-0.01
403,1170.615999999966,-0.015
404,1170.619999999966,-0.015
405,1170.623999999966,-0.015
406,1170.6279999999658,-0.01
407,1170.6319999999657,-0.01
408,1170.6359999999656,-0.01
409,1170.6399999999655,-0.01
410,1170.6439999999654,-0.01
411,1170.6479999999654,-0.015
412,1170.6519999999653,-0.01
413,1170.6559999999652,-0.01
414,1170.659999999965,-0.015
415,1170.663999999965,-0.01
416,1170.6679999999649,-0.01
417,1170.6719999999648,-0.005
418,1170.6759999999647,-0.01
419,1170.6799999999646,-0.01
420,1170.6839999999645,-0.015
421,1170.6879999999644,-0.01
422,1170.6919999999643,-0.005
423,1170.6959999999642,-0.015
424,1170.6999999999641,-0.01
425,1170.703999999964,-0.015
426,1170.707999999964,-0.01
427,1170.7119999999638,-0.01
428,1170.7159999999637,-0.01
429,1170.7199999999636,-0.015
430,1170.7239999999636,-0.01
431,1170.7279999999635,-0.015
432,1170.7319999999634,-0.01
433,1170.7359999999633,-0.015
434,1170.7399999999632,-0.015
435,1170.743999999963,-0.01
436,1170.747999999963,-0.015
437,1170.751999999963,-0.01
438,1170.7559999999628,-0.015
439,1170.7599999999627,-0.015
440,1170.7639999999626,-0.01
441,1170.7679999999625,-0.015
442,1170.7719999999624,-0.01
443,1170.7759999999623,-0.02
444,1170.7799999999622,-0.02
445,1170.7839999999621,-0.015
446,1170.787999999962,-0.01
447,1170.791999999962,-0.015
448,1170.7959999999619,-0.015
449,1170.7999999999618,-0.015
450,1170.8039999999617,-0.01
451,1170.8079999999616,-0.015
452,1170.8119999999615,-0.01
453,1170.8159999999614,-0.015
454,1170.8199999999613,-0.015
455,1170.8239999999612,-0.01
456,1170.827999999961,-0.015
457,1170.831999999961,-0.01
458,1170.835999999961,-0.015
459,1170.8399999999608,-0.015
460,1170.8439999999607,-0.01
461,1170.8479999999606,-0.01
462,1170.8519999999605,-0.015
463,1170.8559999999604,-0.02
464,1170.8599999999603,-0.015
465,1170.8639999999602,-0.02
466,1170.8679999999601,-0.01
467,1170.87199999996,-0.015
468,1170.87599999996,-0.015
469,1170.8799999999599,-0.015
470,1170.8839999999598,-0.015
471,1170.8879999999597,-0.015
472,1170.8919999999596,-0.015
473,1170.8959999999595,-0.015
474,1170.8999999999594,-0.02
475,1170.9039999999593,-0.015
476,1170.9079999999592,-0.01
477,1170.911999999959,-0.01
478,1170.915999999959,-0.015
479,1170.919999999959,-0.015
480,1170.9239999999588,-0.015
481,1170.9279999999587,-0.005
482,1170.9319999999586,-0.01
483,1170.9359999999585,-0.01
484,1170.9399999999584,-0.01
485,1170.9439999999584,-0.015
486,1170.9479999999583,-0.005
487,1170.9519999999582,-0.01
488,1170.955999999958,-0.01
489,1170.959999999958,-0.01
490,1170.9639999999579,-0.01
491,1170.9679999999578,-0.01
492,1170.9719999999577,-0.01
493,1170.9759999999576,-0.015
494,1170.9799999999575,-0.015
495,1170.9839999999574,-0.01
496,1170.9879999999573,-0.01
497,1170.9919999999572,-0.01
498,1170.9959999999571,-0.015
499,1170.999999999957,-0.015
500,1171.003999999957,-0.01
501,1171.0079999999568,-0.01
502,1171.0119999999567,-0.01
503,1171.0159999999566,-0.015
504,1171.0199999999566,-0.015
505,1171.0239999999565,-0.01
506,1171.0279999999564,-0.01
507,1171.0319999999563,-0.01
508,1171.0359999999562,-0.015
509,1171.039999999956,-0.015
510,1171.043999999956,-0.015
511,1171.047999999956,-0.01
512,1171.0519999999558,-0.015
513,1171.0559999999557,-0.015
514,1171.0599999999556,-0.015
515,1171.0639999999555,-0.01
516,1171.0679999999554,-0.015
517,1171.0719999999553,-0.015
518,1171.0759999999552,-0.02
519,1171.0799999999551,-0.02
520,1171.083999999955,-0.01
521,1171.087999999955,-0.015
522,1171.0919999999549,-0.015
523,1171.0959999999548,-0.015
524,1171.0999999999547,-0.015
525,1171.1039999999546,-0.015
526,1171.1079999999545,-0.02
527,1171.1119999999544,-0.02
528,1171.1159999999543,-0.015
529,1171.1199999999542,-0.02
530,1171.123999999954,-0.015
531,1171.127999999954,-0.02
532,1171.131999999954,-0.015
533,1171.1359999999538,-0.015
534,1171.1399999999537,-0.015
535,1171.1439999999536,-0.015
536,1171.1479999999535,-0.015
537,1171.1519999999534,-0.02
538,1171.1559999999533,-0.01
539,1171.1599999999532,-0.01
540,1171.1639999999531,-0.01
541,1171.167999999953,-0.02
542,1171.171999999953,-0.02
543,1171.1759999999529,-0.015
544,1171.1799999999528,-0.015
545,1171.1839999999527,-0.015
546,1171.1879999999526,-0.02
547,1171.1919999999525,-0.015
548,1171.1959999999524,-0.01
549,1171.1999999999523,-0.015
550,1171.2039999999522,-0.015
551,1171.207999999952,-0.02
552,1171.211999999952,-0.01
553,1171.215999999952,-0.02
554,1171.2199999999518,-0.02
555,1171.2239999999517,-0.02
556,1171.2279999999516,-0.015
557,1171.2319999999515,-0.015
558,1171.2359999999514,-0.015
559,1171.2399999999514,-0.02
560,1171.2439999999513,-0.015
561,1171.2479999999512,-0.015
562,1171.251999999951,-0.015
563,1171.255999999951,-0.02
564,1171.2599999999509,-0.02
565,1171.2639999999508,-0.02
566,1171.2679999999507,-0.015
567,1171.2719999999506,-0.02
568,1171.2759999999505,-0.02
569,1171.2799999999504,-0.015
570,1171.2839999999503,-0.01
571,1171.2879999999502,-0.01
572,1171.2919999999501,-0.01
573,1171.29599999995,-0.015
574,1171.29999999995,-0.02
575,1171.3039999999498,-0.015
576,1171.3079999999497,-0.015
577,1171.3119999999496,-0.015
578,1171.3159999999496,-0.02
579,1171.3199999999495,-0.015
580,1171.3239999999494,-0.01
581,1171.3279999999493,-0.015
582,1171.3319999999492,-0.02
583,1171.335999999949,-0.02
584,1171.339999999949,-0.015
585,1171.343999999949,-0.02
586,1171.3479999999488,-0.02
587,1171.3519999999487,-0.01
588,1171.3559999999486,-0.015
589,1171.3599999999485,-0.015
590,1171.3639999999484,-0.015
591,1171.3679999999483,-0.01
592,1171.3719999999482,-0.01
593,1171.3759999999481,-0.015
594,1171.379999999948,-0.015
595,1171.383999999948,-0.015
596,1171.3879999999479,-0.02
597,1171.3919999999478,-0.015
598,1171.3959999999477,-0.02
599,1171.3999999999476,-0.02
600,1171.4039999999475,-0.01
601,1171.4079999999474,-0.015
602,1171.4119999999473,-0.01
603,1171.4159999999472,-0.015
604,1171.419999999947,-0.025
605,1171.423999999947,-0.015
606,1171.427999999947,-0.015
607,1171.4319999999468,-0.015
608,1171.4359999999467,-0.02
609,1171.4399999999466,-0.015
610,1171.4439999999465,-0.015
611,1171.4479999999464,-0.01
612,1171.4519999999463,-0.02
613,1171.4559999999462,-0.02
614,1171.4599999999461,-0.015
615,1171.463999999946,-0.02
616,1171.467999999946,-0.015
617,1171.4719999999459,-0.02
618,1171.4759999999458,-0.02
619,1171.4799999999457,-0.015
620,1171.4839999999456,-0.01
621,1171.4879999999455,-0.02
622,1171.4919999999454,-0.015
623,1171.4959999999453,-0.015
624,1171.4999999999452,-0.02
625,1171.503999999945,-0.015
626,1171.507999999945,-0.02
627,1171.511999999945,-0.02
628,1171.5159999999448,-0.015
629,1171.5199999999447,-0.015
630,1171.5239999999446,-0.015
631,1171.5279999999445,-0.02
632,1171.5319999999444,-0.02
633,1171.5359999999444,-0.02
634,1171.5399999999443,-0.01
635,1171.5439999999442,-0.01
636,1171.547999999944,-0.02
637,1171.551999999944,-0.02
638,1171.5559999999439,-0.015
639,1171.5599999999438,-0.015
640,1171.5639999999437,-0.015
641,1171.5679999999436,-0.02
642,1171.5719999999435,-0.02
643,1171.5759999999434,-0.015
644,1171.5799999999433,-0.015
645,1171.5839999999432,-0.015
646,1171.5879999999431,-0.02
647,1171.591999999943,-0.01
648,1171.595999999943,-0.015
649,1171.5999999999428,-0.015
650,1171.6039999999427,-0.015
651,1171.6079999999426,-0.01
652,1171.6119999999426,-0.015
653,1171.6159999999425,-0.015
654,1171.6199999999424,-0.01
655,1171.6239999999423,-0.015
656,1171.6279999999422,-0.01
657,1171.631999999942,-0.015
658,1171.635999999942,-0.015
659,1171.639999999942,-0.01
660,1171.6439999999418,-0.015
661,1171.6479999999417,-0.015
662,1171.6519999999416,-0.015
663,1171.6559999999415,-0.015
664,1171.6599999999414,-0.015
665,1171.6639999999413,-0.01
666,1171.6679999999412,-0.015
667,1171.6719999999411,-0.02
668,1171.675999999941,-0.015
669,1171.679999999941,-0.015
670,1171.6839999999409,-0.01
671,1171.6879999999408,-0.01
672,1171.6919999999407,-0.015
673,1171.6959999999406,-0.02
674,1171.6999999999405,-0.015
675,1171.7039999999404,-0.015
676,1171.7079999999403,-0.015
677,1171.7119999999402,-0.015
678,1171.71599999994,-0.015
679,1171.71999999994,-0.015
680,1171.72399999994,-0.01
681,1171.7279999999398,-0.015
682,1171.7319999999397,-0.02
683,1171.7359999999396,-0.015
684,1171.7399999999395,-0.015
685,1171.7439999999394,-0.015
686,1171.7479999999393,-0.015
687,1171.7519999999392,-0.02
688,1171.7559999999391,-0.015
689,1171.759999999939,-0.02
690,1171.763999999939,-0.01
691,1171.7679999999389,-0.01
692,1171.7719999999388,-0.015
693,1171.7759999999387,-0.015
694,1171.7799999999386,-0.015
695,1171.7839999999385,-0.01
696,1171.7879999999384,-0.015
697,1171.7919999999383,-0.01
698,1171.7959999999382,-0.015
699,1171.799999999938,-0.015
700,1171.803999999938,-0.015
701,1171.807999999938,-0.015
702,1171.8119999999378,-0.01
703,1171.8159999999377,-0.015
704,1171.8199999999376,-0.02
705,1171.8239999999375,-0.015
706,1171.8279999999374,-0.015
707,1171.8319999999374,-0.02
708,1171.8359999999373,-0.02
709,1171.8399999999372,-0.02
710,1171.843999999937,-0.01
711,1171.847999999937,-0.015
712,1171.8519999999369,-0.015
713,1171.8559999999368,-0.02
714,1171.8599999999367,-0.02
715,1171.8639999999366,-0.015
716,1171.8679999999365,-0.01
717,1171.8719999999364,-0.02
718,1171.8759999999363,-0.02
719,1171.8799999999362,-0.015
720,1171.8839999999361,-0.015
721,1171.887999999936,-0.02
722,1171.891999999936,-0.02
723,1171.8959999999358,-0.02
724,1171.8999999999357,-0.015
725,1171.9039999999356,-0.015
726,1171.9079999999356,-0.015
727,1171.9119999999355,-0.02
728,1171.9159999999354,-0.015
729,1171.9199999999353,-0.02
730,1171.9239999999352,-0.015
731,1171.927999999935,-0.015
732,1171.931999999935,-0.015
733,1171.935999999935,-0.015
734,1171.9399999999348,-0.015
735,1171.9439999999347,-0.015
736,1171.9479999999346,-0.02
737,1171.9519999999345,-0.025
738,1171.9559999999344,-0.02
739,1171.9599999999343,-0.02
740,1171.9639999999342,-0.02
741,1171.9679999999341,-0.02
742,1171.971999999934,-0.02
743,1171.975999999934,-0.025
744,1171.9799999999339,-0.02
745,1171.9839999999338,-0.015
746,1171.9879999999337,-0.015
747,1171.9919999999336,-0.015
748,1171.9959999999335,-0.02
749,1171.9999999999334,-0.025
750,1172.0039999999333,-0.015
751,1172.0079999999332,-0.02
752,1172.011999999933,-0.015
753,1172.015999999933,-0.02
754,1172.019999999933,-0.02
755,1172.0239999999328,-0.015
756,1172.0279999999327,-0.015
757,1172.0319999999326,-0.015
758,1172.0359999999325,-0.02
759,1172.0399999999324,-0.02
760,1172.0439999999323,-0.01
761,1172.0479999999322,-0.015
762,1172.0519999999321,-0.01
763,1172.055999999932,-0.02
764,1172.059999999932,-0.02
765,1172.0639999999319,-0.015
766,1172.0679999999318,-0.015
767,1172.0719999999317,-0.015
768,1172.0759999999316,-0.015
769,1172.0799999999315,-0.02
770,1172.0839999999314,-0.02
771,1172.0879999999313,-0.015
772,1172.0919999999312,-0.015
773,1172.095999999931,-0.015
774,1172.099999999931,-0.02
775,1172.103999999931,-0.02
776,1172.1079999999308,-0.015
777,1172.1119999999307,-0.015
778,1172.1159999999306,-0.015
779,1172.1199999999305,-0.02
780,1172.1239999999304,-0.015
781,1172.1279999999304,-0.015
782,1172.1319999999303,-0.015
783,1172.1359999999302,-0.015
784,1172.13999999993,-0.02
785,1172.14399999993,-0.015
786,1172.1479999999299,-0.015
787,1172.1519999999298,-0.02
788,1172.1559999999297,-0.02
789,1172.1599999999296,-0.025
790,1172.1639999999295,-0.01
791,1172.1679999999294,-0.015
792,1172.1719999999293,-0.015
793,1172.1759999999292,-0.015
794,1172.1799999999291,-0.015
795,1172.183999999929,-0.015
796,1172.187999999929,-0.015
797,1172.1919999999288,-0.025
798,1172.1959999999287,-0.02
799,1172.1999999999287,-0.015
800,1172.2039999999286,-0.015
801,1172.2079999999285,-0.01
802,1172.2119999999284,-0.015
803,1172.2159999999283,-0.015
804,1172.2199999999282,-0.015
805,1172.223999999928,-0.02
806,1172.227999999928,-0.015
807,1172.231999999928,-0.015
808,1172.2359999999278,-0.015
809,1172.2399999999277,-0.02
810,1172.2439999999276,-0.02
811,1172.2479999999275,-0.01
812,1172.2519999999274,-0.01
813,1172.2559999999273,-0.015
814,1172.2599999999272,-0.015
815,1172.2639999999271,-0.01
816,1172.267999999927,-0.01
817,1172.271999999927,-0.01
818,1172.2759999999269,-0.02
819,1172.2799999999268,-0.015
820,1172.2839999999267,-0.015
821,1172.2879999999266,-0.015
822,1172.2919999999265,-0.015
823,1172.2959999999264,-0.01
824,1172.2999999999263,-0.015
825,1172.3039999999262,-0.015
826,1172.307999999926,-0.015
827,1172.311999999926,-0.01
828,1172.315999999926,-0.015
829,1172.3199999999258,-0.015
830,1172.3239999999257,-0.02
831,1172.3279999999256,-0.015
832,1172.3319999999255,-0.01
833,1172.3359999999254,-0.02
834,1172.3399999999253,-0.015
835,1172.3439999999252,-0.015
836,1172.3479999999252,-0.01
837,1172.351999999925,-0.01
838,1172.355999999925,-0.02
839,1172.3599999999249,-0.02
840,1172.3639999999248,-0.02
841,1172.3679999999247,-0.025
842,1172.3719999999246,-0.015
843,1172.3759999999245,-0.015
844,1172.3799999999244,-0.015
845,1172.3839999999243,-0.02
846,1172.3879999999242,-0.02
847,1172.391999999924,-0.015
848,1172.395999999924,-0.015
849,1172.399999999924,-0.015
850,1172.4039999999238,-0.02
851,1172.4079999999237,-0.02
852,1172.4119999999236,-0.015
853,1172.4159999999235,-0.015
854,1172.4199999999234,-0.015
855,1172.4239999999234,-0.015
856,1172.4279999999233,-0.015
857,1172.4319999999232,-0.015
858,1172.435999999923,-0.015
859,1172.439999999923,-0.02
860,1172.4439999999229,-0.02
861,1172.4479999999228,-0.015
862,1172.4519999999227,-0.015
863,1172.4559999999226,-0.005
864,1172.4599999999225,-0.015
865,1172.4639999999224,-0.015
866,1172.4679999999223,-0.01
867,1172.4719999999222,-0.015
868,1172.4759999999221,-0.01
869,1172.479999999922,-0.015
870,1172.483999999922,-0.015
871,1172.4879999999218,-0.01
872,1172.4919999999217,-0.01
873,1172.4959999999217,-0.01
874,1172.4999999999216,-0.015
875,1172.5039999999215,-0.015
876,1172.5079999999214,-0.01
877,1172.5119999999213,-0.01
878,1172.5159999999212,-0.01
879,1172.519999999921,-0.01
880,1172.523999999921,-0.015
881,1172.527999999921,-0.005
882,1172.5319999999208,-0.01
883,1172.5359999999207,-0.01
884,1172.5399999999206,-0.015
885,1172.5439999999205,-0.02
886,1172.5479999999204,-0.015
887,1172.5519999999203,-0.015
888,1172.5559999999202,-0.015
889,1172.5599999999201,-0.015
890,1172.56399999992,-0.015
891,1172.56799999992,-0.01
892,1172.5719999999199,-0.01
893,1172.5759999999198,-0.02
894,1172.5799999999197,-0.015
895,1172.5839999999196,-0.02
896,1172.5879999999195,-0.01
897,1172.5919999999194,-0.01
898,1172.5959999999193,-0.015
899,1172.5999999999192,-0.015
900,1172.603999999919,-0.015
901,1172.607999999919,-0.02
902,1172.611999999919,-0.01
903,1172.6159999999188,-0.01
904,1172.6199999999187,-0.015
905,1172.6239999999186,-0.01
906,1172.6279999999185,-0.015
907,1172.6319999999184,-0.02
908,1172.6359999999183,-0.01
909,1172.6399999999182,-0.015
910,1172.6439999999182,-0.015
911,1172.647999999918,-0.02
912,1172.651999999918,-0.015
913,1172.6559999999179,-0.015
914,1172.6599999999178,-0.015
915,1172.6639999999177,-0.025
916,1172.6679999999176,-0.02
917,1172.6719999999175,-0.02
918,1172.6759999999174,-0.02
919,1172.6799999999173,-0.015
920,1172.6839999999172,-0.015
921,1172.687999999917,-0.015
922,1172.691999999917,-0.02
923,1172.695999999917,-0.015
924,1172.6999999999168,-0.015
925,1172.7039999999167,-0.02
926,1172.7079999999166,-0.02
927,1172.7119999999165,-0.02
928,1172.7159999999164,-0.01
929,1172.7199999999164,-0.015
930,1172.7239999999163,-0.015
931,1172.7279999999162,-0.015
932,1172.731999999916,-0.015
933,1172.735999999916,-0.02
934,1172.7399999999159,-0.02
935,1172.7439999999158,-0.015
936,1172.7479999999157,-0.015
937,1172.7519999999156,-0.015
938,1172.7559999999155,-0.02
939,1172.7599999999154,-0.02
940,1172.7639999999153,-0.02
941,1172.7679999999152,-0.01
942,1172.7719999999151,-0.02
943,1172.775999999915,-0.02
944,1172.779999999915,-0.015
945,1172.7839999999148,-0.015
946,1172.7879999999147,-0.015
947,1172.7919999999147,-0.015
948,1172.7959999999146,-0.015
949,1172.7999999999145,-0.01
950,1172.8039999999144,-0.015
951,1172.8079999999143,-0.015
952,1172.8119999999142,-0.02
953,1172.815999999914,-0.01
954,1172.819999999914,-0.015
955,1172.823999999914,-0.01
956,1172.8279999999138,-0.02
957,1172.8319999999137,-0.015
958,1172.8359999999136,-0.015
959,1172.8399999999135,-0.015
960,1172.8439999999134,-0.01
961,1172.8479999999133,-0.015
962,1172.8519999999132,-0.015
963,1172.8559999999131,-0.01
964,1172.859999999913,-0.015
965,1172.863999999913,-0.01
966,1172.8679999999129,-0.02
967,1172.8719999999128,-0.02
968,1172.8759999999127,-0.015
969,1172.8799999999126,-0.01
970,1172.8839999999125,-0.015
971,1172.8879999999124,-0.015
972,1172.8919999999123,-0.01
973,1172.8959999999122,-0.015
974,1172.899999999912,-0.015
975,1172.903999999912,-0.015
976,1172.907999999912,-0.015
977,1172.9119999999118,-0.015
978,1172.9159999999117,-0.01
979,1172.9199999999116,-0.01
980,1172.9239999999115,-0.015
981,1172.9279999999114,-0.015
982,1172.9319999999113,-0.015
983,1172.9359999999112,-0.015
984,1172.9399999999112,-0.015
985,1172.943999999911,-0.02
986,1172.947999999911,-0.02
987,1172.9519999999109,-0.015
988,1172.9559999999108,-0.015
989,1172.9599999999107,-0.01
990,1172.9639999999106,-0.015
991,1172.9679999999105,-0.01
992,1172.9719999999104,-0.01
993,1172.9759999999103,-0.01
994,1172.9799999999102,-0.005
995,1172.98399999991,-0.02
996,1172.98799999991,-0.015
997,1172.99199999991,-0.01
998,1172.9959999999098,-0.01
999,1172.9999999999097,-0.01
1000,1173.0039999999096,-0.01
1001,1173.0079999999095,-0.015
1002,1173.0119999999094,-0.005
1003,1173.0159999999094,-0.005
1004,1173.0199999999093,-0.01
1005,1173.0239999999092,-0.01
1006,1173.027999999909,-0.005
1007,1173.031999999909,-0.005
1008,1173.0359999999089,-0.01
1009,1173.0399999999088,-0.005
1010,1173.0439999999087,-0.01
1011,1173.0479999999086,-0.01
1012,1173.0519999999085,-0.005
1013,1173.0559999999084,-0.015
1014,1173.0599999999083,-0.01
1015,1173.0639999999082,-0.015
1016,1173.0679999999081,-0.005
1017,1173.071999999908,-0.01
1018,1173.075999999908,-0.01
1019,1173.0799999999078,-0.015
1020,1173.0839999999077,-0.01
1021,1173.0879999999077,-0.01
1022,1173.0919999999076,-0.005
1023,1173.0959999999075,-0.005
1024,1173.0999999999074,-0.01
1025,1173.1039999999073,-0.01
1026,1173.1079999999072,-0.01
1027,1173.111999999907,-0.005
1028,1173.115999999907,-0.01
1029,1173.119999999907,-0.01
1030,1173.1239999999068,-0.015
1031,1173.1279999999067,-0.015
1032,1173.1319999999066,-0.015
1033,1173.1359999999065,-0.01
1034,1173.1399999999064,-0.005
1035,1173.1439999999063,-0.015
1036,1173.1479999999062,-0.01
1037,1173.1519999999061,-0.01
1038,1173.155999999906,-0.005
1039,1173.159999999906,-0.01
1040,1173.1639999999059,-0.01
1041,1173.1679999999058,-0.01
1042,1173.1719999999057,-0.01
1043,1173.1759999999056,-0.01
1044,1173.1799999999055,-0.015
1045,1173.1839999999054,-0.01
1046,1173.1879999999053,-0.01
1047,1173.1919999999052,-0.01
1048,1173.195999999905,-0.01
1049,1173.199999999905,-0.01
1050,1173.203999999905,-0.015
1051,1173.2079999999048,-0.015
1052,1173.2119999999047,-0.005
1053,1173.2159999999046,-0.01
1054,1173.2199999999045,-0.015
1055,1173.2239999999044,-0.015
1056,1173.2279999999043,-0.015
1057,1173.2319999999042,-0.015
1058,1173.2359999999042,-0.01
1059,1173.239999999904,-0.015
1060,1173.243999999904,-0.015
1061,1173.2479999999039,-0.02
1062,1173.2519999999038,-0.015
1063,1173.2559999999037,-0.01
1064,1173.2599999999036,-0.015
1065,1173.2639999999035,-0.01
1066,1173.2679999999034,-0.015
1067,1173.2719999999033,-0.02
1068,1173.2759999999032,-0.015
1069,1173.279999999903,-0.015
1070,1173.283999999903,-0.015
1071,1173.287999999903,-0.015
1072,1173.2919999999028,-0.02
1073,1173.2959999999027,-0.015
1074,1173.2999999999026,-0.02
1075,1173.3039999999025,-0.01
1076,1173.3079999999024,-0.015
1077,1173.3119999999024,-0.02
1078,1173.3159999999023,-0.015
1079,1173.3199999999022,-0.02
1080,1173.323999999902,-0.015
1081,1173.327999999902,-0.015
1082,1173.3319999999019,-0.02
1083,1173.3359999999018,-0.02
1084,1173.3399999999017,-0.02
1085,1173.3439999999016,-0.015
1086,1173.3479999999015,-0.015
1087,1173.3519999999014,-0.02
1088,1173.3559999999013,-0.02
1089,1173.3599999999012,-0.02
1090,1173.3639999999011,-0.015
1091,1173.367999999901,-0.015
1092,1173.371999999901,-0.015
1093,1173.3759999999008,-0.015
1094,1173.3799999999007,-0.015
1095,1173.3839999999007,-0.015
1096,1173.3879999999006,-0.01
1097,1173.3919999999005,-0.02
1098,1173.3959999999004,-0.02
1099,1173.3999999999003,-0.015
1100,1173.4039999999002,-0.015
1101,1173.4079999999,-0.015
1102,1173.4119999999,-0.02
1103,1173.4159999999,-0.02
1104,1173.4199999998998,-0.015
1105,1173.4239999998997,-0.015
1106,1173.4279999998996,-0.015
1107,1173.4319999998995,-0.015
1108,1173.4359999998994,-0.02
1109,1173.4399999998993,-0.01
1110,1173.4439999998992,-0.01
1111,1173.4479999998991,-0.015
1112,1173.451999999899,-0.015
1113,1173.455999999899,-0.02
1114,1173.4599999998989,-0.02
1115,1173.4639999998988,-0.015
1116,1173.4679999998987,-0.015
1117,1173.4719999998986,-0.015
1118,1173.4759999998985,-0.02
1119,1173.4799999998984,-0.015
1120,1173.4839999998983,-0.015
1121,1173.4879999998982,-0.01
1122,1173.491999999898,-0.015
1123,1173.495999999898,-0.015
1124,1173.499999999898,-0.02
1125,1173.5039999998978,-0.02
1126,1173.5079999998977,-0.02
1127,1173.5119999998976,-0.01
1128,1173.5159999998975,-0.015
1129,1173.5199999998974,-0.015
1130,1173.5239999998973,-0.02
1131,1173.5279999998972,-0.02
1132,1173.5319999998972,-0.015
1133,1173.535999999897,-0.015
1134,1173.539999999897,-0.015
1135,1173.5439999998969,-0.015
1136,1173.5479999998968,-0.01
1137,1173.5519999998967,-0.015
1138,1173.5559999998966,-0.02
1139,1173.5599999998965,-0.015
1140,1173.5639999998964,-0.015
1141,1173.5679999998963,-0.02
1142,1173.5719999998962,-0.02
1143,1173.575999999896,-0.02
1144,1173.579999999896,-0.015
1145,1173.583999999896,-0.02
1146,1173.5879999998958,-0.02
1147,1173.5919999998957,-0.02
1148,1173.5959999998956,-0.02
1149,1173.5999999998955,-0.015
1150,1173.6039999998954,-0.02
1151,1173.6079999998954,-0.015
1152,1173.6119999998953,-0.02
1153,1173.6159999998952,-0.01
1154,1173.619999999895,-0.015
1155,1173.623999999895,-0.02
1156,1173.6279999998949,-0.02
1157,1173.6319999998948,-0.02
1158,1173.6359999998947,-0.015
1159,1173.6399999998946,-0.015
1160,1173.6439999998945,-0.015
1161,1173.6479999998944,-0.015
1162,1173.6519999998943,-0.02
1163,1173.6559999998942,-0.015
1164,1173.6599999998941,-0.015
1165,1173.663999999894,-0.015
1166,1173.667999999894,-0.015
1167,1173.6719999998938,-0.02
1168,1173.6759999998937,-0.01
1169,1173.6799999998937,-0.015
1170,1173.6839999998936,-0.015
1171,1173.6879999998935,-0.025
1172,1173.6919999998934,-0.02
1173,1173.6959999998933,-0.02
1174,1173.6999999998932,-0.015
1175,1173.703999999893,-0.015
1176,1173.707999999893,-0.02
1177,1173.711999999893,-0.02
1178,1173.7159999998928,-0.02
1179,1173.7199999998927,-0.015
1180,1173.7239999998926,-0.02
1181,1173.7279999998925,-0.015
1182,1173.7319999998924,-0.02
1183,1173.7359999998923,-0.02
1184,1173.7399999998922,-0.015
1185,1173.7439999998921,-0.02
1186,1173.747999999892,-0.015
1187,1173.751999999892,-0.02
1188,1173.7559999998919,-0.02
1189,1173.7599999998918,-0.01
1190,1173.7639999998917,-0.01
1191,1173.7679999998916,-0.015
1192,1173.7719999998915,-0.015
1193,1173.7759999998914,-0.02
1194,1173.7799999998913,-0.02
1195,1173.7839999998912,-0.015
1196,1173.787999999891,-0.015
1197,1173.791999999891,-0.015
1198,1173.795999999891,-0.02
1199,1173.7999999998908,-0.015
1200,1173.8039999998907,-0.01
1201,1173.8079999998906,-0.015
1202,1173.8119999998905,-0.015
1203,1173.8159999998904,-0.02
1204,1173.8199999998903,-0.015
1205,1173.8239999998902,-0.02
1206,1173.8279999998902,-0.015
1207,1173.83199999989,-0.01
1208,1173.83599999989,-0.015
1209,1173.8399999998899,-0.02
1210,1173.8439999998898,-0.01
1211,1173.8479999998897,-0.01
1212,1173.8519999998896,-0.015
1213,1173.8559999998895,-0.015
1214,1173.8599999998894,-0.015
1215,1173.8639999998893,-0.01
1216,1173.8679999998892,-0.015
1217,1173.871999999889,-0.02
1218,1173.875999999889,-0.02
1219,1173.879999999889,-0.02
1220,1173.8839999998888,-0.015
1221,1173.8879999998887,-0.015
1222,1173.8919999998886,-0.015
1223,1173.8959999998885,-0.015
1224,1173.8999999998885,-0.015
1225,1173.9039999998884,-0.01
1226,1173.9079999998883,-0.015
1227,1173.9119999998882,-0.02
1228,1173.915999999888,-0.02
1229,1173.919999999888,-0.015
1230,1173.9239999998879,-0.015
1231,1173.9279999998878,-0.01
1232,1173.9319999998877,-0.015
1233,1173.9359999998876,-0.02
1234,1173.9399999998875,-0.01
1235,1173.9439999998874,-0.015
1236,1173.9479999998873,-0.015
1237,1173.9519999998872,-0.015
1238,1173.9559999998871,-0.015
1239,1173.959999999887,-0.015
1240,1173.963999999887,-0.01
1241,1173.9679999998868,-0.015
1242,1173.9719999998867,-0.015
1243,1173.9759999998867,-0.02
1244,1173.9799999998866,-0.02
1245,1173.9839999998865,-0.01
1246,1173.9879999998864,-0.015
1247,1173.9919999998863,-0.015
1248,1173.9959999998862,-0.01
1249,1173.999999999886,-0.015
1250,1174.003999999886,-0.015
1251,1174.007999999886,-0.015
1252,1174.0119999998858,-0.015
1253,1174.0159999998857,-0.015
1254,1174.0199999998856,-0.015
1255,1174.0239999998855,-0.02
1256,1174.0279999998854,-0.015
1257,1174.0319999998853,-0.02
1258,1174.0359999998852,-0.01
1259,1174.0399999998851,-0.01
1260,1174.043999999885,-0.02
1261,1174.047999999885,-0.015
1262,1174.0519999998849,-0.015
1263,1174.0559999998848,-0.015
1264,1174.0599999998847,-0.015
1265,1174.0639999998846,-0.015
1266,1174.0679999998845,-0.01
1267,1174.0719999998844,-0.015
1268,1174.0759999998843,-0.015
1269,1174.0799999998842,-0.015
1270,1174.083999999884,-0.015
1271,1174.087999999884,-0.015
1272,1174.091999999884,-0.015
1273,1174.0959999998838,-0.015
1274,1174.0999999998837,-0.015
1275,1174.1039999998836,-0.02
1276,1174.1079999998835,-0.015
1277,1174.1119999998834,-0.015
1278,1174.1159999998833,-0.02
1279,1174.1199999998832,-0.015
1280,1174.1239999998832,-0.02
1281,1174.127999999883,-0.01
1282,1174.131999999883,-0.01
1283,1174.1359999998829,-0.02
1284,1174.1399999998828,-0.02
1285,1174.1439999998827,-0.015
1286,1174.1479999998826,-0.015
1287,1174.1519999998825,-0.015
1288,1174.1559999998824,-0.02
1289,1174.1599999998823,-0.015
1290,1174.1639999998822,-0.015
1291,1174.167999999882,-0.01
1292,1174.171999999882,-0.01
1293,1174.175999999882,-0.01
1294,1174.1799999998818,-0.02
1295,1174.1839999998817,-0.02
1296,1174.1879999998816,-0.015
1297,1174.1919999998815,-0.015
1298,1174.1959999998815,-0.02
1299,1174.1999999998814,-0.02
1300,1174.2039999998813,-0.02
1301,1174.2079999998812,-0.015
1302,1174.211999999881,-0.015
1303,1174.215999999881,-0.015
1304,1174.2199999998809,-0.02
1305,1174.2239999998808,-0.015
1306,1174.2279999998807,-0.005
1307,1174.2319999998806,-0.02
1308,1174.2359999998805,-0.01
1309,1174.2399999998804,-0.015
1310,1174.2439999998803,-0.01
1311,1174.2479999998802,-0.015
1312,1174.2519999998801,-0.02
1313,1174.25599999988,-0.015
1314,1174.25999999988,-0.015
1315,1174.2639999998798,-0.015
1316,1174.2679999998797,-0.02
1317,1174.2719999998797,-0.01
1318,1174.2759999998796,-0.015
1319,1174.2799999998795,-0.01
1320,1174.2839999998794,-0.02
1321,1174.2879999998793,-0.01
1322,1174.2919999998792,-0.02
1323,1174.295999999879,-0.015
1324,1174.299999999879,-0.015
1325,1174.303999999879,-0.02
1326,1174.3079999998788,-0.025
1327,1174.3119999998787,-0.015
1328,1174.3159999998786,-0.015
1329,1174.3199999998785,-0.02
1330,1174.3239999998784,-0.02
1331,1174.3279999998783,-0.02
1332,1174.3319999998782,-0.015
1333,1174.3359999998781,-0.015
1334,1174.339999999878,-0.015
1335,1174.343999999878,-0.02
1336,1174.3479999998779,-0.015
1337,1174.3519999998778,-0.015
1338,1174.3559999998777,-0.015
1339,1174.3599999998776,-0.02
1340,1174.3639999998775,-0.025
1341,1174.3679999998774,-0.01
1342,1174.3719999998773,-0.02
1343,1174.3759999998772,-0.02
1344,1174.379999999877,-0.02
1345,1174.383999999877,-0.02
1346,1174.387999999877,-0.02
1347,1174.3919999998768,-0.02
1348,1174.3959999998767,-0.015
1349,1174.3999999998766,-0.015
1350,1174.4039999998765,-0.015
1351,1174.4079999998764,-0.015
1352,1174.4119999998763,-0.015
1353,1174.4159999998762,-0.015
1354,1174.4199999998762,-0.015
1355,1174.423999999876,-0.025
1356,1174.427999999876,-0.02
1357,1174.4319999998759,-0.02
1358,1174.4359999998758,-0.015
1359,1174.4399999998757,-0.01
1360,1174.4439999998756,-0.015
1361,1174.4479999998755,-0.02
1362,1174.4519999998754,-0.015
1363,1174.4559999998753,-0.01
1364,1174.4599999998752,-0.02
1365,1174.463999999875,-0.02
1366,1174.467999999875,-0.02
1367,1174.471999999875,-0.015
1368,1174.4759999998748,-0.02
1369,1174.4799999998747,-0.015
1370,1174.4839999998746,-0.02
1371,1174.4879999998745,-0.015
1372,1174.4919999998745,-0.015
1373,1174.4959999998744,-0.01
1374,1174.4999999998743,-0.02
1375,1174.5039999998742,-0.02
1376,1174.507999999874,-0.01
1377,1174.511999999874,-0.015
1378,1174.5159999998739,-0.015
1379,1174.5199999998738,-0.01
1380,1174.5239999998737,-0.015
1381,1174.5279999998736,-0.02
1382,1174.5319999998735,-0.01
1383,1174.5359999998734,-0.015
1384,1174.5399999998733,-0.015
1385,1174.5439999998732,-0.015
1386,1174.5479999998731,-0.015
1387,1174.551999999873,-0.015
1388,1174.555999999873,-0.015
1389,1174.5599999998728,-0.01
1390,1174.5639999998727,-0.02
1391,1174.5679999998727,-0.02
1392,1174.5719999998726,-0.01
1393,1174.5759999998725,-0.015
1394,1174.5799999998724,-0.015
1395,1174.5839999998723,-0.02
1396,1174.5879999998722,-0.015
1397,1174.591999999872,-0.015
1398,1174.595999999872,-0.015
1399,1174.599999999872,-0.02
1400,1174.6039999998718,-0.02
1401,1174.6079999998717,-0.015
1402,1174.6119999998716,-0.015
1403,1174.6159999998715,-0.015
1404,1174.6199999998714,-0.015
1405,1174.6239999998713,-0.015
1406,1174.6279999998712,-0.02
1407,1174.6319999998711,-0.015
1408,1174.635999999871,-0.02
1409,1174.639999999871,-0.015
1410,1174.6439999998709,-0.015
1411,1174.6479999998708,-0.02
1412,1174.6519999998707,-0.015
1413,1174.6559999998706,-0.015
1414,1174.6599999998705,-0.02
1415,1174.6639999998704,-0.015
1416,1174.6679999998703,-0.015
1417,1174.6719999998702,-0.015
1418,1174.67599999987,-0.015
1419,1174.67999999987,-0.015
1420,1174.68399999987,-0.015
1421,1174.6879999998698,-0.02
1422,1174.6919999998697,-0.01
1423,1174.6959999998696,-0.01
1424,1174.6999999998695,-0.015
1425,1174.7039999998694,-0.02
1426,1174.7079999998693,-0.02
1427,1174.7119999998692,-0.01
1428,1174.7159999998692,-0.01
1429,1174.719999999869,-0.015
1430,1174.723999999869,-0.02
1431,1174.7279999998689,-0.015
1432,1174.7319999998688,-0.01
1433,1174.7359999998687,-0.015
1434,1174.7399999998686,-0.015
1435,1174.7439999998685,-0.01
1436,1174.7479999998684,-0.01
1437,1174.7519999998683,-0.01
1438,1174.7559999998682,-0.02
1439,1174.7599999998681,-0.01
1440,1174.763999999868,-0.015
1441,1174.767999999868,-0.01
1442,1174.7719999998678,-0.015
1443,1174.7759999998677,-0.02
1444,1174.7799999998676,-0.01
1445,1174.7839999998675,-0.01
1446,1174.7879999998675,-0.015
1447,1174.7919999998674,-0.015
1448,1174.7959999998673,-0.015
1449,1174.7999999998672,-0.01
1450,1174.803999999867,-0.015
1451,1174.807999999867,-0.015
1452,1174.8119999998669,-0.015
1453,1174.8159999998668,-0.015
1454,1174.8199999998667,-0.01
1455,1174.8239999998666,-0.015
1456,1174.8279999998665,-0.015
1457,1174.8319999998664,-0.01
1458,1174.8359999998663,-0.005
1459,1174.8399999998662,-0.015
1460,1174.8439999998661,-0.015
1461,1174.847999999866,-0.015
1462,1174.851999999866,-0.01
1463,1174.8559999998658,-0.015
1464,1174.8599999998657,-0.01
1465,1174.8639999998657,-0.015
1466,1174.8679999998656,-0.02
1467,1174.8719999998655,-0.015
1468,1174.8759999998654,-0.015
1469,1174.8799999998653,-0.015
1470,1174.8839999998652,-0.02
1471,1174.887999999865,-0.015
1472,1174.891999999865,-0.01
1473,1174.895999999865,-0.01
1474,1174.8999999998648,-0.015
1475,1174.9039999998647,-0.015
1476,1174.9079999998646,-0.015
1477,1174.9119999998645,-0.01
1478,1174.9159999998644,-0.015
1479,1174.9199999998643,-0.015
1480,1174.9239999998642,-0.015
1481,1174.9279999998641,-0.02
1482,1174.931999999864,-0.015
1483,1174.935999999864,-0.015
1484,1174.9399999998639,-0.015
1485,1174.9439999998638,-0.015
1486,1174.9479999998637,-0.015
1487,1174.9519999998636,-0.015
1488,1174.9559999998635,-0.02
1489,1174.9599999998634,-0.02
1490,1174.9639999998633,-0.02
1491,1174.9679999998632,-0.02
1492,1174.971999999863,-0.015
1493,1174.975999999863,-0.015
1494,1174.979999999863,-0.02
1495,1174.9839999998628,-0.02
1496,1174.9879999998627,-0.02
1497,1174.9919999998626,-0.015
1498,1174.9959999998625,-0.015
1499,1174.9999999998624,-0.02
1500,1175.0039999998623,-0.025
1501,1175.0079999998622,-0.015
1502,1175.0119999998622,-0.02
1503,1175.015999999862,-0.015
1504,1175.019999999862,-0.02
1505,1175.0239999998619,-0.02
1506,1175.0279999998618,-0.015
1507,1175.0319999998617,-0.015
1508,1175.0359999998616,-0.015
1509,1175.0399999998615,-0.015
1510,1175.0439999998614,-0.02
1511,1175.0479999998613,-0.015
1512,1175.0519999998612,-0.015
1513,1175.0559999998611,-0.02
1514,1175.059999999861,-0.02
1515,1175.063999999861,-0.02
1516,1175.0679999998608,-0.015
1517,1175.0719999998607,-0.015
1518,1175.0759999998606,-0.02
1519,1175.0799999998605,-0.015
1520,1175.0839999998605,-0.015
1521,1175.0879999998604,-0.01
1522,1175.0919999998603,-0.01
1523,1175.0959999998602,-0.015
1524,1175.09999999986,-0.015
1525,1175.10399999986,-0.02
1526,1175.1079999998599,-0.015
1527,1175.1119999998598,-0.02
1528,1175.1159999998597,-0.015
1529,1175.1199999998596,-0.025
1530,1175.1239999998595,-0.015
1531,1175.1279999998594,-0.015
1532,1175.1319999998593,-0.01
1533,1175.1359999998592,-0.015
1534,1175.1399999998591,-0.02
1535,1175.143999999859,-0.015
1536,1175.147999999859,-0.015
1537,1175.1519999998588,-0.01
1538,1175.1559999998588,-0.01
1539,1175.1599999998587,-0.015
1540,1175.1639999998586,-0.015
1541,1175.1679999998585,-0.015
1542,1175.1719999998584,-0.015
1543,1175.1759999998583,-0.015
1544,1175.1799999998582,-0.01
1545,1175.183999999858,-0.02
1546,1175.187999999858,-0.02
1547,1175.191999999858,-0.015
1548,1175.1959999998578,-0.015
1549,1175.1999999998577,-0.015
1550,1175.2039999998576,-0.02
1551,1175.2079999998575,-0.015
1552,1175.2119999998574,-0.015
1553,1175.2159999998573,-0.015
1554,1175.2199999998572,-0.015
1555,1175.2239999998571,-0.015
1556,1175.227999999857,-0.015
1557,1175.231999999857,-0.015
1558,1175.2359999998569,-0.01
1559,1175.2399999998568,-0.015
1560,1175.2439999998567,-0.015
1561,1175.2479999998566,-0.015
1562,1175.2519999998565,-0.01
1563,1175.2559999998564,-0.01
1564,1175.2599999998563,-0.015
1565,1175.2639999998562,-0.015
1566,1175.267999999856,-0.015
1567,1175.271999999856,-0.015
1568,1175.275999999856,-0.01
1569,1175.2799999998558,-0.015
1570,1175.2839999998557,-0.02
1571,1175.2879999998556,-0.015
1572,1175.2919999998555,-0.01
1573,1175.2959999998554,-0.015
1574,1175.2999999998553,-0.015
1575,1175.3039999998553,-0.015
1576,1175.3079999998552,-0.01
1577,1175.311999999855,-0.015
1578,1175.315999999855,-0.015
1579,1175.3199999998549,-0.02
1580,1175.3239999998548,-0.02
1581,1175.3279999998547,-0.015
1582,1175.3319999998546,-0.015
1583,1175.3359999998545,-0.01
1584,1175.3399999998544,-0.015
1585,1175.3439999998543,-0.015
1586,1175.3479999998542,-0.015
1587,1175.3519999998541,-0.015
1588,1175.355999999854,-0.015
1589,1175.359999999854,-0.015
1590,1175.3639999998538,-0.02
1591,1175.3679999998537,-0.01
1592,1175.3719999998536,-0.01
1593,1175.3759999998535,-0.01
1594,1175.3799999998535,-0.015
1595,1175.3839999998534,-0.015
1596,1175.3879999998533,-0.015
1597,1175.3919999998532,-0.015
1598,1175.395999999853,-0.015
1599,1175.399999999853,-0.02
1600,1175.4039999998529,-0.015
1601,1175.4079999998528,-0.015
1602,1175.4119999998527,-0.015
1603,1175.4159999998526,-0.015
1604,1175.4199999998525,-0.015
1605,1175.4239999998524,-0.02
1606,1175.4279999998523,-0.01
1607,1175.4319999998522,-0.015
1608,1175.4359999998521,-0.015
1609,1175.439999999852,-0.015
1610,1175.443999999852,-0.015
1611,1175.4479999998518,-0.015
1612,1175.4519999998518,-0.015
1613,1175.4559999998517,-0.01
1614,1175.4599999998516,-0.02
1615,1175.4639999998515,-0.015
1616,1175.4679999998514,-0.015
1617,1175.4719999998513,-0.01
1618,1175.4759999998512,-0.01
1619,1175.479999999851,-0.02
1620,1175.483999999851,-0.02
1621,1175.487999999851,-0.02
1622,1175.4919999998508,-0.015
1623,1175.4959999998507,-0.01
1624,1175.4999999998506,-0.015
1625,1175.5039999998505,-0.015
1626,1175.5079999998504,-0.015
1627,1175.5119999998503,-0.01
1628,1175.5159999998502,-0.015
1629,1175.5199999998501,-0.015
1630,1175.52399999985,-0.015
1631,1175.52799999985,-0.01
1632,1175.5319999998499,-0.01
1633,1175.5359999998498,-0.01
1634,1175.5399999998497,-0.015
1635,1175.5439999998496,-0.01
1636,1175.5479999998495,-0.01
1637,1175.5519999998494,-0.015
1638,1175.5559999998493,-0.015
1639,1175.5599999998492,-0.015
1640,1175.563999999849,-0.015
1641,1175.567999999849,-0.01
1642,1175.571999999849,-0.015
1643,1175.5759999998488,-0.015
1644,1175.5799999998487,-0.02
1645,1175.5839999998486,-0.015
1646,1175.5879999998485,-0.01
1647,1175.5919999998484,-0.01
1648,1175.5959999998483,-0.015
1649,1175.5999999998483,-0.02
1650,1175.6039999998482,-0.02
1651,1175.607999999848,-0.02
1652,1175.611999999848,-0.01
1653,1175.6159999998479,-0.02
1654,1175.6199999998478,-0.01
1655,1175.6239999998477,-0.015
1656,1175.6279999998476,-0.02
1657,1175.6319999998475,-0.015
1658,1175.6359999998474,-0.005
1659,1175.6399999998473,-0.02
1660,1175.6439999998472,-0.015
1661,1175.6479999998471,-0.015
1662,1175.651999999847,-0.02
1663,1175.655999999847,-0.02
1664,1175.6599999998468,-0.02
1665,1175.6639999998467,-0.01
1666,1175.6679999998466,-0.015
1667,1175.6719999998465,-0.015
1668,1175.6759999998465,-0.01
1669,1175.6799999998464,-0.015
1670,1175.6839999998463,-0.015
1671,1175.6879999998462,-0.01
1672,1175.691999999846,-0.01
1673,1175.695999999846,-0.01
1674,1175.6999999998459,-0.015
1675,1175.7039999998458,-0.015
1676,1175.7079999998457,-0.01
1677,1175.7119999998456,-0.015
1678,1175.7159999998455,-0.01
1679,1175.7199999998454,-0.015
1680,1175.7239999998453,-0.02
1681,1175.7279999998452,-0.015
1682,1175.7319999998451,-0.015
1683,1175.735999999845,-0.02
1684,1175.739999999845,-0.015
1685,1175.7439999998448,-0.02
1686,1175.7479999998448,-0.015
1687,1175.7519999998447,-0.015
1688,1175.7559999998446,-0.02
1689,1175.7599999998445,-0.025
1690,1175.7639999998444,-0.02
1691,1175.7679999998443,-0.02
1692,1175.7719999998442,-0.015
1693,1175.775999999844,-0.025
1694,1175.779999999844,-0.02
1695,1175.783999999844,-0.025
1696,1175.7879999998438,-0.015
1697,1175.7919999998437,-0.02
1698,1175.7959999998436,-0.02
1699,1175.7999999998435,-0.025
1700,1175.8039999998434,-0.02
1701,1175.8079999998433,-0.015
1702,1175.8119999998432,-0.015
1703,1175.8159999998431,-0.015
1704,1175.819999999843,-0.015
1705,1175.823999999843,-0.01
1706,1175.8279999998429,-0.015
1707,1175.8319999998428,-0.015
1708,1175.8359999998427,-0.015
1709,1175.8399999998426,-0.015
1710,1175.8439999998425,-0.015
1711,1175.8479999998424,-0.015
1712,1175.8519999998423,-0.015
1713,1175.8559999998422,-0.015
1714,1175.859999999842,-0.015
1715,1175.863999999842,-0.015
1716,1175.867999999842,-0.01
1717,1175.8719999998418,-0.015
1718,1175.8759999998417,-0.02
1719,1175.8799999998416,-0.015
1720,1175.8839999998415,-0.015
1721,1175.8879999998414,-0.015
1722,1175.8919999998413,-0.01
1723,1175.8959999998413,-0.02
1724,1175.8999999998412,-0.015
1725,1175.903999999841,-0.02
1726,1175.907999999841,-0.015
1727,1175.9119999998409,-0.015
1728,1175.9159999998408,-0.015
1729,1175.9199999998407,-0.02
1730,1175.9239999998406,-0.015
1731,1175.9279999998405,-0.015
1732,1175.9319999998404,-0.01
1733,1175.9359999998403,-0.015
1734,1175.9399999998402,-0.02
1735,1175.9439999998401,-0.015
1736,1175.94799999984,-0.01
1737,1175.95199999984,-0.015
1738,1175.9559999998398,-0.015
1739,1175.9599999998397,-0.015
1740,1175.9639999998396,-0.01
1741,1175.9679999998395,-0.015
1742,1175.9719999998395,-0.015
1743,1175.9759999998394,-0.015
1744,1175.9799999998393,-0.015
1745,1175.9839999998392,-0.015
1746,1175.987999999839,-0.01
1747,1175.991999999839,-0.01
1748,1175.995999999839,-0.015
1749,1175.9999999998388,-0.01
1750,1176.0039999998387,-0.01
1751,1176.0079999998386,-0.005
1752,1176.0119999998385,-0.005
1753,1176.0159999998384,-0.01
1754,1176.0199999998383,-0.01
1755,1176.0239999998382,-0.01
1756,1176.0279999998381,-0.005
1757,1176.031999999838,-0.005
1758,1176.035999999838,-0.01
1759,1176.0399999998378,-0.015
1760,1176.0439999998378,-0.01
1761,1176.0479999998377,-0.01
1762,1176.0519999998376,-0.01
1763,1176.0559999998375,-0.005
1764,1176.0599999998374,-0.015
1765,1176.0639999998373,-0.015
1766,1176.0679999998372,-0.005
1767,1176.071999999837,-0.01
1768,1176.075999999837,-0.005
1769,1176.079999999837,-0.01
1770,1176.0839999998368,-0.015
1771,1176.0879999998367,-0.01
1772,1176.0919999998366,-0.005
1773,1176.0959999998365,-0.02
1774,1176.0999999998364,-0.015
1775,1176.1039999998363,-0.01
1776,1176.1079999998362,-0.015
1777,1176.1119999998361,-0.01
1778,1176.115999999836,-0.01
1779,1176.119999999836,-0.01
1780,1176.1239999998359,-0.015
1781,1176.1279999998358,-0.01
1782,1176.1319999998357,-0.015
1783,1176.1359999998356,-0.01
1784,1176.1399999998355,-0.015
1785,1176.1439999998354,-0.015
1786,1176.1479999998353,-0.01
1787,1176.1519999998352,-0.01
1788,1176.155999999835,-0.01
1789,1176.159999999835,-0.015
1790,1176.163999999835,-0.015
1791,1176.1679999998348,-0.01
1792,1176.1719999998347,-0.01
1793,1176.1759999998346,-0.01
1794,1176.1799999998345,-0.015
1795,1176.1839999998344,-0.015
1796,1176.1879999998343,-0.01
1797,1176.1919999998343,-0.015
1798,1176.1959999998342,-0.015
1799,1176.199999999834,-0.02
1800,1176.203999999834,-0.02
1801,1176.2079999998339,-0.02
1802,1176.2119999998338,-0.01
1803,1176.2159999998337,-0.01
1804,1176.2199999998336,-0.02
1805,1176.2239999998335,-0.015
1806,1176.2279999998334,-0.015
1807,1176.2319999998333,-0.015
1808,1176.2359999998332,-0.015
1809,1176.2399999998331,-0.015
1810,1176.243999999833,-0.01
1811,1176.247999999833,-0.015
1812,1176.2519999998328,-0.015
1813,1176.2559999998327,-0.015
1814,1176.2599999998326,-0.01
1815,1176.2639999998325,-0.01
1816,1176.2679999998325,-0.02
1817,1176.2719999998324,-0.02
1818,1176.2759999998323,-0.02
1819,1176.2799999998322,-0.015
1820,1176.283999999832,-0.015
1821,1176.287999999832,-0.015
1822,1176.291999999832,-0.01
1823,1176.2959999998318,-0.01
1824,1176.2999999998317,-0.02
1825,1176.3039999998316,-0.015
1826,1176.3079999998315,-0.02
1827,1176.3119999998314,-0.015
1828,1176.3159999998313,-0.015
1829,1176.3199999998312,-0.01
1830,1176.3239999998311,-0.01
1831,1176.327999999831,-0.015
1832,1176.331999999831,-0.02
1833,1176.3359999998308,-0.015
1834,1176.3399999998308,-0.01
1835,1176.3439999998307,-0.01
1836,1176.3479999998306,-0.015
1837,1176.3519999998305,-0.01
1838,1176.3559999998304,-0.02
1839,1176.3599999998303,-0.015
1840,1176.3639999998302,-0.015
1841,1176.36799999983,-0.015
1842,1176.37199999983,-0.015
1843,1176.37599999983,-0.015
1844,1176.3799999998298,-0.01
1845,1176.3839999998297,-0.015
1846,1176.3879999998296,-0.015
1847,1176.3919999998295,-0.015
1848,1176.3959999998294,-0.01
1849,1176.3999999998293,-0.015
1850,1176.4039999998292,-0.015
1851,1176.4079999998291,-0.015
1852,1176.411999999829,-0.01
1853,1176.415999999829,-0.015
1854,1176.4199999998289,-0.015
1855,1176.4239999998288,-0.02
1856,1176.4279999998287,-0.015
1857,1176.4319999998286,-0.01
1858,1176.4359999998285,-0.015
1859,1176.4399999998284,-0.015
1860,1176.4439999998283,-0.02
1861,1176.4479999998282,-0.02
1862,1176.451999999828,-0.015
1863,1176.455999999828,-0.015
1864,1176.459999999828,-0.01
1865,1176.4639999998278,-0.02
1866,1176.4679999998277,-0.02
1867,1176.4719999998276,-0.015
1868,1176.4759999998275,-0.015
1869,1176.4799999998274,-0.01
1870,1176.4839999998273,-0.015
1871,1176.4879999998273,-0.015
1872,1176.4919999998272,-0.015
1873,1176.495999999827,-0.015
1874,1176.499999999827,-0.01
1875,1176.5039999998269,-0.01
1876,1176.5079999998268,-0.015
1877,1176.5119999998267,-0.015
1878,1176.5159999998266,-0.015
1879,1176.5199999998265,-0.02
1880,1176.5239999998264,-0.015
1881,1176.5279999998263,-0.01
1882,1176.5319999998262,-0.02
1883,1176.5359999998261,-0.02
1884,1176.539999999826,-0.015
1885,1176.543999999826,-0.015
1886,1176.5479999998258,-0.015
1887,1176.5519999998257,-0.015
1888,1176.5559999998256,-0.02
1889,1176.5599999998255,-0.02
1890,1176.5639999998255,-0.02
1891,1176.5679999998254,-0.01
1892,1176.5719999998253,-0.015
1893,1176.5759999998252,-0.015
1894,1176.579999999825,-0.015
1895,1176.583999999825,-0.02
1896,1176.587999999825,-0.015
1897,1176.5919999998248,-0.01
1898,1176.5959999998247,-0.015
1899,1176.5999999998246,-0.02
1900,1176.6039999998245,-0.015
1901,1176.6079999998244,-0.02
1902,1176.6119999998243,-0.015
1903,1176.6159999998242,-0.015
1904,1176.6199999998241,-0.02
1905,1176.623999999824,-0.02
1906,1176.627999999824,-0.02
1907,1176.6319999998238,-0.015
1908,1176.6359999998238,-0.01
1909,1176.6399999998237,-0.02
1910,1176.6439999998236,-0.015
1911,1176.6479999998235,-0.015
1912,1176.6519999998234,-0.015
1913,1176.6559999998233,-0.015
1914,1176.6599999998232,-0.015
1915,1176.663999999823,-0.015
1916,1176.667999999823,-0.01
1917,1176.671999999823,-0.015
1918,1176.6759999998228,-0.015
1919,1176.6799999998227,-0.015
1920,1176.6839999998226,-0.01
1921,1176.6879999998225,-0.015
1922,1176.6919999998224,-0.015
1923,1176.6959999998223,-0.02
1924,1176.6999999998222,-0.015
1925,1176.7039999998221,-0.015
1926,1176.707999999822,-0.015
1927,1176.711999999822,-0.015
1928,1176.7159999998219,-0.02
1929,1176.7199999998218,-0.015
1930,1176.7239999998217,-0.01
1931,1176.7279999998216,-0.015
1932,1176.7319999998215,-0.015
1933,1176.7359999998214,-0.015
1934,1176.7399999998213,-0.015
1935,1176.7439999998212,-0.015
1936,1176.747999999821,-0.02
1937,1176.751999999821,-0.015
1938,1176.755999999821,-0.015
1939,1176.7599999998208,-0.015
1940,1176.7639999998207,-0.01
1941,1176.7679999998206,-0.015
1942,1176.7719999998205,-0.015
1943,1176.7759999998204,-0.015
1944,1176.7799999998203,-0.01
1945,1176.7839999998203,-0.015
1946,1176.7879999998202,-0.02
1947,1176.79199999982,-0.02
1948,1176.79599999982,-0.015
1949,1176.7999999998199,-0.015
1950,1176.8039999998198,-0.015
1951,1176.8079999998197,-0.015
1952,1176.8119999998196,-0.015
1953,1176.8159999998195,-0.015
1954,1176.8199999998194,-0.015
1955,1176.8239999998193,-0.015
1956,1176.8279999998192,-0.02
1957,1176.8319999998191,-0.015
1958,1176.835999999819,-0.015
1959,1176.839999999819,-0.01
1960,1176.8439999998188,-0.01
1961,1176.8479999998187,-0.015
1962,1176.8519999998186,-0.02
1963,1176.8559999998186,-0.015
1964,1176.8599999998185,-0.015
1965,1176.8639999998184,-0.015
1966,1176.8679999998183,-0.015
1967,1176.8719999998182,-0.02
1968,1176.875999999818,-0.02
1969,1176.879999999818,-0.015
1970,1176.883999999818,-0.01
1971,1176.8879999998178,-0.01
1972,1176.8919999998177,-0.01
1973,1176.8959999998176,-0.015
1974,1176.8999999998175,-0.02
1975,1176.9039999998174,-0.01
1976,1176.9079999998173,-0.015
1977,1176.9119999998172,-0.015
1978,1176.9159999998171,-0.015
1979,1176.919999999817,-0.015
1980,1176.923999999817,-0.015
1981,1176.9279999998168,-0.015
1982,1176.9319999998168,-0.02
1983,1176.9359999998167,-0.015
1984,1176.9399999998166,-0.02
1985,1176.9439999998165,-0.01
1986,1176.9479999998164,-0.01
1987,1176.9519999998163,-0.015
1988,1176.9559999998162,-0.015
1989,1176.959999999816,-0.015
1990,1176.963999999816,-0.015
1991,1176.967999999816,-0.02
1992,1176.9719999998158,-0.015
1993,1176.9759999998157,-0.015
1994,1176.9799999998156,-0.02
1995,1176.9839999998155,-0.02
1996,1176.9879999998154,-0.015
1997,1176.9919999998153,-0.015
1998,1176.9959999998152,-0.02
1999,1176.9999999998151,-0.015
2000,1177.003999999815,-0.01
2001,1177.007999999815,-0.015
2002,1177.0119999998149,-0.02
2003,1177.0159999998148,-0.02
2004,1177.0199999998147,-0.015
2005,1177.0239999998146,-0.02
2006,1177.0279999998145,-0.01
2007,1177.0319999998144,-0.02
2008,1177.0359999998143,-0.02
2009,1177.0399999998142,-0.015
2010,1177.043999999814,-0.015
2011,1177.047999999814,-0.015
2012,1177.051999999814,-0.02
2013,1177.0559999998138,-0.015
2014,1177.0599999998137,-0.01
2015,1177.0639999998136,-0.01
2016,1177.0679999998135,-0.015
2017,1177.0719999998134,-0.015
2018,1177.0759999998133,-0.015
2019,1177.0799999998133,-0.015
2020,1177.0839999998132,-0.015
2021,1177.087999999813,-0.01
2022,1177.091999999813,-0.015
2023,1177.0959999998129,-0.02
2024,1177.0999999998128,-0.01
2025,1177.1039999998127,-0.01
2026,1177.1079999998126,-0.015
2027,1177.1119999998125,-0.02
2028,1177.1159999998124,-0.02
2029,1177.1199999998123,-0.015
2030,1177.1239999998122,-0.015
2031,1177.1279999998121,-0.015
2032,1177.131999999812,-0.02
2033,1177.135999999812,-0.02
2034,1177.1399999998118,-0.015
2035,1177.1439999998117,-0.01
2036,1177.1479999998116,-0.02
2037,1177.1519999998116,-0.015
2038,1177.1559999998115,-0.015
2039,1177.1599999998114,-0.015
2040,1177.1639999998113,-0.01
2041,1177.1679999998112,-0.01
2042,1177.171999999811,-0.015
2043,1177.175999999811,-0.015
2044,1177.179999999811,-0.015
2045,1177.1839999998108,-0.015
2046,1177.1879999998107,-0.015
2047,1177.1919999998106,-0.015
2048,1177.1959999998105,-0.01
2049,1177.1999999998104,-0.01
2050,1177.2039999998103,-0.015
2051,1177.2079999998102,-0.02
2052,1177.2119999998101,-0.015
2053,1177.21599999981,-0.02
2054,1177.21999999981,-0.01
2055,1177.2239999998098,-0.01
2056,1177.2279999998098,-0.015
2057,1177.2319999998097,-0.015
2058,1177.2359999998096,-0.01
2059,1177.2399999998095,-0.015
2060,1177.2439999998094,-0.01
2061,1177.2479999998093,-0.015
2062,1177.2519999998092,-0.02
2063,1177.255999999809,-0.01
2064,1177.259999999809,-0.015
2065,1177.263999999809,-0.015
2066,1177.2679999998088,-0.02
2067,1177.2719999998087,-0.015
2068,1177.2759999998086,-0.02
2069,1177.2799999998085,-0.015
2070,1177.2839999998084,-0.01
2071,1177.2879999998083,-0.02
2072,1177.2919999998082,-0.02
2073,1177.2959999998081,-0.01
2074,1177.299999999808,-0.01
2075,1177.303999999808,-0.015
2076,1177.3079999998079,-0.015
2077,1177.3119999998078,-0.015
2078,1177.3159999998077,-0.015
2079,1177.3199999998076,-0.015
2080,1177.3239999998075,-0.015
2081,1177.3279999998074,-0.02
2082,1177.3319999998073,-0.015
2083,1177.3359999998072,-0.01
2084,1177.339999999807,-0.015
2085,1177.343999999807,-0.015
2086,1177.347999999807,-0.02
2087,1177.3519999998068,-0.02
2088,1177.3559999998067,-0.02
2089,1177.3599999998066,-0.01
2090,1177.3639999998065,-0.015
2091,1177.3679999998064,-0.015
2092,1177.3719999998063,-0.015
2093,1177.3759999998063,-0.02
2094,1177.3799999998062,-0.015
2095,1177.383999999806,-0.015
2096,1177.387999999806,-0.015
2097,1177.3919999998059,-0.015
2098,1177.3959999998058,-0.015
2099,1177.3999999998057,-0.015
2100,1177.4039999998056,-0.015
2101,1177.4079999998055,-0.015
2102,1177.4119999998054,-0.01
2103,1177.4159999998053,-0.02
2104,1177.4199999998052,-0.02
2105,1177.4239999998051,-0.015
2106,1177.427999999805,-0.02
2107,1177.431999999805,-0.015
2108,1177.4359999998048,-0.01
2109,1177.4399999998047,-0.015
2110,1177.4439999998046,-0.02
2111,1177.4479999998046,-0.01
2112,1177.4519999998045,-0.01
2113,1177.4559999998044,-0.015
2114,1177.4599999998043,-0.02
2115,1177.4639999998042,-0.02
2116,1177.467999999804,-0.015
2117,1177.471999999804,-0.015
2118,1177.475999999804,-0.015
2119,1177.4799999998038,-0.015
2120,1177.4839999998037,-0.02
2121,1177.4879999998036,-0.015
2122,1177.4919999998035,-0.015
2123,1177.4959999998034,-0.01
2124,1177.4999999998033,-0.015
2125,1177.5039999998032,-0.02
2126,1177.5079999998031,-0.02
2127,1177.511999999803,-0.02
2128,1177.515999999803,-0.015
2129,1177.5199999998028,-0.01
2130,1177.5239999998028,-0.015
2131,1177.5279999998027,-0.02
2132,1177.5319999998026,-0.015
2133,1177.5359999998025,-0.01
2134,1177.5399999998024,-0.02
2135,1177.5439999998023,-0.02
2136,1177.5479999998022,-0.015
2137,1177.551999999802,-0.015
2138,1177.555999999802,-0.02
2139,1177.559999999802,-0.015
2140,1177.5639999998018,-0.025
2141,1177.5679999998017,-0.015
2142,1177.5719999998016,-0.01
2143,1177.5759999998015,-0.02
2144,1177.5799999998014,-0.02
2145,1177.5839999998013,-0.01
2146,1177.5879999998012,-0.01
2147,1177.5919999998011,-0.015
2148,1177.595999999801,-0.015
2149,1177.599999999801,-0.015
2150,1177.6039999998009,-0.015
2151,1177.6079999998008,-0.015
2152,1177.6119999998007,-0.015
2153,1177.6159999998006,-0.01
2154,1177.6199999998005,-0.01
2155,1177.6239999998004,-0.015
2156,1177.6279999998003,-0.015
2157,1177.6319999998002,-0.015
2158,1177.6359999998,-0.015
2159,1177.6399999998,-0.01
2160,1177.6439999998,-0.01
2161,1177.6479999997998,-0.02
2162,1177.6519999997997,-0.015
2163,1177.6559999997996,-0.02
2164,1177.6599999997995,-0.015
2165,1177.6639999997994,-0.01
2166,1177.6679999997993,-0.015
2167,1177.6719999997993,-0.015
2168,1177.6759999997992,-0.015
2169,1177.679999999799,-0.015
2170,1177.683999999799,-0.015
2171,1177.6879999997989,-0.015
2172,1177.6919999997988,-0.015
2173,1177.6959999997987,-0.015
2174,1177.6999999997986,-0.01
2175,1177.7039999997985,-0.015
2176,1177.7079999997984,-0.015
2177,1177.7119999997983,-0.015
2178,1177.7159999997982,-0.01
2179,1177.7199999997981,-0.01
2180,1177.723999999798,-0.015
2181,1177.727999999798,-0.015
2182,1177.7319999997978,-0.015
2183,1177.7359999997977,-0.01
2184,1177.7399999997976,-0.01
2185,1177.7439999997976,-0.015
2186,1177.7479999997975,-0.02
2187,1177.7519999997974,-0.015
2188,1177.7559999997973,-0.01
2189,1177.7599999997972,-0.015
2190,1177.763999999797,-0.01
2191,1177.767999999797,-0.015
2192,1177.771999999797,-0.02
2193,1177.7759999997968,-0.015
2194,1177.7799999997967,-0.01
2195,1177.7839999997966,-0.02
2196,1177.7879999997965,-0.015
2197,1177.7919999997964,-0.02
2198,1177.7959999997963,-0.015
2199,1177.7999999997962,-0.01
2200,1177.8039999997961,-0.015
2201,1177.807999999796,-0.02
2202,1177.811999999796,-0.01
2203,1177.8159999997958,-0.01
2204,1177.8199999997958,-0.015
2205,1177.8239999997957,-0.02
2206,1177.8279999997956,-0.01
2207,1177.8319999997955,-0.015
2208,1177.8359999997954,-0.015
2209,1177.8399999997953,-0.015
2210,1177.8439999997952,-0.015
2211,1177.847999999795,-0.015
2212,1177.851999999795,-0.02
2213,1177.855999999795,-0.015
2214,1177.8599999997948,-0.01
2215,1177.8639999997947,-0.01
2216,1177.8679999997946,-0.015
2217,1177.8719999997945,-0.015
2218,1177.8759999997944,-0.02
2219,1177.8799999997943,-0.015
2220,1177.8839999997942,-0.015
2221,1177.8879999997941,-0.015
2222,1177.891999999794,-0.015
2223,1177.895999999794,-0.015
2224,1177.8999999997939,-0.02
2225,1177.9039999997938,-0.015
2226,1177.9079999997937,-0.01
2227,1177.9119999997936,-0.01
2228,1177.9159999997935,-0.015
2229,1177.9199999997934,-0.015
2230,1177.9239999997933,-0.015
2231,1177.9279999997932,-0.015
2232,1177.931999999793,-0.015
2233,1177.935999999793,-0.01
2234,1177.939999999793,-0.015
2235,1177.9439999997928,-0.015
2236,1177.9479999997927,-0.02
2237,1177.9519999997926,-0.015
2238,1177.9559999997925,-0.02
2239,1177.9599999997924,-0.02
2240,1177.9639999997923,-0.025
2241,1177.9679999997923,-0.02
2242,1177.9719999997922,-0.015
2243,1177.975999999792,-0.02
2244,1177.979999999792,-0.02
2245,1177.9839999997919,-0.02
2246,1177.9879999997918,-0.015
2247,1177.9919999997917,-0.015
2248,1177.9959999997916,-0.02
2249,1177.9999999997915,-0.025
2250,1178.0039999997914,-0.015
2251,1178.0079999997913,-0.015
2252,1178.0119999997912,-0.02
2253,1178.0159999997911,-0.02
2254,1178.019999999791,-0.02
2255,1178.023999999791,-0.015
2256,1178.0279999997908,-0.02
2257,1178.0319999997907,-0.015
2258,1178.0359999997906,-0.025
2259,1178.0399999997906,-0.02
2260,1178.0439999997905,-0.02
2261,1178.0479999997904,-0.015
2262,1178.0519999997903,-0.015
2263,1178.0559999997902,-0.02
2264,1178.05999999979,-0.02
2265,1178.06399999979,-0.015
2266,1178.06799999979,-0.015
2267,1178.0719999997898,-0.015
2268,1178.0759999997897,-0.02
2269,1178.0799999997896,-0.02
2270,1178.0839999997895,-0.015
2271,1178.0879999997894,-0.01
2272,1178.0919999997893,-0.02
2273,1178.0959999997892,-0.015
2274,1178.0999999997891,-0.015
2275,1178.103999999789,-0.02
2276,1178.107999999789,-0.015
2277,1178.1119999997888,-0.015
2278,1178.1159999997888,-0.015
2279,1178.1199999997887,-0.02
2280,1178.1239999997886,-0.015
2281,1178.1279999997885,-0.015
2282,1178.1319999997884,-0.015
2283,1178.1359999997883,-0.015
2284,1178.1399999997882,-0.015
2285,1178.143999999788,-0.015
2286,1178.147999999788,-0.015
2287,1178.151999999788,-0.015
2288,1178.1559999997878,-0.015
2289,1178.1599999997877,-0.02
2290,1178.1639999997876,-0.015
2291,1178.1679999997875,-0.01
2292,1178.1719999997874,-0.015
2293,1178.1759999997873,-0.02
2294,1178.1799999997872,-0.015
2295,1178.1839999997871,-0.01
2296,1178.187999999787,-0.015
2297,1178.191999999787,-0.01
2298,1178.1959999997869,-0.015
2299,1178.1999999997868,-0.015
2300,1178.2039999997867,-0.01
2301,1178.2079999997866,-0.015
2302,1178.2119999997865,-0.015
2303,1178.2159999997864,-0.015
2304,1178.2199999997863,-0.01
2305,1178.2239999997862,-0.015
2306,1178.227999999786,-0.015
2307,1178.231999999786,-0.015
2308,1178.235999999786,-0.015
2309,1178.2399999997858,-0.005
2310,1178.2439999997857,-0.005
2311,1178.2479999997856,-0.005
2312,1178.2519999997855,-0.01
2313,1178.2559999997854,-0.005
2314,1178.2599999997854,-0.005
2315,1178.2639999997853,0.0
2316,1178.2679999997852,-0.005
2317,1178.271999999785,-0.005
2318,1178.275999999785,-0.005
2319,1178.2799999997849,0.0
2320,1178.2839999997848,0.0
2321,1178.2879999997847,0.0
2322,1178.2919999997846,-0.005
2323,1178.2959999997845,0.0
2324,1178.2999999997844,0.005
2325,1178.3039999997843,0.0
2326,1178.3079999997842,0.0
2327,1178.3119999997841,0.005
2328,1178.315999999784,0.0
2329,1178.319999999784,0.0
2330,1178.3239999997838,0.0
2331,1178.3279999997837,0.0
2332,1178.3319999997836,0.0
2333,1178.3359999997836,0.0
2334,1178.3399999997835,0.0
2335,1178.3439999997834,0.0
2336,1178.3479999997833,0.0
2337,1178.3519999997832,0.0
2338,1178.355999999783,0.0
2339,1178.359999999783,0.0
2340,1178.363999999783,-0.005
2341,1178.3679999997828,-0.01
2342,1178.3719999997827,-0.005
2343,1178.3759999997826,-0.005
2344,1178.3799999997825,0.0
2345,1178.3839999997824,-0.01
2346,1178.3879999997823,-0.005
2347,1178.3919999997822,-0.01
2348,1178.3959999997821,0.0
2349,1178.399999999782,-0.005
2350,1178.403999999782,-0.005
2351,1178.4079999997819,-0.01
2352,1178.4119999997818,-0.01
2353,1178.4159999997817,-0.005
2354,1178.4199999997816,-0.015
2355,1178.4239999997815,-0.01
2356,1178.4279999997814,-0.015
2357,1178.4319999997813,-0.01
2358,1178.4359999997812,-0.01
2359,1178.439999999781,-0.01
2360,1178.443999999781,-0.01
2361,1178.447999999781,-0.01
2362,1178.4519999997808,-0.01
2363,1178.4559999997807,-0.01
2364,1178.4599999997806,-0.01
2365,1178.4639999997805,-0.015
2366,1178.4679999997804,-0.01
2367,1178.4719999997803,-0.01
2368,1178.4759999997802,-0.01
2369,1178.4799999997801,-0.02
2370,1178.48399999978,-0.015
2371,1178.48799999978,-0.02
2372,1178.4919999997799,-0.01
2373,1178.4959999997798,-0.01
2374,1178.4999999997797,-0.02
2375,1178.5039999997796,-0.015
2376,1178.5079999997795,-0.015
2377,1178.5119999997794,-0.015
2378,1178.5159999997793,-0.02
2379,1178.5199999997792,-0.02
2380,1178.523999999779,-0.02
2381,1178.527999999779,-0.02
2382,1178.531999999779,-0.02
2383,1178.5359999997788,-0.015
2384,1178.5399999997787,-0.02
2385,1178.5439999997786,-0.025
2386,1178.5479999997785,-0.02
2387,1178.5519999997784,-0.015
2388,1178.5559999997784,-0.025
2389,1178.5599999997783,-0.025
2390,1178.5639999997782,-0.025
2391,1178.567999999778,-0.03
2392,1178.571999999778,-0.025
2393,1178.5759999997779,-0.025
2394,1178.5799999997778,-0.025
2395,1178.5839999997777,-0.03
2396,1178.5879999997776,-0.03
2397,1178.5919999997775,-0.025
2398,1178.5959999997774,-0.03
2399,1178.5999999997773,-0.03
2400,1178.6039999997772,-0.03
2401,1178.6079999997771,-0.03
2402,1178.611999999777,-0.03
2403,1178.615999999777,-0.03
2404,1178.6199999997768,-0.025
2405,1178.6239999997767,-0.04
2406,1178.6279999997766,-0.035
2407,1178.6319999997766,-0.03
2408,1178.6359999997765,-0.035
2409,1178.6399999997764,-0.03
2410,1178.6439999997763,-0.035
2411,1178.6479999997762,-0.035
2412,1178.651999999776,-0.035
2413,1178.655999999776,-0.03
2414,1178.659999999776,-0.035
2415,1178.6639999997758,-0.035
2416,1178.6679999997757,-0.04
2417,1178.6719999997756,-0.03
2418,1178.6759999997755,-0.035
2419,1178.6799999997754,-0.04
2420,1178.6839999997753,-0.03
2421,1178.6879999997752,-0.04
2422,1178.6919999997751,-0.03
2423,1178.695999999775,-0.035
2424,1178.699999999775,-0.035
2425,1178.7039999997749,-0.035
2426,1178.7079999997748,-0.035
2427,1178.7119999997747,-0.03
2428,1178.7159999997746,-0.03
2429,1178.7199999997745,-0.03
2430,1178.7239999997744,-0.035
2431,1178.7279999997743,-0.03
2432,1178.7319999997742,-0.03
2433,1178.735999999774,-0.03
2434,1178.739999999774,-0.03
2435,1178.743999999774,-0.03
2436,1178.7479999997738,-0.035
2437,1178.7519999997737,-0.03
2438,1178.7559999997736,-0.03
2439,1178.7599999997735,-0.03
2440,1178.7639999997734,-0.03
2441,1178.7679999997733,-0.03
2442,1178.7719999997732,-0.03
2443,1178.7759999997731,-0.025
2444,1178.779999999773,-0.03
2445,1178.783999999773,-0.03
2446,1178.7879999997729,-0.03
2447,1178.7919999997728,-0.025
2448,1178.7959999997727,-0.025
2449,1178.7999999997726,-0.025
2450,1178.8039999997725,-0.025
2451,1178.8079999997724,-0.025
2452,1178.8119999997723,-0.02
2453,1178.8159999997722,-0.025
2454,1178.819999999772,-0.025
2455,1178.823999999772,-0.03
2456,1178.827999999772,-0.02
2457,1178.8319999997718,-0.02
2458,1178.8359999997717,-0.025
2459,1178.8399999997716,-0.025
2460,1178.8439999997715,-0.025
2461,1178.8479999997714,-0.025
2462,1178.8519999997714,-0.015
2463,1178.8559999997713,-0.02
2464,1178.8599999997712,-0.025
2465,1178.863999999771,-0.025
2466,1178.867999999771,-0.02
2467,1178.8719999997709,-0.02
2468,1178.8759999997708,-0.015
2469,1178.8799999997707,-0.02
2470,1178.8839999997706,-0.02
2471,1178.8879999997705,-0.025
2472,1178.8919999997704,-0.025
2473,1178.8959999997703,-0.02
2474,1178.8999999997702,-0.02
2475,1178.9039999997701,-0.015
2476,1178.90799999977,-0.02
2477,1178.91199999977,-0.02
2478,1178.9159999997698,-0.015
2479,1178.9199999997697,-0.015
2480,1178.9239999997696,-0.015
2481,1178.9279999997696,-0.02
2482,1178.9319999997695,-0.015
2483,1178.9359999997694,-0.015
2484,1178.9399999997693,-0.015
2485,1178.9439999997692,-0.02
2486,1178.947999999769,-0.02
2487,1178.951999999769,-0.015
2488,1178.955999999769,-0.015
2489,1178.9599999997688,-0.02
2490,1178.9639999997687,-0.015
2491,1178.9679999997686,-0.02
2492,1178.9719999997685,-0.015
2493,1178.9759999997684,-0.02
2494,1178.9799999997683,-0.015
2495,1178.9839999997682,-0.01
2496,1178.9879999997681,-0.02
2497,1178.991999999768,-0.015
2498,1178.995999999768,-0.015
2499,1178.9999999997679,-0.01
2500,1179.0039999997678,-0.01
2501,1179.0079999997677,-0.015
2502,1179.0119999997676,-0.01
2503,1179.0159999997675,-0.01
2504,1179.0199999997674,-0.005
2505,1179.0239999997673,-0.01
2506,1179.0279999997672,-0.005
2507,1179.031999999767,-0.01
2508,1179.035999999767,-0.01
2509,1179.039999999767,-0.01
2510,1179.0439999997668,-0.01
2511,1179.0479999997667,-0.01
2512,1179.0519999997666,-0.015
2513,1179.0559999997665,-0.01
2514,1179.0599999997664,-0.005
2515,1179.0639999997663,-0.01
2516,1179.0679999997662,-0.005
2517,1179.0719999997661,-0.01
2518,1179.075999999766,-0.015
2519,1179.079999999766,-0.005
2520,1179.0839999997659,-0.01
2521,1179.0879999997658,-0.01
2522,1179.0919999997657,-0.015
2523,1179.0959999997656,-0.01
2524,1179.0999999997655,-0.015
2525,1179.1039999997654,-0.005
2526,1179.1079999997653,-0.01
2527,1179.1119999997652,-0.01
2528,1179.115999999765,-0.015
2529,1179.119999999765,-0.01
2530,1179.123999999765,-0.01
2531,1179.1279999997648,-0.01
2532,1179.1319999997647,-0.01
2533,1179.1359999997646,-0.01
2534,1179.1399999997645,-0.01
2535,1179.1439999997644,-0.01
2536,1179.1479999997644,-0.01
2537,1179.1519999997643,-0.015
2538,1179.1559999997642,-0.015
2539,1179.159999999764,-0.01
2540,1179.163999999764,-0.01
2541,1179.1679999997639,-0.01
2542,1179.1719999997638,-0.01
2543,1179.1759999997637,-0.015
2544,1179.1799999997636,-0.005
2545,1179.1839999997635,-0.01
2546,1179.1879999997634,-0.005
2547,1179.1919999997633,-0.015
2548,1179.1959999997632,-0.01
2549,1179.1999999997631,-0.01
2550,1179.203999999763,-0.01
2551,1179.207999999763,-0.01
2552,1179.2119999997628,-0.015
2553,1179.2159999997627,-0.015
2554,1179.2199999997626,-0.01
2555,1179.2239999997626,-0.01
2556,1179.2279999997625,-0.01
2557,1179.2319999997624,-0.01
2558,1179.2359999997623,-0.015
2559,1179.2399999997622,-0.01
2560,1179.243999999762,-0.01
2561,1179.247999999762,-0.005
2562,1179.251999999762,-0.015
2563,1179.2559999997618,-0.015
2564,1179.2599999997617,-0.01
2565,1179.2639999997616,-0.005
2566,1179.2679999997615,-0.01
2567,1179.2719999997614,-0.015
2568,1179.2759999997613,-0.01
2569,1179.2799999997612,-0.005
2570,1179.2839999997611,-0.02
2571,1179.287999999761,-0.015
2572,1179.291999999761,-0.015
2573,1179.2959999997609,-0.01
2574,1179.2999999997608,-0.015
2575,1179.3039999997607,-0.015
2576,1179.3079999997606,-0.01
2577,1179.3119999997605,-0.01
2578,1179.3159999997604,-0.01
2579,1179.3199999997603,-0.015
2580,1179.3239999997602,-0.015
2581,1179.32799999976,-0.01
2582,1179.33199999976,-0.015
2583,1179.33599999976,-0.015
2584,1179.3399999997598,-0.015
2585,1179.3439999997597,-0.02
2586,1179.3479999997596,-0.01
2587,1179.3519999997595,-0.01
2588,1179.3559999997594,-0.015
2589,1179.3599999997593,-0.015
2590,1179.3639999997592,-0.02
2591,1179.3679999997591,-0.01
2592,1179.371999999759,-0.015
2593,1179.375999999759,-0.01
2594,1179.3799999997589,-0.01
2595,1179.3839999997588,-0.015
2596,1179.3879999997587,-0.02
2597,1179.3919999997586,-0.01
2598,1179.3959999997585,-0.015
2599,1179.3999999997584,-0.01
2600,1179.4039999997583,-0.02
2601,1179.4079999997582,-0.01
2602,1179.411999999758,-0.015
2603,1179.415999999758,-0.01
2604,1179.419999999758,-0.015
2605,1179.4239999997578,-0.015
2606,1179.4279999997577,-0.01
2607,1179.4319999997576,-0.01
2608,1179.4359999997575,-0.01
2609,1179.4399999997574,-0.015
2610,1179.4439999997574,-0.02
2611,1179.4479999997573,-0.015
2612,1179.4519999997572,-0.015
2613,1179.455999999757,-0.015
2614,1179.459999999757,-0.01
2615,1179.4639999997569,-0.015
2616,1179.4679999997568,-0.015
2617,1179.4719999997567,-0.015
2618,1179.4759999997566,-0.01
2619,1179.4799999997565,-0.015
2620,1179.4839999997564,-0.015
2621,1179.4879999997563,-0.015
2622,1179.4919999997562,-0.015
2623,1179.4959999997561,-0.015
2624,1179.499999999756,-0.02
2625,1179.503999999756,-0.015
2626,1179.5079999997558,-0.01
2627,1179.5119999997557,-0.015
2628,1179.5159999997556,-0.01
2629,1179.5199999997556,-0.015
2630,1179.5239999997555,-0.015
2631,1179.5279999997554,-0.015
2632,1179.5319999997553,-0.01
2633,1179.5359999997552,-0.01
2634,1179.539999999755,-0.015
2635,1179.543999999755,-0.02
2636,1179.547999999755,-0.015
2637,1179.5519999997548,-0.01
2638,1179.5559999997547,-0.01
2639,1179.5599999997546,-0.01
2640,1179.5639999997545,-0.015
2641,1179.5679999997544,-0.015
2642,1179.5719999997543,-0.01
2643,1179.5759999997542,-0.01
2644,1179.5799999997541,-0.01
2645,1179.583999999754,-0.015
2646,1179.587999999754,-0.015
2647,1179.5919999997539,-0.01
2648,1179.5959999997538,-0.01
2649,1179.5999999997537,-0.01
2650,1179.6039999997536,-0.015
2651,1179.6079999997535,-0.01
2652,1179.6119999997534,-0.015
2653,1179.6159999997533,-0.015
2654,1179.6199999997532,-0.015
2655,1179.623999999753,-0.01
2656,1179.627999999753,-0.015
2657,1179.631999999753,-0.015
2658,1179.6359999997528,-0.015
2659,1179.6399999997527,-0.01
2660,1179.6439999997526,-0.01
2661,1179.6479999997525,-0.015
2662,1179.6519999997524,-0.02
2663,1179.6559999997523,-0.01
2664,1179.6599999997522,-0.01
2665,1179.6639999997521,-0.015
2666,1179.667999999752,-0.015
2667,1179.671999999752,-0.015
2668,1179.6759999997519,-0.015
2669,1179.6799999997518,-0.015
2670,1179.6839999997517,-0.015
2671,1179.6879999997516,-0.015
2672,1179.6919999997515,-0.015
2673,1179.6959999997514,-0.01
2674,1179.6999999997513,-0.015
2675,1179.7039999997512,-0.015
2676,1179.707999999751,-0.02
2677,1179.711999999751,-0.01
2678,1179.715999999751,-0.01
2679,1179.7199999997508,-0.02
2680,1179.7239999997507,-0.015
2681,1179.7279999997506,-0.015
2682,1179.7319999997505,-0.015
2683,1179.7359999997504,-0.015
2684,1179.7399999997504,-0.015
2685,1179.7439999997503,-0.02
2686,1179.7479999997502,-0.02
2687,1179.75199999975,-0.01
2688,1179.75599999975,-0.01
2689,1179.7599999997499,-0.01
2690,1179.7639999997498,-0.015
2691,1179.7679999997497,-0.01
2692,1179.7719999997496,-0.015
2693,1179.7759999997495,-0.015
2694,1179.7799999997494,-0.01
2695,1179.7839999997493,-0.015
2696,1179.7879999997492,-0.015
2697,1179.7919999997491,-0.02
2698,1179.795999999749,-0.015
2699,1179.799999999749,-0.02
2700,1179.8039999997488,-0.015
2701,1179.8079999997487,-0.01
2702,1179.8119999997487,-0.02
2703,1179.8159999997486,-0.015
2704,1179.8199999997485,-0.015
2705,1179.8239999997484,-0.015
2706,1179.8279999997483,-0.01
2707,1179.8319999997482,-0.015
2708,1179.835999999748,-0.015
2709,1179.839999999748,-0.01
2710,1179.843999999748,-0.015
2711,1179.8479999997478,-0.01
2712,1179.8519999997477,-0.015
2713,1179.8559999997476,-0.015
2714,1179.8599999997475,-0.015
2715,1179.8639999997474,-0.01
2716,1179.8679999997473,-0.02
2717,1179.8719999997472,-0.015
2718,1179.8759999997471,-0.02
2719,1179.879999999747,-0.015
2720,1179.883999999747,-0.01
2721,1179.8879999997469,-0.015
2722,1179.8919999997468,-0.01
2723,1179.8959999997467,-0.02
2724,1179.8999999997466,-0.01
2725,1179.9039999997465,-0.01
2726,1179.9079999997464,-0.02
2727,1179.9119999997463,-0.02
2728,1179.9159999997462,-0.015
2729,1179.919999999746,-0.01
2730,1179.923999999746,-0.015
2731,1179.927999999746,-0.015
2732,1179.9319999997458,-0.015
2733,1179.9359999997457,-0.015
2734,1179.9399999997456,-0.015
2735,1179.9439999997455,-0.015
2736,1179.9479999997454,-0.02
2737,1179.9519999997453,-0.015
2738,1179.9559999997452,-0.015
2739,1179.9599999997452,-0.015
2740,1179.963999999745,-0.015
2741,1179.967999999745,-0.015
2742,1179.9719999997449,-0.02
2743,1179.9759999997448,-0.01
2744,1179.9799999997447,-0.01
2745,1179.9839999997446,-0.015
2746,1179.9879999997445,-0.01
2747,1179.9919999997444,-0.005
2748,1179.9959999997443,0.0
2749,1179.9999999997442,0.0
2750,1180.003999999744,0.0
2751,1180.007999999744,0.0
2752,1180.011999999744,0.0
2753,1180.0159999997438,0.0
2754,1180.0199999997437,0.005
2755,1180.0239999997436,0.0
2756,1180.0279999997435,0.005
2757,1180.0319999997434,0.005
2758,1180.0359999997434,0.005
2759,1180.0399999997433,0.01
2760,1180.0439999997432,0.005
2761,1180.047999999743,0.005
2762,1180.051999999743,0.005
2763,1180.0559999997429,0.01
2764,1180.0599999997428,0.01
2765,1180.0639999997427,0.01
2766,1180.0679999997426,0.015
2767,1180.0719999997425,0.02
2768,1180.0759999997424,0.035
2769,1180.0799999997423,0.04
2770,1180.0839999997422,0.045
2771,1180.0879999997421,0.04
2772,1180.091999999742,0.045
2773,1180.095999999742,0.04
2774,1180.0999999997418,0.035
2775,1180.1039999997417,0.025
2776,1180.1079999997417,0.02
2777,1180.1119999997416,0.025
2778,1180.1159999997415,0.015
2779,1180.1199999997414,0.02
2780,1180.1239999997413,0.015
2781,1180.1279999997412,0.01
2782,1180.131999999741,0.01
2783,1180.135999999741,0.015
2784,1180.139999999741,0.005
2785,1180.1439999997408,0.01
2786,1180.1479999997407,0.005
2787,1180.1519999997406,0.01
2788,1180.1559999997405,0.005
2789,1180.1599999997404,0.005
2790,1180.1639999997403,0.0
2791,1180.1679999997402,0.0
2792,1180.1719999997401,0.0
2793,1180.17599999974,0.0
2794,1180.17999999974,0.0
2795,1180.1839999997399,-0.005
2796,1180.1879999997398,-0.005
2797,1180.1919999997397,-0.01
2798,1180.1959999997396,-0.005
2799,1180.1999999997395,-0.005
2800,1180.2039999997394,-0.01
2801,1180.2079999997393,-0.015
2802,1180.2119999997392,-0.01
2803,1180.215999999739,-0.01
2804,1180.219999999739,-0.01
2805,1180.223999999739,-0.02
2806,1180.2279999997388,-0.015
2807,1180.2319999997387,-0.015
2808,1180.2359999997386,-0.02
2809,1180.2399999997385,-0.02
2810,1180.2439999997384,-0.02
2811,1180.2479999997383,-0.025
2812,1180.2519999997382,-0.025
2813,1180.2559999997382,-0.025
2814,1180.259999999738,-0.025
2815,1180.263999999738,-0.02
2816,1180.2679999997379,-0.03
2817,1180.2719999997378,-0.03
2818,1180.2759999997377,-0.03
2819,1180.2799999997376,-0.025
2820,1180.2839999997375,-0.025
2821,1180.2879999997374,-0.03
2822,1180.2919999997373,-0.03
2823,1180.2959999997372,-0.03
2824,1180.299999999737,-0.025
2825,1180.303999999737,-0.025
2826,1180.307999999737,-0.03
2827,1180.3119999997368,-0.03
2828,1180.3159999997367,-0.035
2829,1180.3199999997366,-0.035
2830,1180.3239999997365,-0.035
2831,1180.3279999997364,-0.035
2832,1180.3319999997364,-0.04
2833,1180.3359999997363,-0.045
2834,1180.3399999997362,-0.04
2835,1180.343999999736,-0.04
2836,1180.347999999736,-0.04
2837,1180.3519999997359,-0.04
2838,1180.3559999997358,-0.04
2839,1180.3599999997357,-0.045
2840,1180.3639999997356,-0.045
2841,1180.3679999997355,-0.04
2842,1180.3719999997354,-0.04
2843,1180.3759999997353,-0.045
2844,1180.3799999997352,-0.045
2845,1180.3839999997351,-0.05
2846,1180.387999999735,-0.045
2847,1180.391999999735,-0.045
2848,1180.3959999997348,-0.045
2849,1180.3999999997347,-0.05
2850,1180.4039999997347,-0.05
2851,1180.4079999997346,-0.045
2852,1180.4119999997345,-0.045
2853,1180.4159999997344,-0.05
2854,1180.4199999997343,-0.05
2855,1180.4239999997342,-0.05
2856,1180.427999999734,-0.05
2857,1180.431999999734,-0.05
2858,1180.435999999734,-0.045
2859,1180.4399999997338,-0.05
2860,1180.4439999997337,-0.05
2861,1180.4479999997336,-0.05
2862,1180.4519999997335,-0.045
2863,1180.4559999997334,-0.05
2864,1180.4599999997333,-0.05
2865,1180.4639999997332,-0.05
2866,1180.4679999997331,-0.045
2867,1180.471999999733,-0.045
2868,1180.475999999733,-0.05
2869,1180.4799999997329,-0.05
2870,1180.4839999997328,-0.05
2871,1180.4879999997327,-0.045
2872,1180.4919999997326,-0.04
2873,1180.4959999997325,-0.045
2874,1180.4999999997324,-0.05
2875,1180.5039999997323,-0.04
2876,1180.5079999997322,-0.04
2877,1180.511999999732,-0.045
2878,1180.515999999732,-0.045
2879,1180.519999999732,-0.045
2880,1180.5239999997318,-0.04
2881,1180.5279999997317,-0.04
2882,1180.5319999997316,-0.035
2883,1180.5359999997315,-0.035
2884,1180.5399999997314,-0.035
2885,1180.5439999997313,-0.03
2886,1180.5479999997312,-0.03
2887,1180.5519999997312,-0.035
2888,1180.555999999731,-0.035
2889,1180.559999999731,-0.03
2890,1180.5639999997309,-0.035
2891,1180.5679999997308,-0.03
2892,1180.5719999997307,-0.04
2893,1180.5759999997306,-0.045
2894,1180.5799999997305,-0.035
2895,1180.5839999997304,-0.035
2896,1180.5879999997303,-0.04
2897,1180.5919999997302,-0.04
2898,1180.59599999973,-0.035
2899,1180.59999999973,-0.04
2900,1180.60399999973,-0.035
2901,1180.6079999997298,-0.035
2902,1180.6119999997297,-0.035
2903,1180.6159999997296,-0.03
2904,1180.6199999997295,-0.03
2905,1180.6239999997294,-0.03
2906,1180.6279999997294,-0.03
2907,1180.6319999997293,-0.03
2908,1180.6359999997292,-0.03
2909,1180.639999999729,-0.025
2910,1180.643999999729,-0.025
2911,1180.6479999997289,-0.025
2912,1180.6519999997288,-0.03
2913,1180.6559999997287,-0.025
2914,1180.6599999997286,-0.025
2915,1180.6639999997285,-0.03
2916,1180.6679999997284,-0.035
2917,1180.6719999997283,-0.03
2918,1180.6759999997282,-0.03
2919,1180.6799999997281,-0.025
2920,1180.683999999728,-0.025
2921,1180.687999999728,-0.03
2922,1180.6919999997278,-0.03
2923,1180.6959999997277,-0.035
2924,1180.6999999997277,-0.03
2925,1180.7039999997276,-0.03
2926,1180.7079999997275,-0.035
2927,1180.7119999997274,-0.035
2928,1180.7159999997273,-0.03
2929,1180.7199999997272,-0.025
2930,1180.723999999727,-0.02
2931,1180.727999999727,-0.025
2932,1180.731999999727,-0.025
2933,1180.7359999997268,-0.02
2934,1180.7399999997267,-0.02
2935,1180.7439999997266,-0.02
2936,1180.7479999997265,-0.02
2937,1180.7519999997264,-0.02
2938,1180.7559999997263,-0.02
2939,1180.7599999997262,-0.015
2940,1180.7639999997261,-0.015
2941,1180.767999999726,-0.02
2942,1180.771999999726,-0.02
2943,1180.7759999997259,-0.02
2944,1180.7799999997258,-0.015
2945,1180.7839999997257,-0.015
2946,1180.7879999997256,-0.02
2947,1180.7919999997255,-0.015
2948,1180.7959999997254,-0.02
2949,1180.7999999997253,-0.01
2950,1180.8039999997252,-0.01
2951,1180.807999999725,-0.02
2952,1180.811999999725,-0.02
2953,1180.815999999725,-0.015
2954,1180.8199999997248,-0.015
2955,1180.8239999997247,-0.02
2956,1180.8279999997246,-0.01
2957,1180.8319999997245,-0.015
2958,1180.8359999997244,-0.015
2959,1180.8399999997243,-0.015
2960,1180.8439999997242,-0.015
2961,1180.8479999997242,-0.02
2962,1180.851999999724,-0.02
2963,1180.855999999724,-0.015
2964,1180.8599999997239,-0.01
2965,1180.8639999997238,-0.02
2966,1180.8679999997237,-0.015
2967,1180.8719999997236,-0.015
2968,1180.8759999997235,-0.015
2969,1180.8799999997234,-0.02
2970,1180.8839999997233,-0.015
2971,1180.8879999997232,-0.01
2972,1180.891999999723,-0.02
2973,1180.895999999723,-0.02
2974,1180.899999999723,-0.015
2975,1180.9039999997228,-0.02
2976,1180.9079999997227,-0.015
2977,1180.9119999997226,-0.01
2978,1180.9159999997225,-0.015
2979,1180.9199999997224,-0.01
2980,1180.9239999997224,-0.015
2981,1180.9279999997223,-0.01
2982,1180.9319999997222,-0.01
2983,1180.935999999722,-0.01
2984,1180.939999999722,-0.005
2985,1180.9439999997219,-0.01
2986,1180.9479999997218,-0.005
2987,1180.9519999997217,-0.015
2988,1180.9559999997216,-0.01
2989,1180.9599999997215,-0.01
2990,1180.9639999997214,-0.01
2991,1180.9679999997213,-0.01
2992,1180.9719999997212,-0.01
2993,1180.9759999997211,-0.01
2994,1180.979999999721,-0.015
2995,1180.983999999721,-0.005
2996,1180.9879999997208,-0.01
2997,1180.9919999997207,-0.01
2998,1180.9959999997207,-0.01
2999,1180.9999999997206,-0.01
3000,1181.0039999997205,-0.005
3001,1181.0079999997204,-0.005
3002,1181.0119999997203,-0.01
3003,1181.0159999997202,-0.01
3004,1181.01999999972,-0.005
3005,1181.02399999972,0.0
3006,1181.02799999972,0.0
3007,1181.0319999997198,-0.005
3008,1181.0359999997197,-0.005
3009,1181.0399999997196,0.0
3010,1181.0439999997195,0.0
3011,1181.0479999997194,0.0
3012,1181.0519999997193,0.0
3013,1181.0559999997192,0.0
3014,1181.0599999997191,0.0
3015,1181.063999999719,0.015
3016,1181.067999999719,0.01
3017,1181.0719999997189,0.015
3018,1181.0759999997188,0.01
3019,1181.0799999997187,0.015
3020,1181.0839999997186,0.02
3021,1181.0879999997185,0.02
3022,1181.0919999997184,0.025
3023,1181.0959999997183,0.03
3024,1181.0999999997182,0.04
3025,1181.103999999718,0.055
3026,1181.107999999718,0.065
3027,1181.111999999718,0.065
3028,1181.1159999997178,0.07
3029,1181.1199999997177,0.07
3030,1181.1239999997176,0.065
3031,1181.1279999997175,0.055
3032,1181.1319999997174,0.05
3033,1181.1359999997173,0.05
3034,1181.1399999997172,0.045
3035,1181.1439999997172,0.035
3036,1181.147999999717,0.04
3037,1181.151999999717,0.035
3038,1181.1559999997169,0.03
3039,1181.1599999997168,0.025
3040,1181.1639999997167,0.025
3041,1181.1679999997166,0.025
3042,1181.1719999997165,0.025
3043,1181.1759999997164,0.015
3044,1181.1799999997163,0.015
3045,1181.1839999997162,0.02
3046,1181.187999999716,0.02
3047,1181.191999999716,0.015
3048,1181.195999999716,0.015
3049,1181.1999999997158,0.01
3050,1181.2039999997157,0.01
3051,1181.2079999997156,0.01
3052,1181.2119999997155,0.01
3053,1181.2159999997155,0.01
3054,1181.2199999997154,0.01
3055,1181.2239999997153,0.005
3056,1181.2279999997152,0.005
3057,1181.231999999715,0.005
3058,1181.235999999715,0.0
3059,1181.2399999997149,0.0
3060,1181.2439999997148,0.0
3061,1181.2479999997147,0.0
3062,1181.2519999997146,0.0
3063,1181.2559999997145,0.0
3064,1181.2599999997144,-0.005
3065,1181.2639999997143,-0.005
3066,1181.2679999997142,0.0
3067,1181.2719999997141,0.0
3068,1181.275999999714,-0.005
3069,1181.279999999714,-0.005
3070,1181.2839999997138,-0.01
3071,1181.2879999997137,-0.01
3072,1181.2919999997137,-0.01
3073,1181.2959999997136,-0.01
3074,1181.2999999997135,-0.015
3075,1181.3039999997134,-0.015
3076,1181.3079999997133,-0.02
3077,1181.3119999997132,-0.025
3078,1181.315999999713,-0.02
3079,1181.319999999713,-0.02
3080,1181.323999999713,-0.025
3081,1181.3279999997128,-0.03
3082,1181.3319999997127,-0.03
3083,1181.3359999997126,-0.03
3084,1181.3399999997125,-0.035
3085,1181.3439999997124,-0.035
3086,1181.3479999997123,-0.035
3087,1181.3519999997122,-0.04
3088,1181.3559999997121,-0.03
3089,1181.359999999712,-0.03
3090,1181.363999999712,-0.035
3091,1181.3679999997119,-0.035
3092,1181.3719999997118,-0.04
3093,1181.3759999997117,-0.04
3094,1181.3799999997116,-0.035
3095,1181.3839999997115,-0.035
3096,1181.3879999997114,-0.045
3097,1181.3919999997113,-0.04
3098,1181.3959999997112,-0.045
3099,1181.399999999711,-0.045
3100,1181.403999999711,-0.04
3101,1181.407999999711,-0.045
3102,1181.4119999997108,-0.045
3103,1181.4159999997107,-0.055
3104,1181.4199999997106,-0.055
3105,1181.4239999997105,-0.055
3106,1181.4279999997104,-0.055
3107,1181.4319999997103,-0.055
3108,1181.4359999997102,-0.06
3109,1181.4399999997102,-0.055
3110,1181.44399999971,-0.05
3111,1181.44799999971,-0.05
3112,1181.4519999997099,-0.045
3113,1181.4559999997098,-0.05
3114,1181.4599999997097,-0.05
3115,1181.4639999997096,-0.055
3116,1181.4679999997095,-0.045
3117,1181.4719999997094,-0.05
3118,1181.4759999997093,-0.05
3119,1181.4799999997092,-0.055
3120,1181.483999999709,-0.05
3121,1181.487999999709,-0.05
3122,1181.491999999709,-0.05
3123,1181.4959999997088,-0.045
3124,1181.4999999997087,-0.05
3125,1181.5039999997086,-0.05
3126,1181.5079999997085,-0.05
3127,1181.5119999997085,-0.045
3128,1181.5159999997084,-0.05
3129,1181.5199999997083,-0.05
3130,1181.5239999997082,-0.05
3131,1181.527999999708,-0.05
3132,1181.531999999708,-0.05
3133,1181.5359999997079,-0.045
3134,1181.5399999997078,-0.05
3135,1181.5439999997077,-0.055
3136,1181.5479999997076,-0.045
3137,1181.5519999997075,-0.05
3138,1181.5559999997074,-0.04
3139,1181.5599999997073,-0.045
3140,1181.5639999997072,-0.045
3141,1181.5679999997071,-0.045
3142,1181.571999999707,-0.045
3143,1181.575999999707,-0.04
3144,1181.5799999997068,-0.045
3145,1181.5839999997067,-0.045
3146,1181.5879999997067,-0.035
3147,1181.5919999997066,-0.035
3148,1181.5959999997065,-0.035
3149,1181.5999999997064,-0.035
3150,1181.6039999997063,-0.035
3151,1181.6079999997062,-0.035
3152,1181.611999999706,-0.035
3153,1181.615999999706,-0.035
3154,1181.619999999706,-0.035
3155,1181.6239999997058,-0.03
3156,1181.6279999997057,-0.035
3157,1181.6319999997056,-0.025
3158,1181.6359999997055,-0.035
3159,1181.6399999997054,-0.03
3160,1181.6439999997053,-0.03
3161,1181.6479999997052,-0.025
3162,1181.6519999997051,-0.03
3163,1181.655999999705,-0.03
3164,1181.659999999705,-0.03
3165,1181.6639999997049,-0.03
3166,1181.6679999997048,-0.02
3167,1181.6719999997047,-0.025
3168,1181.6759999997046,-0.025
3169,1181.6799999997045,-0.025
3170,1181.6839999997044,-0.025
3171,1181.6879999997043,-0.02
3172,1181.6919999997042,-0.02
3173,1181.695999999704,-0.025
3174,1181.699999999704,-0.02
3175,1181.703999999704,-0.025
3176,1181.7079999997038,-0.015
3177,1181.7119999997037,-0.01
3178,1181.7159999997036,-0.025
3179,1181.7199999997035,-0.02
3180,1181.7239999997034,-0.025
3181,1181.7279999997033,-0.015
3182,1181.7319999997032,-0.015
3183,1181.7359999997032,-0.02
3184,1181.739999999703,-0.015
3185,1181.743999999703,-0.015
3186,1181.7479999997029,-0.01
3187,1181.7519999997028,-0.015
3188,1181.7559999997027,-0.015
3189,1181.7599999997026,-0.015
3190,1181.7639999997025,-0.02
3191,1181.7679999997024,-0.015
3192,1181.7719999997023,-0.01
3193,1181.7759999997022,-0.015
3194,1181.779999999702,-0.015
3195,1181.783999999702,-0.01
3196,1181.787999999702,-0.015
3197,1181.7919999997018,-0.005
3198,1181.7959999997017,-0.005
3199,1181.7999999997016,-0.01
3200,1181.8039999997015,-0.01
3201,1181.8079999997015,-0.005
3202,1181.8119999997014,-0.005
3203,1181.8159999997013,-0.005
3204,1181.8199999997012,-0.01
3205,1181.823999999701,-0.01
3206,1181.827999999701,-0.015
3207,1181.8319999997009,-0.005
3208,1181.8359999997008,-0.005
3209,1181.8399999997007,-0.01
3210,1181.8439999997006,-0.01
3211,1181.8479999997005,-0.005
3212,1181.8519999997004,-0.005
3213,1181.8559999997003,-0.005
3214,1181.8599999997002,-0.015
3215,1181.8639999997001,-0.01
3216,1181.8679999997,-0.005
3217,1181.8719999997,-0.01
3218,1181.8759999996998,-0.005
3219,1181.8799999996997,-0.01
3220,1181.8839999996997,-0.015
3221,1181.8879999996996,-0.01
3222,1181.8919999996995,-0.01
3223,1181.8959999996994,-0.005
3224,1181.8999999996993,-0.005
3225,1181.9039999996992,-0.005
3226,1181.907999999699,-0.01
3227,1181.911999999699,-0.015
3228,1181.915999999699,-0.005
3229,1181.9199999996988,-0.005
3230,1181.9239999996987,-0.01
3231,1181.9279999996986,-0.015
3232,1181.9319999996985,-0.01
3233,1181.9359999996984,-0.005
3234,1181.9399999996983,-0.015
3235,1181.9439999996982,-0.015
3236,1181.9479999996981,-0.01
3237,1181.951999999698,-0.01
3238,1181.955999999698,-0.015
3239,1181.9599999996979,-0.01
3240,1181.9639999996978,-0.01
3241,1181.9679999996977,-0.005
3242,1181.9719999996976,-0.015
3243,1181.9759999996975,-0.015
3244,1181.9799999996974,-0.01
3245,1181.9839999996973,-0.01
3246,1181.9879999996972,-0.005
3247,1181.991999999697,-0.01
3248,1181.995999999697,-0.005
3249,1181.999999999697,-0.01
