,733.0000000020437,-0.065
0,733.0040000020438,-0.06
1,733.0080000020438,-0.06
2,733.0120000020438,-0.055
3,733.0160000020438,-0.055
4,733.0200000020438,-0.055
5,733.0240000020439,-0.05
6,733.0280000020439,-0.05
7,733.0320000020439,-0.04
8,733.0360000020439,-0.045
9,733.0400000020439,-0.04
10,733.044000002044,-0.035
11,733.048000002044,-0.035
12,733.052000002044,-0.025
13,733.056000002044,-0.015
14,733.060000002044,-0.01
15,733.064000002044,0.0
16,733.0680000020441,0.005
17,733.0720000020441,0.01
18,733.0760000020441,0.025
19,733.0800000020441,0.03
20,733.0840000020441,0.03
21,733.0880000020442,0.035
22,733.0920000020442,0.03
23,733.0960000020442,0.035
24,733.1000000020442,0.025
25,733.1040000020442,0.025
26,733.1080000020443,0.03
27,733.1120000020443,0.03
28,733.1160000020443,0.025
29,733.1200000020443,0.015
30,733.1240000020443,0.0
31,733.1280000020444,0.0
32,733.1320000020444,-0.015
33,733.1360000020444,-0.02
34,733.1400000020444,-0.03
35,733.1440000020444,-0.035
36,733.1480000020445,-0.035
37,733.1520000020445,-0.035
38,733.1560000020445,-0.035
39,733.1600000020445,-0.045
40,733.1640000020445,-0.05
41,733.1680000020446,-0.05
42,733.1720000020446,-0.06
43,733.1760000020446,-0.06
44,733.1800000020446,-0.075
45,733.1840000020446,-0.075
46,733.1880000020446,-0.075
47,733.1920000020447,-0.08
48,733.1960000020447,-0.08
49,733.2000000020447,-0.085
50,733.2040000020447,-0.075
51,733.2080000020447,-0.07
52,733.2120000020448,-0.065
53,733.2160000020448,-0.065
54,733.2200000020448,-0.065
55,733.2240000020448,-0.065
56,733.2280000020448,-0.065
57,733.2320000020449,-0.065
58,733.2360000020449,-0.065
59,733.2400000020449,-0.065
60,733.2440000020449,-0.065
61,733.2480000020449,-0.065
62,733.252000002045,-0.07
63,733.256000002045,-0.07
64,733.260000002045,-0.075
65,733.264000002045,-0.08
66,733.268000002045,-0.08
67,733.272000002045,-0.075
68,733.2760000020451,-0.075
69,733.2800000020451,-0.08
70,733.2840000020451,-0.075
71,733.2880000020451,-0.075
72,733.2920000020451,-0.075
73,733.2960000020452,-0.075
74,733.3000000020452,-0.08
75,733.3040000020452,-0.085
76,733.3080000020452,-0.09
77,733.3120000020452,-0.1
78,733.3160000020453,-0.105
79,733.3200000020453,-0.115
80,733.3240000020453,-0.125
81,733.3280000020453,-0.125
82,733.3320000020453,-0.135
83,733.3360000020454,-0.14
84,733.3400000020454,-0.155
85,733.3440000020454,-0.16
86,733.3480000020454,-0.16
87,733.3520000020454,-0.155
88,733.3560000020454,-0.155
89,733.3600000020455,-0.15
90,733.3640000020455,-0.145
91,733.3680000020455,-0.13
92,733.3720000020455,-0.125
93,733.3760000020455,-0.12
94,733.3800000020456,-0.11
95,733.3840000020456,-0.105
96,733.3880000020456,-0.1
97,733.3920000020456,-0.1
98,733.3960000020456,-0.095
99,733.4000000020457,-0.09
100,733.4040000020457,-0.09
101,733.4080000020457,-0.08
102,733.4120000020457,-0.08
103,733.4160000020457,-0.07
104,733.4200000020458,-0.065
105,733.4240000020458,-0.06
106,733.4280000020458,-0.05
107,733.4320000020458,-0.05
108,733.4360000020458,-0.05
109,733.4400000020458,-0.05
110,733.4440000020459,-0.05
111,733.4480000020459,-0.045
112,733.4520000020459,-0.045
113,733.4560000020459,-0.045
114,733.460000002046,-0.04
115,733.464000002046,-0.045
116,733.468000002046,-0.04
117,733.472000002046,-0.04
118,733.476000002046,-0.045
119,733.480000002046,-0.045
120,733.4840000020461,-0.045
121,733.4880000020461,-0.045
122,733.4920000020461,-0.04
123,733.4960000020461,-0.045
124,733.5000000020461,-0.045
125,733.5040000020462,-0.04
126,733.5080000020462,-0.03
127,733.5120000020462,-0.025
128,733.5160000020462,-0.025
129,733.5200000020462,-0.015
130,733.5240000020463,-0.015
131,733.5280000020463,-0.015
132,733.5320000020463,-0.02
133,733.5360000020463,-0.02
134,733.5400000020463,-0.03
135,733.5440000020463,-0.035
136,733.5480000020464,-0.035
137,733.5520000020464,-0.035
138,733.5560000020464,-0.035
139,733.5600000020464,-0.02
140,733.5640000020464,-0.01
141,733.5680000020465,0.0
142,733.5720000020465,0.02
143,733.5760000020465,0.035
144,733.5800000020465,0.055
145,733.5840000020465,0.055
146,733.5880000020466,0.05
147,733.5920000020466,0.035
148,733.5960000020466,0.02
149,733.6000000020466,0.005
150,733.6040000020466,0.0
151,733.6080000020467,0.0
152,733.6120000020467,0.0
153,733.6160000020467,0.0
154,733.6200000020467,0.0
155,733.6240000020467,0.0
156,733.6280000020467,0.0
157,733.6320000020468,0.0
158,733.6360000020468,0.005
159,733.6400000020468,0.0
160,733.6440000020468,0.0
161,733.6480000020468,0.005
162,733.6520000020469,0.005
163,733.6560000020469,0.005
164,733.6600000020469,0.005
165,733.6640000020469,0.005
166,733.6680000020469,0.0
167,733.672000002047,0.0
168,733.676000002047,0.0
169,733.680000002047,-0.01
170,733.684000002047,-0.02
171,733.688000002047,-0.02
172,733.692000002047,-0.025
173,733.6960000020471,-0.035
174,733.7000000020471,-0.04
175,733.7040000020471,-0.045
176,733.7080000020471,-0.05
177,733.7120000020471,-0.05
178,733.7160000020472,-0.055
179,733.7200000020472,-0.05
180,733.7240000020472,-0.05
181,733.7280000020472,-0.04
182,733.7320000020472,-0.045
183,733.7360000020473,-0.04
184,733.7400000020473,-0.04
185,733.7440000020473,-0.04
186,733.7480000020473,-0.035
187,733.7520000020473,-0.04
188,733.7560000020474,-0.04
189,733.7600000020474,-0.045
190,733.7640000020474,-0.045
191,733.7680000020474,-0.04
192,733.7720000020474,-0.045
193,733.7760000020475,-0.045
194,733.7800000020475,-0.055
195,733.7840000020475,-0.055
196,733.7880000020475,-0.055
197,733.7920000020475,-0.05
198,733.7960000020475,-0.055
199,733.8000000020476,-0.06
200,733.8040000020476,-0.055
201,733.8080000020476,-0.05
202,733.8120000020476,-0.045
203,733.8160000020476,-0.045
204,733.8200000020477,-0.04
205,733.8240000020477,-0.04
206,733.8280000020477,-0.035
207,733.8320000020477,-0.03
208,733.8360000020477,-0.04
209,733.8400000020478,-0.045
210,733.8440000020478,-0.04
211,733.8480000020478,-0.05
212,733.8520000020478,-0.06
213,733.8560000020478,-0.07
214,733.8600000020479,-0.075
215,733.8640000020479,-0.085
216,733.8680000020479,-0.085
217,733.8720000020479,-0.09
218,733.8760000020479,-0.09
219,733.880000002048,-0.095
220,733.884000002048,-0.095
221,733.888000002048,-0.085
222,733.892000002048,-0.08
223,733.896000002048,-0.075
224,733.900000002048,-0.07
225,733.9040000020481,-0.075
226,733.9080000020481,-0.07
227,733.9120000020481,-0.07
228,733.9160000020481,-0.07
229,733.9200000020481,-0.065
230,733.9240000020482,-0.065
231,733.9280000020482,-0.05
232,733.9320000020482,-0.045
233,733.9360000020482,-0.05
234,733.9400000020482,-0.05
235,733.9440000020483,-0.045
236,733.9480000020483,0.05
237,733.9520000020483,-0.07
238,733.9560000020483,-0.085
239,733.9600000020483,-0.095
240,733.9640000020484,-0.1
241,733.9680000020484,-0.095
242,733.9720000020484,-0.07
243,733.9760000020484,-0.045
244,733.9800000020484,-0.045
245,733.9840000020484,-0.06
246,733.9880000020485,-0.06
247,733.9920000020485,-0.06
248,733.9960000020485,0.05
249,734.0000000020485,0.09
250,734.0040000020485,0.0
251,734.0080000020486,-0.015
252,734.0120000020486,-0.045
253,734.0160000020486,-0.075
254,734.0200000020486,-0.095
255,734.0240000020486,-0.095
256,734.0280000020487,-0.08
257,734.0320000020487,-0.075
258,734.0360000020487,-0.065
259,734.0400000020487,-0.05
260,734.0440000020487,-0.025
261,734.0480000020488,-0.005
262,734.0520000020488,0.005
263,734.0560000020488,0.015
264,734.0600000020488,0.025
265,734.0640000020488,0.04
266,734.0680000020488,0.04
267,734.0720000020489,0.03
268,734.0760000020489,0.005
269,734.0800000020489,-0.01
270,734.0840000020489,-0.025
271,734.088000002049,-0.035
272,734.092000002049,-0.04
273,734.096000002049,-0.04
274,734.100000002049,-0.03
275,734.104000002049,-0.025
276,734.108000002049,-0.02
277,734.1120000020491,-0.015
278,734.1160000020491,-0.02
279,734.1200000020491,-0.025
280,734.1240000020491,-0.025
281,734.1280000020491,-0.025
282,734.1320000020492,-0.03
283,734.1360000020492,-0.04
284,734.1400000020492,-0.045
285,734.1440000020492,-0.05
286,734.1480000020492,-0.055
287,734.1520000020492,-0.055
288,734.1560000020493,-0.055
289,734.1600000020493,-0.055
290,734.1640000020493,-0.05
291,734.1680000020493,-0.045
292,734.1720000020493,-0.045
293,734.1760000020494,-0.04
294,734.1800000020494,-0.04
295,734.1840000020494,-0.04
296,734.1880000020494,-0.035
297,734.1920000020494,-0.03
298,734.1960000020495,-0.03
299,734.2000000020495,-0.025
300,734.2040000020495,-0.03
301,734.2080000020495,-0.025
302,734.2120000020495,-0.025
303,734.2160000020496,-0.03
304,734.2200000020496,-0.035
305,734.2240000020496,-0.03
306,734.2280000020496,-0.03
307,734.2320000020496,-0.03
308,734.2360000020496,-0.035
309,734.2400000020497,-0.05
310,734.2440000020497,-0.055
311,734.2480000020497,-0.065
312,734.2520000020497,-0.065
313,734.2560000020497,-0.08
314,734.2600000020498,-0.085
315,734.2640000020498,-0.09
316,734.2680000020498,-0.1
317,734.2720000020498,-0.1
318,734.2760000020498,-0.105
319,734.2800000020499,-0.09
320,734.2840000020499,-0.095
321,734.2880000020499,-0.085
322,734.2920000020499,-0.08
323,734.2960000020499,-0.08
324,734.30000000205,-0.08
325,734.30400000205,-0.08
326,734.30800000205,-0.075
327,734.31200000205,-0.075
328,734.31600000205,-0.075
329,734.32000000205,-0.07
330,734.3240000020501,-0.07
331,734.3280000020501,-0.06
332,734.3320000020501,-0.055
333,734.3360000020501,-0.055
334,734.3400000020501,-0.05
335,734.3440000020502,-0.05
336,734.3480000020502,-0.05
337,734.3520000020502,-0.055
338,734.3560000020502,-0.06
339,734.3600000020502,-0.06
340,734.3640000020503,-0.055
341,734.3680000020503,-0.05
342,734.3720000020503,-0.05
343,734.3760000020503,-0.06
344,734.3800000020503,-0.055
345,734.3840000020504,-0.055
346,734.3880000020504,-0.05
347,734.3920000020504,-0.05
348,734.3960000020504,-0.05
349,734.4000000020504,-0.05
350,734.4040000020505,-0.045
351,734.4080000020505,-0.035
352,734.4120000020505,-0.03
353,734.4160000020505,-0.03
354,734.4200000020505,-0.025
355,734.4240000020505,-0.025
356,734.4280000020506,-0.015
357,734.4320000020506,-0.015
358,734.4360000020506,-0.015
359,734.4400000020506,-0.005
360,734.4440000020506,0.0
361,734.4480000020507,0.015
362,734.4520000020507,0.03
363,734.4560000020507,0.055
364,734.4600000020507,0.06
365,734.4640000020507,0.065
366,734.4680000020508,0.055
367,734.4720000020508,0.04
368,734.4760000020508,0.02
369,734.4800000020508,0.01
370,734.4840000020508,0.0
371,734.4880000020509,0.0
372,734.4920000020509,0.0
373,734.4960000020509,0.0
374,734.5000000020509,0.0
375,734.5040000020509,0.0
376,734.508000002051,0.0
377,734.512000002051,-0.005
378,734.516000002051,-0.005
379,734.520000002051,-0.015
380,734.524000002051,-0.01
381,734.528000002051,-0.015
382,734.5320000020511,-0.02
383,734.5360000020511,-0.025
384,734.5400000020511,-0.03
385,734.5440000020511,-0.03
386,734.5480000020511,-0.03
387,734.5520000020512,-0.03
388,734.5560000020512,-0.04
389,734.5600000020512,-0.04
390,734.5640000020512,-0.045
391,734.5680000020512,-0.035
392,734.5720000020513,-0.035
393,734.5760000020513,-0.035
394,734.5800000020513,-0.035
395,734.5840000020513,-0.03
396,734.5880000020513,-0.035
397,734.5920000020513,-0.035
398,734.5960000020514,-0.045
399,734.6000000020514,-0.04
400,734.6040000020514,-0.04
401,734.6080000020514,-0.04
402,734.6120000020514,-0.035
403,734.6160000020515,-0.035
404,734.6200000020515,-0.035
405,734.6240000020515,-0.035
406,734.6280000020515,-0.035
407,734.6320000020515,-0.035
408,734.6360000020516,-0.045
409,734.6400000020516,-0.045
410,734.6440000020516,-0.05
411,734.6480000020516,-0.05
412,734.6520000020516,-0.05
413,734.6560000020517,-0.06
414,734.6600000020517,-0.07
415,734.6640000020517,-0.065
416,734.6680000020517,-0.065
417,734.6720000020517,-0.07
418,734.6760000020518,-0.075
419,734.6800000020518,-0.07
420,734.6840000020518,-0.065
421,734.6880000020518,-0.065
422,734.6920000020518,-0.055
423,734.6960000020518,-0.055
424,734.7000000020519,-0.06
425,734.7040000020519,-0.06
426,734.7080000020519,-0.07
427,734.7120000020519,-0.06
428,734.7160000020519,-0.065
429,734.720000002052,-0.065
430,734.724000002052,-0.06
431,734.728000002052,-0.065
432,734.732000002052,-0.06
433,734.736000002052,-0.065
434,734.740000002052,-0.07
435,734.7440000020521,-0.065
436,734.7480000020521,-0.065
437,734.7520000020521,-0.065
438,734.7560000020521,-0.06
439,734.7600000020522,-0.06
440,734.7640000020522,-0.055
441,734.7680000020522,-0.05
442,734.7720000020522,-0.06
443,734.7760000020522,-0.06
444,734.7800000020522,-0.055
445,734.7840000020523,-0.055
446,734.7880000020523,-0.05
447,734.7920000020523,-0.05
448,734.7960000020523,-0.045
449,734.8000000020523,-0.04
450,734.8040000020524,-0.03
451,734.8080000020524,-0.025
452,734.8120000020524,-0.03
453,734.8160000020524,-0.025
454,734.8200000020524,-0.025
455,734.8240000020525,-0.03
456,734.8280000020525,-0.03
457,734.8320000020525,-0.03
458,734.8360000020525,-0.03
459,734.8400000020525,-0.025
460,734.8440000020526,-0.015
461,734.8480000020526,-0.005
462,734.8520000020526,0.0
463,734.8560000020526,0.02
464,734.8600000020526,0.035
465,734.8640000020526,0.055
466,734.8680000020527,0.07
467,734.8720000020527,0.075
468,734.8760000020527,0.08
469,734.8800000020527,0.08
470,734.8840000020527,0.08
471,734.8880000020528,0.075
472,734.8920000020528,0.06
473,734.8960000020528,0.05
474,734.9000000020528,0.045
475,734.9040000020528,0.035
476,734.9080000020529,0.035
477,734.9120000020529,0.04
478,734.9160000020529,0.045
479,734.9200000020529,0.055
480,734.9240000020529,0.065
481,734.928000002053,0.075
482,734.932000002053,0.08
483,734.936000002053,0.075
484,734.940000002053,0.075
485,734.944000002053,0.07
486,734.948000002053,0.07
487,734.9520000020531,0.065
488,734.9560000020531,0.06
489,734.9600000020531,0.055
490,734.9640000020531,0.055
491,734.9680000020531,0.05
492,734.9720000020532,0.05
493,734.9760000020532,0.045
494,734.9800000020532,0.035
495,734.9840000020532,0.025
496,734.9880000020532,0.005
497,734.9920000020533,0.0
498,734.9960000020533,-0.015
499,735.0000000020533,-0.02
500,735.0040000020533,-0.035
501,735.0080000020533,-0.045
502,735.0120000020534,-0.055
503,735.0160000020534,-0.065
504,735.0200000020534,-0.075
505,735.0240000020534,-0.075
506,735.0280000020534,-0.08
507,735.0320000020535,-0.085
508,735.0360000020535,-0.095
509,735.0400000020535,-0.1
510,735.0440000020535,-0.095
511,735.0480000020535,-0.095
512,735.0520000020535,-0.095
513,735.0560000020536,-0.09
514,735.0600000020536,-0.09
515,735.0640000020536,-0.09
516,735.0680000020536,-0.09
517,735.0720000020536,-0.09
518,735.0760000020537,-0.1
519,735.0800000020537,-0.1
520,735.0840000020537,-0.1
521,735.0880000020537,-0.095
522,735.0920000020537,-0.1
523,735.0960000020538,-0.095
524,735.1000000020538,-0.1
525,735.1040000020538,-0.095
526,735.1080000020538,-0.09
527,735.1120000020538,-0.095
528,735.1160000020539,-0.1
529,735.1200000020539,-0.105
530,735.1240000020539,-0.105
531,735.1280000020539,-0.11
532,735.1320000020539,-0.11
533,735.136000002054,-0.11
534,735.140000002054,-0.105
535,735.144000002054,-0.095
536,735.148000002054,-0.08
537,735.152000002054,-0.075
538,735.156000002054,-0.065
539,735.1600000020541,-0.055
540,735.1640000020541,-0.045
541,735.1680000020541,-0.04
542,735.1720000020541,-0.035
543,735.1760000020541,-0.04
544,735.1800000020542,-0.04
545,735.1840000020542,-0.04
546,735.1880000020542,-0.045
547,735.1920000020542,-0.035
548,735.1960000020542,-0.045
549,735.2000000020543,-0.035
550,735.2040000020543,-0.03
551,735.2080000020543,-0.025
552,735.2120000020543,-0.025
553,735.2160000020543,-0.025
554,735.2200000020543,-0.02
555,735.2240000020544,-0.03
556,735.2280000020544,-0.02
557,735.2320000020544,-0.02
558,735.2360000020544,-0.02
559,735.2400000020544,-0.015
560,735.2440000020545,-0.015
561,735.2480000020545,-0.01
562,735.2520000020545,-0.005
563,735.2560000020545,-0.01
564,735.2600000020545,-0.015
565,735.2640000020546,-0.01
566,735.2680000020546,-0.015
567,735.2720000020546,-0.02
568,735.2760000020546,-0.03
569,735.2800000020546,-0.04
570,735.2840000020547,-0.035
571,735.2880000020547,-0.045
572,735.2920000020547,-0.045
573,735.2960000020547,-0.045
574,735.3000000020547,-0.05
575,735.3040000020547,-0.04
576,735.3080000020548,-0.04
577,735.3120000020548,-0.04
578,735.3160000020548,-0.045
579,735.3200000020548,-0.045
580,735.3240000020548,-0.045
581,735.3280000020549,-0.05
582,735.3320000020549,-0.055
583,735.3360000020549,-0.065
584,735.3400000020549,-0.065
585,735.3440000020549,-0.075
586,735.348000002055,-0.08
587,735.352000002055,-0.09
588,735.356000002055,-0.095
589,735.360000002055,-0.1
590,735.364000002055,-0.1
591,735.368000002055,-0.1
592,735.3720000020551,-0.1
593,735.3760000020551,-0.1
594,735.3800000020551,-0.095
595,735.3840000020551,-0.095
596,735.3880000020552,-0.085
597,735.3920000020552,-0.08
598,735.3960000020552,-0.09
599,735.4000000020552,-0.085
600,735.4040000020552,-0.085
601,735.4080000020552,-0.09
602,735.4120000020553,-0.085
603,735.4160000020553,-0.095
604,735.4200000020553,-0.095
605,735.4240000020553,-0.09
606,735.4280000020553,-0.095
607,735.4320000020554,-0.09
608,735.4360000020554,-0.09
609,735.4400000020554,-0.08
610,735.4440000020554,-0.075
611,735.4480000020554,-0.07
612,735.4520000020555,-0.065
613,735.4560000020555,-0.06
614,735.4600000020555,-0.06
615,735.4640000020555,-0.065
616,735.4680000020555,-0.05
617,735.4720000020556,-0.055
618,735.4760000020556,-0.055
619,735.4800000020556,-0.06
620,735.4840000020556,-0.06
621,735.4880000020556,-0.06
622,735.4920000020556,-0.065
623,735.4960000020557,-0.07
624,735.5000000020557,-0.06
625,735.5040000020557,-0.055
626,735.5080000020557,-0.05
627,735.5120000020557,-0.045
628,735.5160000020558,-0.045
629,735.5200000020558,-0.05
630,735.5240000020558,-0.05
631,735.5280000020558,-0.05
632,735.5320000020558,-0.05
633,735.5360000020559,-0.05
634,735.5400000020559,-0.045
635,735.5440000020559,-0.045
636,735.5480000020559,-0.04
637,735.5520000020559,-0.04
638,735.556000002056,-0.04
639,735.560000002056,-0.035
640,735.564000002056,-0.03
641,735.568000002056,-0.03
642,735.572000002056,-0.03
643,735.576000002056,-0.035
644,735.5800000020561,-0.035
645,735.5840000020561,-0.035
646,735.5880000020561,-0.035
647,735.5920000020561,-0.035
648,735.5960000020561,-0.035
649,735.6000000020562,-0.04
650,735.6040000020562,-0.03
651,735.6080000020562,-0.03
652,735.6120000020562,-0.03
653,735.6160000020562,-0.03
654,735.6200000020563,-0.025
655,735.6240000020563,-0.02
656,735.6280000020563,-0.01
657,735.6320000020563,-0.01
658,735.6360000020563,-0.01
659,735.6400000020564,-0.005
660,735.6440000020564,-0.005
661,735.6480000020564,0.0
662,735.6520000020564,0.0
663,735.6560000020564,-0.01
664,735.6600000020564,-0.01
665,735.6640000020565,-0.01
666,735.6680000020565,-0.015
667,735.6720000020565,-0.01
668,735.6760000020565,-0.01
669,735.6800000020565,-0.015
670,735.6840000020566,-0.02
671,735.6880000020566,-0.02
672,735.6920000020566,-0.025
673,735.6960000020566,-0.025
674,735.7000000020566,-0.04
675,735.7040000020567,-0.045
676,735.7080000020567,-0.055
677,735.7120000020567,-0.065
678,735.7160000020567,-0.065
679,735.7200000020567,-0.08
680,735.7240000020568,-0.08
681,735.7280000020568,-0.08
682,735.7320000020568,-0.075
683,735.7360000020568,-0.075
684,735.7400000020568,-0.07
685,735.7440000020569,-0.06
686,735.7480000020569,-0.055
687,735.7520000020569,-0.05
688,735.7560000020569,-0.05
689,735.7600000020569,-0.05
690,735.764000002057,-0.05
691,735.768000002057,-0.045
692,735.772000002057,-0.05
693,735.776000002057,-0.05
694,735.780000002057,-0.045
695,735.784000002057,-0.03
696,735.7880000020571,-0.02
697,735.7920000020571,-0.02
698,735.7960000020571,-0.015
699,735.8000000020571,-0.01
700,735.8040000020571,0.0
701,735.8080000020572,-0.005
702,735.8120000020572,0.0
703,735.8160000020572,0.0
704,735.8200000020572,0.0
705,735.8240000020572,0.0
706,735.8280000020573,0.01
707,735.8320000020573,0.01
708,735.8360000020573,0.02
709,735.8400000020573,0.035
710,735.8440000020573,0.045
711,735.8480000020573,0.055
712,735.8520000020574,0.06
713,735.8560000020574,0.055
714,735.8600000020574,0.03
715,735.8640000020574,0.005
716,735.8680000020574,-0.01
717,735.8720000020575,-0.025
718,735.8760000020575,-0.035
719,735.8800000020575,-0.035
720,735.8840000020575,-0.025
721,735.8880000020575,-0.015
722,735.8920000020576,-0.01
723,735.8960000020576,0.0
724,735.9000000020576,0.005
725,735.9040000020576,0.01
726,735.9080000020576,0.01
727,735.9120000020577,0.005
728,735.9160000020577,0.0
729,735.9200000020577,0.0
730,735.9240000020577,0.0
731,735.9280000020577,-0.005
732,735.9320000020577,-0.01
733,735.9360000020578,-0.015
734,735.9400000020578,-0.015
735,735.9440000020578,-0.01
736,735.9480000020578,-0.015
737,735.9520000020578,-0.02
738,735.9560000020579,-0.02
739,735.9600000020579,-0.02
740,735.9640000020579,-0.02
741,735.9680000020579,-0.02
742,735.9720000020579,-0.025
743,735.976000002058,-0.03
744,735.980000002058,-0.035
745,735.984000002058,-0.04
746,735.988000002058,-0.04
747,735.992000002058,-0.045
748,735.996000002058,-0.05
749,736.0000000020581,-0.06
750,736.0040000020581,-0.055
751,736.0080000020581,-0.05
752,736.0120000020581,-0.055
753,736.0160000020581,-0.055
754,736.0200000020582,-0.055
755,736.0240000020582,-0.06
756,736.0280000020582,-0.05
757,736.0320000020582,-0.05
758,736.0360000020582,-0.05
759,736.0400000020583,-0.05
760,736.0440000020583,-0.05
761,736.0480000020583,-0.06
762,736.0520000020583,-0.055
763,736.0560000020583,-0.065
764,736.0600000020584,-0.065
765,736.0640000020584,-0.07
766,736.0680000020584,-0.07
767,736.0720000020584,-0.075
768,736.0760000020584,-0.08
769,736.0800000020585,-0.085
770,736.0840000020585,-0.09
771,736.0880000020585,-0.09
772,736.0920000020585,-0.095
773,736.0960000020585,-0.105
774,736.1000000020586,-0.1
775,736.1040000020586,-0.105
776,736.1080000020586,-0.1
777,736.1120000020586,-0.095
778,736.1160000020586,-0.1
779,736.1200000020586,-0.1
780,736.1240000020587,-0.095
781,736.1280000020587,-0.095
782,736.1320000020587,-0.09
783,736.1360000020587,-0.095
784,736.1400000020587,-0.095
785,736.1440000020588,-0.09
786,736.1480000020588,-0.09
787,736.1520000020588,-0.09
788,736.1560000020588,-0.09
789,736.1600000020588,-0.085
790,736.1640000020589,-0.085
791,736.1680000020589,-0.085
792,736.1720000020589,-0.08
793,736.1760000020589,-0.07
794,736.1800000020589,-0.055
795,736.184000002059,-0.04
796,736.188000002059,-0.015
797,736.192000002059,0.0
798,736.196000002059,0.01
799,736.200000002059,0.025
800,736.204000002059,0.035
801,736.2080000020591,0.045
802,736.2120000020591,0.045
803,736.2160000020591,0.045
804,736.2200000020591,0.035
805,736.2240000020591,0.035
806,736.2280000020592,0.03
807,736.2320000020592,0.025
808,736.2360000020592,0.02
809,736.2400000020592,0.01
810,736.2440000020592,0.01
811,736.2480000020593,0.005
812,736.2520000020593,0.0
813,736.2560000020593,-0.005
814,736.2600000020593,-0.02
815,736.2640000020593,-0.025
816,736.2680000020594,-0.035
817,736.2720000020594,-0.045
818,736.2760000020594,-0.05
819,736.2800000020594,-0.07
820,736.2840000020594,-0.075
821,736.2880000020594,-0.08
822,736.2920000020595,-0.08
823,736.2960000020595,-0.085
824,736.3000000020595,-0.085
825,736.3040000020595,-0.08
826,736.3080000020595,-0.085
827,736.3120000020596,-0.085
828,736.3160000020596,-0.09
829,736.3200000020596,-0.095
830,736.3240000020596,-0.09
831,736.3280000020596,-0.09
832,736.3320000020597,-0.09
833,736.3360000020597,-0.085
834,736.3400000020597,-0.08
835,736.3440000020597,-0.07
836,736.3480000020597,-0.055
837,736.3520000020598,-0.05
838,736.3560000020598,-0.04
839,736.3600000020598,-0.04
840,736.3640000020598,-0.03
841,736.3680000020598,-0.03
842,736.3720000020598,-0.03
843,736.3760000020599,-0.03
844,736.3800000020599,-0.03
845,736.3840000020599,-0.025
846,736.3880000020599,-0.025
847,736.39200000206,-0.025
848,736.39600000206,-0.03
849,736.40000000206,-0.025
850,736.40400000206,-0.025
851,736.40800000206,-0.03
852,736.41200000206,-0.035
853,736.4160000020601,-0.025
854,736.4200000020601,-0.025
855,736.4240000020601,-0.02
856,736.4280000020601,-0.025
857,736.4320000020601,-0.035
858,736.4360000020602,-0.045
859,736.4400000020602,-0.055
860,736.4440000020602,-0.06
861,736.4480000020602,-0.07
862,736.4520000020602,-0.075
863,736.4560000020603,-0.085
864,736.4600000020603,-0.09
865,736.4640000020603,-0.09
866,736.4680000020603,-0.09
867,736.4720000020603,-0.09
868,736.4760000020603,-0.09
869,736.4800000020604,-0.085
870,736.4840000020604,-0.08
871,736.4880000020604,-0.075
872,736.4920000020604,-0.07
873,736.4960000020604,-0.07
874,736.5000000020605,-0.075
875,736.5040000020605,-0.08
876,736.5080000020605,-0.075
877,736.5120000020605,-0.075
878,736.5160000020605,-0.075
879,736.5200000020606,-0.065
880,736.5240000020606,-0.07
881,736.5280000020606,-0.065
882,736.5320000020606,-0.065
883,736.5360000020606,-0.07
884,736.5400000020607,-0.065
885,736.5440000020607,-0.065
886,736.5480000020607,-0.06
887,736.5520000020607,-0.055
888,736.5560000020607,-0.05
889,736.5600000020607,-0.045
890,736.5640000020608,-0.04
891,736.5680000020608,-0.035
892,736.5720000020608,-0.03
893,736.5760000020608,-0.035
894,736.5800000020608,-0.035
895,736.5840000020609,-0.03
896,736.5880000020609,-0.035
897,736.5920000020609,-0.04
898,736.5960000020609,-0.04
899,736.6000000020609,-0.05
900,736.604000002061,-0.045
901,736.608000002061,-0.04
902,736.612000002061,-0.045
903,736.616000002061,-0.04
904,736.620000002061,-0.025
905,736.624000002061,-0.015
906,736.6280000020611,0.0
907,736.6320000020611,0.005
908,736.6360000020611,0.015
909,736.6400000020611,0.03
910,736.6440000020611,0.035
911,736.6480000020612,0.05
912,736.6520000020612,0.055
913,736.6560000020612,0.07
914,736.6600000020612,0.075
915,736.6640000020612,0.08
916,736.6680000020613,0.07
917,736.6720000020613,0.055
918,736.6760000020613,0.03
919,736.6800000020613,0.02
920,736.6840000020613,0.0
921,736.6880000020614,0.005
922,736.6920000020614,0.005
923,736.6960000020614,0.015
924,736.7000000020614,0.02
925,736.7040000020614,0.025
926,736.7080000020615,0.025
927,736.7120000020615,0.02
928,736.7160000020615,0.015
929,736.7200000020615,0.005
930,736.7240000020615,0.0
931,736.7280000020615,0.0
932,736.7320000020616,-0.015
933,736.7360000020616,-0.02
934,736.7400000020616,-0.025
935,736.7440000020616,-0.035
936,736.7480000020616,-0.04
937,736.7520000020617,-0.035
938,736.7560000020617,-0.045
939,736.7600000020617,-0.05
940,736.7640000020617,-0.055
941,736.7680000020617,-0.055
942,736.7720000020618,-0.06
943,736.7760000020618,-0.07
944,736.7800000020618,-0.075
945,736.7840000020618,-0.08
946,736.7880000020618,-0.075
947,736.7920000020619,-0.075
948,736.7960000020619,-0.08
949,736.8000000020619,-0.075
950,736.8040000020619,-0.07
951,736.8080000020619,-0.07
952,736.812000002062,-0.065
953,736.816000002062,-0.065
954,736.820000002062,-0.065
955,736.824000002062,-0.065
956,736.828000002062,-0.06
957,736.832000002062,-0.05
958,736.8360000020621,-0.05
959,736.8400000020621,-0.04
960,736.8440000020621,-0.035
961,736.8480000020621,-0.03
962,736.8520000020621,-0.025
963,736.8560000020622,-0.03
964,736.8600000020622,-0.03
965,736.8640000020622,-0.035
966,736.8680000020622,-0.04
967,736.8720000020622,-0.04
968,736.8760000020623,-0.045
969,736.8800000020623,-0.05
970,736.8840000020623,-0.05
971,736.8880000020623,-0.05
972,736.8920000020623,-0.055
973,736.8960000020624,-0.06
974,736.9000000020624,-0.065
975,736.9040000020624,-0.065
976,736.9080000020624,-0.065
977,736.9120000020624,-0.07
978,736.9160000020624,-0.075
979,736.9200000020625,-0.075
980,736.9240000020625,-0.075
981,736.9280000020625,-0.075
982,736.9320000020625,-0.07
983,736.9360000020625,-0.075
984,736.9400000020626,-0.075
985,736.9440000020626,-0.075
986,736.9480000020626,-0.07
987,736.9520000020626,-0.075
988,736.9560000020626,-0.07
989,736.9600000020627,-0.07
990,736.9640000020627,-0.06
991,736.9680000020627,-0.055
992,736.9720000020627,-0.055
993,736.9760000020627,-0.045
994,736.9800000020628,-0.045
995,736.9840000020628,-0.035
996,736.9880000020628,-0.03
997,736.9920000020628,-0.035
998,736.9960000020628,-0.03
999,737.0000000020628,-0.03
1000,737.0040000020629,-0.035
1001,737.0080000020629,-0.035
1002,737.0120000020629,-0.04
1003,737.0160000020629,-0.035
1004,737.020000002063,-0.035
1005,737.024000002063,-0.025
1006,737.028000002063,-0.03
1007,737.032000002063,-0.025
1008,737.036000002063,-0.03
1009,737.040000002063,-0.04
1010,737.0440000020631,-0.045
1011,737.0480000020631,-0.045
1012,737.0520000020631,-0.055
1013,737.0560000020631,-0.06
1014,737.0600000020631,-0.065
1015,737.0640000020632,-0.065
1016,737.0680000020632,-0.075
1017,737.0720000020632,-0.08
1018,737.0760000020632,-0.085
1019,737.0800000020632,-0.085
1020,737.0840000020632,-0.075
1021,737.0880000020633,-0.075
1022,737.0920000020633,-0.065
1023,737.0960000020633,-0.055
1024,737.1000000020633,-0.035
1025,737.1040000020633,-0.03
1026,737.1080000020634,-0.015
1027,737.1120000020634,-0.005
1028,737.1160000020634,0.0
1029,737.1200000020634,0.0
1030,737.1240000020634,0.0
1031,737.1280000020635,-0.005
1032,737.1320000020635,-0.01
1033,737.1360000020635,-0.02
1034,737.1400000020635,-0.03
1035,737.1440000020635,-0.02
1036,737.1480000020636,-0.015
1037,737.1520000020636,-0.025
1038,737.1560000020636,-0.015
1039,737.1600000020636,-0.015
1040,737.1640000020636,-0.015
1041,737.1680000020636,-0.02
1042,737.1720000020637,-0.02
1043,737.1760000020637,-0.025
1044,737.1800000020637,-0.025
1045,737.1840000020637,-0.03
1046,737.1880000020637,-0.03
1047,737.1920000020638,-0.03
1048,737.1960000020638,-0.04
1049,737.2000000020638,-0.05
1050,737.2040000020638,-0.035
1051,737.2080000020638,-0.035
1052,737.2120000020639,-0.035
1053,737.2160000020639,-0.035
1054,737.2200000020639,-0.03
1055,737.2240000020639,-0.025
1056,737.2280000020639,-0.03
1057,737.232000002064,-0.03
1058,737.236000002064,-0.03
1059,737.240000002064,-0.03
1060,737.244000002064,-0.03
1061,737.248000002064,-0.03
1062,737.252000002064,-0.03
1063,737.2560000020641,-0.03
1064,737.2600000020641,-0.035
1065,737.2640000020641,-0.035
1066,737.2680000020641,-0.035
1067,737.2720000020641,-0.04
1068,737.2760000020642,-0.04
1069,737.2800000020642,-0.035
1070,737.2840000020642,-0.03
1071,737.2880000020642,-0.025
1072,737.2920000020642,-0.025
1073,737.2960000020643,-0.035
1074,737.3000000020643,-0.03
1075,737.3040000020643,-0.04
1076,737.3080000020643,-0.055
1077,737.3120000020643,-0.06
1078,737.3160000020644,-0.07
1079,737.3200000020644,-0.075
1080,737.3240000020644,-0.07
1081,737.3280000020644,-0.075
1082,737.3320000020644,-0.075
1083,737.3360000020645,-0.075
1084,737.3400000020645,-0.08
1085,737.3440000020645,-0.075
1086,737.3480000020645,-0.075
1087,737.3520000020645,-0.075
1088,737.3560000020645,-0.075
1089,737.3600000020646,-0.07
1090,737.3640000020646,-0.065
1091,737.3680000020646,-0.065
1092,737.3720000020646,-0.065
1093,737.3760000020646,-0.06
1094,737.3800000020647,-0.055
1095,737.3840000020647,-0.055
1096,737.3880000020647,-0.05
1097,737.3920000020647,-0.045
1098,737.3960000020647,-0.045
1099,737.4000000020648,-0.035
1100,737.4040000020648,-0.035
1101,737.4080000020648,-0.035
1102,737.4120000020648,-0.035
1103,737.4160000020648,-0.04
1104,737.4200000020649,-0.04
1105,737.4240000020649,-0.035
1106,737.4280000020649,-0.04
1107,737.4320000020649,-0.03
1108,737.4360000020649,-0.045
1109,737.440000002065,-0.045
1110,737.444000002065,-0.04
1111,737.448000002065,-0.04
1112,737.452000002065,-0.045
1113,737.456000002065,-0.045
1114,737.460000002065,-0.05
1115,737.4640000020651,-0.05
1116,737.4680000020651,-0.05
1117,737.4720000020651,-0.05
1118,737.4760000020651,-0.06
1119,737.4800000020651,-0.065
1120,737.4840000020652,-0.065
1121,737.4880000020652,-0.075
1122,737.4920000020652,-0.07
1123,737.4960000020652,-0.075
1124,737.5000000020652,-0.075
1125,737.5040000020653,-0.065
1126,737.5080000020653,-0.055
1127,737.5120000020653,-0.055
1128,737.5160000020653,-0.04
1129,737.5200000020653,-0.03
1130,737.5240000020653,-0.015
1131,737.5280000020654,-0.005
1132,737.5320000020654,-0.005
1133,737.5360000020654,0.0
1134,737.5400000020654,0.0
1135,737.5440000020654,0.005
1136,737.5480000020655,0.005
1137,737.5520000020655,0.01
1138,737.5560000020655,0.005
1139,737.5600000020655,0.005
1140,737.5640000020655,0.01
1141,737.5680000020656,0.015
1142,737.5720000020656,0.015
1143,737.5760000020656,0.015
1144,737.5800000020656,0.01
1145,737.5840000020656,0.005
1146,737.5880000020657,0.0
1147,737.5920000020657,-0.01
1148,737.5960000020657,-0.02
1149,737.6000000020657,-0.025
1150,737.6040000020657,-0.03
1151,737.6080000020658,-0.035
1152,737.6120000020658,-0.04
1153,737.6160000020658,-0.05
1154,737.6200000020658,-0.045
1155,737.6240000020658,-0.04
1156,737.6280000020658,-0.03
1157,737.6320000020659,-0.025
1158,737.6360000020659,-0.015
1159,737.6400000020659,-0.015
1160,737.6440000020659,-0.01
1161,737.6480000020659,-0.01
1162,737.652000002066,-0.015
1163,737.656000002066,-0.01
1164,737.660000002066,-0.015
1165,737.664000002066,-0.015
1166,737.668000002066,-0.015
1167,737.672000002066,-0.02
1168,737.6760000020661,-0.02
1169,737.6800000020661,-0.025
1170,737.6840000020661,-0.02
1171,737.6880000020661,-0.015
1172,737.6920000020662,-0.025
1173,737.6960000020662,-0.02
1174,737.7000000020662,-0.02
1175,737.7040000020662,-0.02
1176,737.7080000020662,-0.015
1177,737.7120000020662,-0.025
1178,737.7160000020663,-0.03
1179,737.7200000020663,-0.025
1180,737.7240000020663,-0.03
1181,737.7280000020663,-0.025
1182,737.7320000020663,-0.02
1183,737.7360000020664,-0.005
1184,737.7400000020664,0.01
1185,737.7440000020664,0.02
1186,737.7480000020664,0.04
1187,737.7520000020664,0.035
1188,737.7560000020665,0.03
1189,737.7600000020665,0.02
1190,737.7640000020665,-0.005
1191,737.7680000020665,-0.03
1192,737.7720000020665,-0.06
1193,737.7760000020666,-0.07
1194,737.7800000020666,-0.08
1195,737.7840000020666,-0.085
1196,737.7880000020666,-0.08
1197,737.7920000020666,-0.075
1198,737.7960000020666,-0.07
1199,737.8000000020667,-0.06
1200,737.8040000020667,-0.055
1201,737.8080000020667,-0.045
1202,737.8120000020667,-0.035
1203,737.8160000020667,-0.035
1204,737.8200000020668,-0.03
1205,737.8240000020668,-0.03
1206,737.8280000020668,-0.01
1207,737.8320000020668,-0.015
1208,737.8360000020668,-0.01
1209,737.8400000020669,-0.01
1210,737.8440000020669,0.0
1211,737.8480000020669,-0.005
1212,737.8520000020669,0.0
1213,737.8560000020669,-0.005
1214,737.860000002067,-0.01
1215,737.864000002067,-0.005
1216,737.868000002067,-0.01
1217,737.872000002067,-0.005
1218,737.876000002067,-0.02
1219,737.880000002067,-0.02
1220,737.8840000020671,-0.02
1221,737.8880000020671,-0.035
1222,737.8920000020671,-0.035
1223,737.8960000020671,-0.05
1224,737.9000000020671,-0.045
1225,737.9040000020672,-0.045
1226,737.9080000020672,-0.045
1227,737.9120000020672,-0.045
1228,737.9160000020672,-0.045
1229,737.9200000020672,-0.05
1230,737.9240000020673,-0.055
1231,737.9280000020673,-0.05
1232,737.9320000020673,-0.045
1233,737.9360000020673,-0.05
1234,737.9400000020673,-0.05
1235,737.9440000020674,-0.05
1236,737.9480000020674,-0.055
1237,737.9520000020674,-0.05
1238,737.9560000020674,-0.055
1239,737.9600000020674,-0.045
1240,737.9640000020675,-0.05
1241,737.9680000020675,-0.04
1242,737.9720000020675,-0.03
1243,737.9760000020675,-0.03
1244,737.9800000020675,-0.025
1245,737.9840000020675,-0.025
1246,737.9880000020676,-0.025
1247,737.9920000020676,-0.03
1248,737.9960000020676,-0.045
1249,738.0000000020676,-0.05
1250,738.0040000020676,-0.055
1251,738.0080000020677,-0.06
1252,738.0120000020677,-0.07
1253,738.0160000020677,-0.07
1254,738.0200000020677,-0.08
1255,738.0240000020677,-0.085
1256,738.0280000020678,-0.095
1257,738.0320000020678,-0.095
1258,738.0360000020678,-0.1
1259,738.0400000020678,-0.11
1260,738.0440000020678,-0.105
1261,738.0480000020679,-0.11
1262,738.0520000020679,-0.11
1263,738.0560000020679,-0.115
1264,738.0600000020679,-0.12
1265,738.0640000020679,-0.12
1266,738.068000002068,-0.125
1267,738.072000002068,-0.125
1268,738.076000002068,-0.14
1269,738.080000002068,-0.14
1270,738.084000002068,-0.14
1271,738.088000002068,-0.14
1272,738.0920000020681,-0.13
1273,738.0960000020681,-0.12
1274,738.1000000020681,-0.11
1275,738.1040000020681,-0.105
1276,738.1080000020681,-0.095
1277,738.1120000020682,-0.1
1278,738.1160000020682,-0.1
1279,738.1200000020682,-0.105
1280,738.1240000020682,-0.11
1281,738.1280000020682,-0.115
1282,738.1320000020683,-0.12
1283,738.1360000020683,-0.115
1284,738.1400000020683,-0.115
1285,738.1440000020683,-0.105
1286,738.1480000020683,-0.095
1287,738.1520000020683,-0.09
1288,738.1560000020684,-0.08
1289,738.1600000020684,-0.08
1290,738.1640000020684,-0.07
1291,738.1680000020684,-0.065
1292,738.1720000020684,-0.07
1293,738.1760000020685,-0.065
1294,738.1800000020685,-0.06
1295,738.1840000020685,-0.055
1296,738.1880000020685,-0.05
1297,738.1920000020685,-0.05
1298,738.1960000020686,-0.04
1299,738.2000000020686,-0.03
1300,738.2040000020686,-0.02
1301,738.2080000020686,-0.01
1302,738.2120000020686,-0.005
1303,738.2160000020687,0.005
1304,738.2200000020687,0.015
1305,738.2240000020687,0.03
1306,738.2280000020687,0.035
1307,738.2320000020687,0.03
1308,738.2360000020687,0.015
1309,738.2400000020688,0.005
1310,738.2440000020688,-0.005
1311,738.2480000020688,-0.02
1312,738.2520000020688,-0.025
1313,738.2560000020688,-0.035
1314,738.2600000020689,-0.035
1315,738.2640000020689,-0.03
1316,738.2680000020689,-0.015
1317,738.2720000020689,-0.01
1318,738.2760000020689,-0.005
1319,738.280000002069,0.0
1320,738.284000002069,0.005
1321,738.288000002069,0.005
1322,738.292000002069,0.005
1323,738.296000002069,0.01
1324,738.300000002069,0.015
1325,738.3040000020691,0.02
1326,738.3080000020691,0.03
1327,738.3120000020691,0.035
1328,738.3160000020691,0.03
1329,738.3200000020692,0.035
1330,738.3240000020692,0.04
1331,738.3280000020692,0.04
1332,738.3320000020692,0.035
1333,738.3360000020692,0.03
1334,738.3400000020692,0.03
1335,738.3440000020693,0.02
1336,738.3480000020693,0.01
1337,738.3520000020693,0.0
1338,738.3560000020693,-0.01
1339,738.3600000020693,-0.01
1340,738.3640000020694,-0.02
1341,738.3680000020694,-0.03
1342,738.3720000020694,-0.035
1343,738.3760000020694,-0.04
1344,738.3800000020694,-0.045
1345,738.3840000020695,-0.05
1346,738.3880000020695,-0.05
1347,738.3920000020695,-0.065
1348,738.3960000020695,-0.06
1349,738.4000000020695,-0.065
1350,738.4040000020696,-0.06
1351,738.4080000020696,-0.065
1352,738.4120000020696,-0.07
1353,738.4160000020696,-0.075
1354,738.4200000020696,-0.075
1355,738.4240000020696,-0.07
1356,738.4280000020697,-0.075
1357,738.4320000020697,-0.07
1358,738.4360000020697,-0.07
1359,738.4400000020697,-0.065
1360,738.4440000020697,-0.065
1361,738.4480000020698,-0.055
1362,738.4520000020698,-0.05
1363,738.4560000020698,-0.055
1364,738.4600000020698,-0.05
1365,738.4640000020698,-0.045
1366,738.4680000020699,-0.04
1367,738.4720000020699,-0.04
1368,738.4760000020699,-0.035
1369,738.4800000020699,-0.035
1370,738.4840000020699,-0.035
1371,738.48800000207,-0.035
1372,738.49200000207,-0.035
1373,738.49600000207,-0.05
1374,738.50000000207,-0.055
1375,738.50400000207,-0.06
1376,738.50800000207,-0.065
1377,738.5120000020701,-0.065
1378,738.5160000020701,-0.065
1379,738.5200000020701,-0.065
1380,738.5240000020701,-0.06
1381,738.5280000020701,-0.05
1382,738.5320000020702,-0.055
1383,738.5360000020702,-0.045
1384,738.5400000020702,-0.04
1385,738.5440000020702,-0.04
1386,738.5480000020702,-0.035
1387,738.5520000020703,-0.035
1388,738.5560000020703,-0.035
1389,738.5600000020703,-0.035
1390,738.5640000020703,-0.03
1391,738.5680000020703,-0.03
1392,738.5720000020704,-0.035
1393,738.5760000020704,-0.035
1394,738.5800000020704,-0.035
1395,738.5840000020704,-0.035
1396,738.5880000020704,-0.04
1397,738.5920000020704,-0.04
1398,738.5960000020705,-0.035
1399,738.6000000020705,-0.03
1400,738.6040000020705,-0.025
1401,738.6080000020705,-0.025
1402,738.6120000020705,-0.025
1403,738.6160000020706,-0.02
1404,738.6200000020706,-0.015
1405,738.6240000020706,-0.005
1406,738.6280000020706,0.0
1407,738.6320000020706,0.01
1408,738.6360000020707,0.025
1409,738.6400000020707,0.04
1410,738.6440000020707,0.055
1411,738.6480000020707,0.07
1412,738.6520000020707,0.075
1413,738.6560000020708,0.095
1414,738.6600000020708,0.105
1415,738.6640000020708,0.105
1416,738.6680000020708,0.085
1417,738.6720000020708,0.06
1418,738.6760000020709,0.04
1419,738.6800000020709,0.015
1420,738.6840000020709,0.0
1421,738.6880000020709,-0.005
1422,738.6920000020709,-0.01
1423,738.696000002071,-0.02
1424,738.700000002071,-0.02
1425,738.704000002071,-0.02
1426,738.708000002071,-0.02
1427,738.712000002071,-0.02
1428,738.716000002071,-0.025
1429,738.7200000020711,-0.035
1430,738.7240000020711,-0.035
1431,738.7280000020711,-0.045
1432,738.7320000020711,-0.045
1433,738.7360000020711,-0.06
1434,738.7400000020712,-0.055
1435,738.7440000020712,-0.055
1436,738.7480000020712,-0.06
1437,738.7520000020712,-0.06
1438,738.7560000020712,-0.065
1439,738.7600000020713,-0.07
1440,738.7640000020713,-0.065
1441,738.7680000020713,-0.07
1442,738.7720000020713,-0.065
1443,738.7760000020713,-0.07
1444,738.7800000020713,-0.065
1445,738.7840000020714,-0.06
1446,738.7880000020714,-0.06
1447,738.7920000020714,-0.06
1448,738.7960000020714,-0.07
1449,738.8000000020714,-0.065
1450,738.8040000020715,-0.07
1451,738.8080000020715,-0.07
1452,738.8120000020715,-0.07
1453,738.8160000020715,-0.075
1454,738.8200000020715,-0.08
1455,738.8240000020716,-0.075
1456,738.8280000020716,-0.075
1457,738.8320000020716,-0.08
1458,738.8360000020716,-0.085
1459,738.8400000020716,-0.08
1460,738.8440000020717,-0.085
1461,738.8480000020717,-0.085
1462,738.8520000020717,-0.085
1463,738.8560000020717,-0.09
1464,738.8600000020717,-0.09
1465,738.8640000020717,-0.085
1466,738.8680000020718,-0.085
1467,738.8720000020718,-0.075
1468,738.8760000020718,-0.08
1469,738.8800000020718,-0.085
1470,738.8840000020718,-0.085
1471,738.8880000020719,-0.09
1472,738.8920000020719,-0.09
1473,738.8960000020719,-0.095
1474,738.9000000020719,-0.1
1475,738.9040000020719,-0.09
1476,738.908000002072,-0.095
1477,738.912000002072,-0.095
1478,738.916000002072,-0.105
1479,738.920000002072,-0.105
1480,738.924000002072,-0.105
1481,738.928000002072,-0.105
1482,738.9320000020721,-0.11
1483,738.9360000020721,-0.105
1484,738.9400000020721,-0.11
1485,738.9440000020721,-0.095
1486,738.9480000020721,-0.095
1487,738.9520000020722,-0.095
1488,738.9560000020722,-0.085
1489,738.9600000020722,-0.085
1490,738.9640000020722,-0.07
1491,738.9680000020722,-0.065
1492,738.9720000020723,-0.055
1493,738.9760000020723,-0.045
1494,738.9800000020723,-0.04
1495,738.9840000020723,-0.03
1496,738.9880000020723,-0.025
1497,738.9920000020724,-0.03
1498,738.9960000020724,-0.03
1499,739.0000000020724,-0.025
1500,739.0040000020724,-0.025
1501,739.0080000020724,-0.02
1502,739.0120000020725,-0.01
1503,739.0160000020725,-0.005
1504,739.0200000020725,0.0
1505,739.0240000020725,0.0
1506,739.0280000020725,0.005
1507,739.0320000020726,0.0
1508,739.0360000020726,0.0
1509,739.0400000020726,0.0
1510,739.0440000020726,0.0
1511,739.0480000020726,-0.01
1512,739.0520000020726,-0.025
1513,739.0560000020727,-0.025
1514,739.0600000020727,-0.025
1515,739.0640000020727,-0.02
1516,739.0680000020727,-0.025
1517,739.0720000020727,-0.025
1518,739.0760000020728,-0.025
1519,739.0800000020728,-0.025
1520,739.0840000020728,-0.02
1521,739.0880000020728,-0.015
1522,739.0920000020728,-0.015
1523,739.0960000020729,-0.01
1524,739.1000000020729,-0.01
1525,739.1040000020729,-0.005
1526,739.1080000020729,0.0
1527,739.1120000020729,-0.005
1528,739.116000002073,-0.005
1529,739.120000002073,0.0
1530,739.124000002073,0.0
1531,739.128000002073,0.0
1532,739.132000002073,-0.005
1533,739.136000002073,-0.01
1534,739.1400000020731,-0.005
1535,739.1440000020731,-0.01
1536,739.1480000020731,-0.02
1537,739.1520000020731,-0.015
1538,739.1560000020731,-0.025
1539,739.1600000020732,-0.03
1540,739.1640000020732,-0.03
1541,739.1680000020732,-0.025
1542,739.1720000020732,-0.035
1543,739.1760000020732,-0.03
1544,739.1800000020733,-0.035
1545,739.1840000020733,-0.035
1546,739.1880000020733,-0.035
1547,739.1920000020733,-0.05
1548,739.1960000020733,-0.055
1549,739.2000000020734,-0.05
1550,739.2040000020734,-0.06
1551,739.2080000020734,-0.06
1552,739.2120000020734,-0.07
1553,739.2160000020734,-0.075
1554,739.2200000020734,-0.08
1555,739.2240000020735,-0.095
1556,739.2280000020735,-0.11
1557,739.2320000020735,-0.115
1558,739.2360000020735,-0.125
1559,739.2400000020735,-0.125
1560,739.2440000020736,-0.12
1561,739.2480000020736,-0.1
1562,739.2520000020736,-0.095
1563,739.2560000020736,-0.09
1564,739.2600000020736,-0.075
1565,739.2640000020737,-0.07
1566,739.2680000020737,-0.06
1567,739.2720000020737,-0.05
1568,739.2760000020737,-0.045
1569,739.2800000020737,-0.04
1570,739.2840000020738,-0.03
1571,739.2880000020738,-0.03
1572,739.2920000020738,-0.035
1573,739.2960000020738,-0.035
1574,739.3000000020738,-0.035
1575,739.3040000020738,-0.04
1576,739.3080000020739,-0.04
1577,739.3120000020739,-0.04
1578,739.3160000020739,-0.04
1579,739.3200000020739,-0.04
1580,739.324000002074,-0.04
1581,739.328000002074,-0.03
1582,739.332000002074,-0.035
1583,739.336000002074,-0.03
1584,739.340000002074,-0.03
1585,739.344000002074,-0.03
1586,739.3480000020741,-0.035
1587,739.3520000020741,-0.04
1588,739.3560000020741,-0.04
1589,739.3600000020741,-0.035
1590,739.3640000020741,-0.025
1591,739.3680000020742,-0.02
1592,739.3720000020742,-0.015
1593,739.3760000020742,-0.01
1594,739.3800000020742,-0.01
1595,739.3840000020742,0.0
1596,739.3880000020743,0.0
1597,739.3920000020743,0.0
1598,739.3960000020743,0.0
1599,739.4000000020743,0.0
1600,739.4040000020743,0.0
1601,739.4080000020743,0.005
1602,739.4120000020744,0.0
1603,739.4160000020744,0.0
1604,739.4200000020744,0.0
1605,739.4240000020744,0.0
1606,739.4280000020744,-0.005
1607,739.4320000020745,-0.015
1608,739.4360000020745,-0.02
1609,739.4400000020745,-0.03
1610,739.4440000020745,-0.045
1611,739.4480000020745,-0.055
1612,739.4520000020746,-0.06
1613,739.4560000020746,-0.07
1614,739.4600000020746,-0.065
1615,739.4640000020746,-0.07
1616,739.4680000020746,-0.07
1617,739.4720000020747,-0.08
1618,739.4760000020747,-0.075
1619,739.4800000020747,-0.08
1620,739.4840000020747,-0.08
1621,739.4880000020747,-0.08
1622,739.4920000020747,-0.085
1623,739.4960000020748,-0.08
1624,739.5000000020748,-0.08
1625,739.5040000020748,-0.075
1626,739.5080000020748,-0.075
1627,739.5120000020748,-0.08
1628,739.5160000020749,-0.075
1629,739.5200000020749,-0.07
1630,739.5240000020749,-0.065
1631,739.5280000020749,-0.06
1632,739.5320000020749,-0.06
1633,739.536000002075,-0.06
1634,739.540000002075,-0.06
1635,739.544000002075,-0.055
1636,739.548000002075,-0.05
1637,739.552000002075,-0.045
1638,739.556000002075,-0.04
1639,739.5600000020751,-0.04
1640,739.5640000020751,-0.03
1641,739.5680000020751,-0.03
1642,739.5720000020751,-0.035
1643,739.5760000020751,-0.045
1644,739.5800000020752,-0.045
1645,739.5840000020752,-0.05
1646,739.5880000020752,-0.055
1647,739.5920000020752,-0.065
1648,739.5960000020752,-0.065
1649,739.6000000020753,-0.07
1650,739.6040000020753,-0.07
1651,739.6080000020753,-0.07
1652,739.6120000020753,-0.08
1653,739.6160000020753,-0.08
1654,739.6200000020754,-0.08
1655,739.6240000020754,-0.085
1656,739.6280000020754,-0.08
1657,739.6320000020754,-0.085
1658,739.6360000020754,-0.085
1659,739.6400000020755,-0.08
1660,739.6440000020755,-0.08
1661,739.6480000020755,-0.08
1662,739.6520000020755,-0.08
1663,739.6560000020755,-0.075
1664,739.6600000020755,-0.065
1665,739.6640000020756,-0.06
1666,739.6680000020756,-0.055
1667,739.6720000020756,-0.05
1668,739.6760000020756,-0.05
1669,739.6800000020756,-0.04
1670,739.6840000020757,-0.04
1671,739.6880000020757,-0.04
1672,739.6920000020757,-0.035
1673,739.6960000020757,-0.035
1674,739.7000000020757,-0.03
1675,739.7040000020758,-0.03
1676,739.7080000020758,-0.035
1677,739.7120000020758,-0.035
1678,739.7160000020758,-0.03
1679,739.7200000020758,-0.025
1680,739.7240000020759,-0.03
1681,739.7280000020759,-0.03
1682,739.7320000020759,-0.035
1683,739.7360000020759,-0.04
1684,739.7400000020759,-0.035
1685,739.744000002076,-0.035
1686,739.748000002076,-0.04
1687,739.752000002076,-0.045
1688,739.756000002076,-0.045
1689,739.760000002076,-0.04
1690,739.764000002076,-0.035
1691,739.7680000020761,-0.03
1692,739.7720000020761,-0.035
1693,739.7760000020761,-0.035
1694,739.7800000020761,-0.03
1695,739.7840000020761,-0.03
1696,739.7880000020762,-0.03
1697,739.7920000020762,-0.035
1698,739.7960000020762,-0.035
1699,739.8000000020762,-0.03
1700,739.8040000020762,-0.035
1701,739.8080000020763,-0.035
1702,739.8120000020763,-0.035
1703,739.8160000020763,-0.03
1704,739.8200000020763,-0.03
1705,739.8240000020763,-0.025
1706,739.8280000020764,-0.02
1707,739.8320000020764,-0.025
1708,739.8360000020764,-0.03
1709,739.8400000020764,-0.025
1710,739.8440000020764,-0.035
1711,739.8480000020764,-0.04
1712,739.8520000020765,-0.045
1713,739.8560000020765,-0.05
1714,739.8600000020765,-0.05
1715,739.8640000020765,-0.06
1716,739.8680000020765,-0.065
1717,739.8720000020766,-0.07
1718,739.8760000020766,-0.07
1719,739.8800000020766,-0.08
1720,739.8840000020766,-0.075
1721,739.8880000020766,-0.08
1722,739.8920000020767,-0.085
1723,739.8960000020767,-0.085
1724,739.9000000020767,-0.08
1725,739.9040000020767,-0.075
1726,739.9080000020767,-0.07
1727,739.9120000020768,-0.065
1728,739.9160000020768,-0.06
1729,739.9200000020768,-0.05
1730,739.9240000020768,-0.04
1731,739.9280000020768,-0.025
1732,739.9320000020768,-0.015
1733,739.9360000020769,0.0
1734,739.9400000020769,0.02
1735,739.9440000020769,0.04
1736,739.9480000020769,0.06
1737,739.9520000020769,0.075
1738,739.956000002077,0.09
1739,739.960000002077,0.08
1740,739.964000002077,0.065
1741,739.968000002077,0.045
1742,739.972000002077,0.025
1743,739.9760000020771,0.005
1744,739.9800000020771,-0.005
1745,739.9840000020771,-0.01
1746,739.9880000020771,-0.015
1747,739.9920000020771,-0.01
1748,739.9960000020772,-0.01
1749,740.0000000020772,-0.01
1750,740.0040000020772,-0.005
1751,740.0080000020772,-0.005
1752,740.0120000020772,-0.015
1753,740.0160000020772,-0.02
1754,740.0200000020773,-0.02
1755,740.0240000020773,-0.015
1756,740.0280000020773,-0.02
1757,740.0320000020773,-0.02
1758,740.0360000020773,-0.025
1759,740.0400000020774,-0.03
1760,740.0440000020774,-0.03
1761,740.0480000020774,-0.03
1762,740.0520000020774,-0.045
1763,740.0560000020774,-0.04
1764,740.0600000020775,-0.04
1765,740.0640000020775,-0.03
1766,740.0680000020775,-0.04
1767,740.0720000020775,-0.04
1768,740.0760000020775,-0.04
1769,740.0800000020776,-0.04
1770,740.0840000020776,-0.035
1771,740.0880000020776,-0.025
1772,740.0920000020776,-0.025
1773,740.0960000020776,-0.025
1774,740.1000000020776,-0.025
1775,740.1040000020777,-0.025
1776,740.1080000020777,-0.03
1777,740.1120000020777,-0.03
1778,740.1160000020777,-0.035
1779,740.1200000020777,-0.04
1780,740.1240000020778,-0.04
1781,740.1280000020778,-0.04
1782,740.1320000020778,-0.035
1783,740.1360000020778,-0.035
1784,740.1400000020778,-0.03
1785,740.1440000020779,-0.025
1786,740.1480000020779,-0.025
1787,740.1520000020779,-0.025
1788,740.1560000020779,-0.03
1789,740.1600000020779,-0.025
1790,740.164000002078,-0.02
1791,740.168000002078,-0.015
1792,740.172000002078,-0.015
1793,740.176000002078,-0.02
1794,740.180000002078,-0.025
1795,740.184000002078,-0.02
1796,740.1880000020781,-0.025
1797,740.1920000020781,-0.025
1798,740.1960000020781,-0.025
1799,740.2000000020781,-0.035
1800,740.2040000020781,-0.035
1801,740.2080000020782,-0.04
1802,740.2120000020782,-0.04
1803,740.2160000020782,-0.045
1804,740.2200000020782,-0.05
1805,740.2240000020782,-0.055
1806,740.2280000020783,-0.06
1807,740.2320000020783,-0.065
1808,740.2360000020783,-0.075
1809,740.2400000020783,-0.08
1810,740.2440000020783,-0.085
1811,740.2480000020784,-0.085
1812,740.2520000020784,-0.09
1813,740.2560000020784,-0.085
1814,740.2600000020784,-0.085
1815,740.2640000020784,-0.08
1816,740.2680000020785,-0.075
1817,740.2720000020785,-0.07
1818,740.2760000020785,-0.065
1819,740.2800000020785,-0.06
1820,740.2840000020785,-0.05
1821,740.2880000020785,-0.05
1822,740.2920000020786,-0.055
1823,740.2960000020786,-0.055
1824,740.3000000020786,-0.055
1825,740.3040000020786,-0.055
1826,740.3080000020786,-0.055
1827,740.3120000020787,-0.06
1828,740.3160000020787,-0.07
1829,740.3200000020787,-0.065
1830,740.3240000020787,-0.06
1831,740.3280000020787,-0.06
1832,740.3320000020788,-0.06
1833,740.3360000020788,-0.065
1834,740.3400000020788,-0.06
1835,740.3440000020788,-0.06
1836,740.3480000020788,-0.055
1837,740.3520000020789,-0.065
1838,740.3560000020789,-0.065
1839,740.3600000020789,-0.055
1840,740.3640000020789,-0.055
1841,740.3680000020789,-0.055
1842,740.372000002079,-0.055
1843,740.376000002079,-0.05
1844,740.380000002079,-0.065
1845,740.384000002079,-0.075
1846,740.388000002079,-0.08
1847,740.392000002079,-0.08
1848,740.3960000020791,-0.08
1849,740.4000000020791,-0.075
1850,740.4040000020791,-0.07
1851,740.4080000020791,-0.065
1852,740.4120000020791,-0.07
1853,740.4160000020792,-0.065
1854,740.4200000020792,-0.065
1855,740.4240000020792,-0.06
1856,740.4280000020792,-0.06
1857,740.4320000020792,-0.055
1858,740.4360000020793,-0.055
1859,740.4400000020793,-0.05
1860,740.4440000020793,-0.05
1861,740.4480000020793,-0.045
1862,740.4520000020793,-0.045
1863,740.4560000020793,-0.035
1864,740.4600000020794,-0.025
1865,740.4640000020794,-0.015
1866,740.4680000020794,-0.015
1867,740.4720000020794,-0.005
1868,740.4760000020794,-0.005
1869,740.4800000020795,-0.01
1870,740.4840000020795,-0.01
1871,740.4880000020795,-0.015
1872,740.4920000020795,-0.025
1873,740.4960000020795,-0.04
1874,740.5000000020796,-0.045
1875,740.5040000020796,-0.045
1876,740.5080000020796,-0.05
1877,740.5120000020796,-0.05
1878,740.5160000020796,-0.055
1879,740.5200000020797,-0.055
1880,740.5240000020797,-0.055
1881,740.5280000020797,-0.06
1882,740.5320000020797,-0.06
1883,740.5360000020797,-0.06
1884,740.5400000020798,-0.06
1885,740.5440000020798,-0.06
1886,740.5480000020798,-0.06
1887,740.5520000020798,-0.07
1888,740.5560000020798,-0.075
1889,740.5600000020798,-0.075
1890,740.5640000020799,-0.075
1891,740.5680000020799,-0.065
1892,740.5720000020799,-0.065
1893,740.5760000020799,-0.05
1894,740.5800000020799,-0.05
1895,740.58400000208,-0.04
1896,740.58800000208,-0.035
1897,740.59200000208,-0.035
1898,740.59600000208,-0.03
1899,740.60000000208,-0.025
1900,740.60400000208,-0.02
1901,740.6080000020801,-0.015
1902,740.6120000020801,-0.02
1903,740.6160000020801,-0.015
1904,740.6200000020801,-0.005
1905,740.6240000020802,0.0
1906,740.6280000020802,0.01
1907,740.6320000020802,0.025
1908,740.6360000020802,0.04
1909,740.6400000020802,0.065
1910,740.6440000020802,0.07
1911,740.6480000020803,0.085
1912,740.6520000020803,0.08
1913,740.6560000020803,0.065
1914,740.6600000020803,0.05
1915,740.6640000020803,0.03
1916,740.6680000020804,0.01
1917,740.6720000020804,0.0
1918,740.6760000020804,-0.01
1919,740.6800000020804,-0.015
1920,740.6840000020804,-0.015
1921,740.6880000020805,-0.015
1922,740.6920000020805,-0.01
1923,740.6960000020805,-0.005
1924,740.7000000020805,0.0
1925,740.7040000020805,0.0
1926,740.7080000020806,0.015
1927,740.7120000020806,0.015
1928,740.7160000020806,0.02
1929,740.7200000020806,0.02
1930,740.7240000020806,0.02
1931,740.7280000020806,0.015
1932,740.7320000020807,0.005
1933,740.7360000020807,0.0
1934,740.7400000020807,-0.015
1935,740.7440000020807,-0.02
1936,740.7480000020807,-0.035
1937,740.7520000020808,-0.035
1938,740.7560000020808,-0.045
1939,740.7600000020808,-0.05
1940,740.7640000020808,-0.05
1941,740.7680000020808,-0.055
1942,740.7720000020809,-0.055
1943,740.7760000020809,-0.065
1944,740.7800000020809,-0.06
1945,740.7840000020809,-0.055
1946,740.7880000020809,-0.055
1947,740.792000002081,-0.05
1948,740.796000002081,-0.05
1949,740.800000002081,-0.055
1950,740.804000002081,-0.055
1951,740.808000002081,-0.065
1952,740.812000002081,-0.06
1953,740.8160000020811,-0.07
1954,740.8200000020811,-0.07
1955,740.8240000020811,-0.07
1956,740.8280000020811,-0.07
1957,740.8320000020811,-0.065
1958,740.8360000020812,-0.07
1959,740.8400000020812,-0.075
1960,740.8440000020812,-0.07
1961,740.8480000020812,-0.065
1962,740.8520000020812,-0.07
1963,740.8560000020813,-0.07
1964,740.8600000020813,-0.075
1965,740.8640000020813,-0.06
1966,740.8680000020813,-0.07
1967,740.8720000020813,-0.07
1968,740.8760000020814,-0.065
1969,740.8800000020814,-0.07
1970,740.8840000020814,-0.07
1971,740.8880000020814,-0.075
1972,740.8920000020814,-0.08
1973,740.8960000020815,-0.095
1974,740.9000000020815,-0.095
1975,740.9040000020815,-0.095
1976,740.9080000020815,-0.095
1977,740.9120000020815,-0.1
1978,740.9160000020815,-0.1
1979,740.9200000020816,-0.09
1980,740.9240000020816,-0.09
1981,740.9280000020816,-0.09
1982,740.9320000020816,-0.09
1983,740.9360000020816,-0.1
1984,740.9400000020817,-0.1
1985,740.9440000020817,-0.095
1986,740.9480000020817,-0.09
1987,740.9520000020817,-0.085
1988,740.9560000020817,-0.075
1989,740.9600000020818,-0.07
1990,740.9640000020818,-0.065
1991,740.9680000020818,-0.05
1992,740.9720000020818,-0.05
1993,740.9760000020818,-0.055
1994,740.9800000020819,-0.05
1995,740.9840000020819,-0.06
1996,740.9880000020819,-0.05
1997,740.9920000020819,-0.05
1998,740.9960000020819,-0.055
1999,741.000000002082,-0.055
2000,741.004000002082,-0.05
2001,741.008000002082,-0.045
2002,741.012000002082,-0.04
2003,741.016000002082,-0.035
2004,741.020000002082,-0.04
2005,741.0240000020821,-0.03
2006,741.0280000020821,-0.03
2007,741.0320000020821,-0.03
2008,741.0360000020821,-0.03
2009,741.0400000020821,-0.03
2010,741.0440000020822,-0.025
2011,741.0480000020822,-0.025
2012,741.0520000020822,-0.025
2013,741.0560000020822,-0.02
2014,741.0600000020822,-0.02
2015,741.0640000020823,-0.01
2016,741.0680000020823,-0.01
2017,741.0720000020823,-0.01
2018,741.0760000020823,-0.015
2019,741.0800000020823,-0.01
2020,741.0840000020823,-0.015
2021,741.0880000020824,-0.025
2022,741.0920000020824,-0.03
2023,741.0960000020824,-0.035
2024,741.1000000020824,-0.04
2025,741.1040000020824,-0.03
2026,741.1080000020825,-0.03
2027,741.1120000020825,-0.03
2028,741.1160000020825,-0.035
2029,741.1200000020825,-0.03
2030,741.1240000020825,-0.03
2031,741.1280000020826,-0.035
2032,741.1320000020826,-0.04
2033,741.1360000020826,-0.05
2034,741.1400000020826,-0.045
2035,741.1440000020826,-0.05
2036,741.1480000020827,-0.055
2037,741.1520000020827,-0.055
2038,741.1560000020827,-0.045
2039,741.1600000020827,-0.04
2040,741.1640000020827,-0.035
2041,741.1680000020827,-0.035
2042,741.1720000020828,-0.035
2043,741.1760000020828,-0.04
2044,741.1800000020828,-0.04
2045,741.1840000020828,-0.04
2046,741.1880000020828,-0.035
2047,741.1920000020829,-0.035
2048,741.1960000020829,-0.035
2049,741.2000000020829,-0.025
2050,741.2040000020829,-0.015
2051,741.2080000020829,0.0
2052,741.212000002083,0.015
2053,741.216000002083,0.035
2054,741.220000002083,0.05
2055,741.224000002083,0.06
2056,741.228000002083,0.055
2057,741.232000002083,0.05
2058,741.2360000020831,0.04
2059,741.2400000020831,0.02
2060,741.2440000020831,0.01
2061,741.2480000020831,0.0
2062,741.2520000020832,0.0
2063,741.2560000020832,-0.005
2064,741.2600000020832,0.0
2065,741.2640000020832,0.005
2066,741.2680000020832,0.01
2067,741.2720000020832,0.015
2068,741.2760000020833,0.015
2069,741.2800000020833,0.015
2070,741.2840000020833,0.015
2071,741.2880000020833,0.01
2072,741.2920000020833,0.005
2073,741.2960000020834,0.0
2074,741.3000000020834,-0.01
2075,741.3040000020834,-0.01
2076,741.3080000020834,-0.015
2077,741.3120000020834,-0.015
2078,741.3160000020835,-0.03
2079,741.3200000020835,-0.025
2080,741.3240000020835,-0.025
2081,741.3280000020835,-0.025
2082,741.3320000020835,-0.02
2083,741.3360000020836,-0.03
2084,741.3400000020836,-0.025
2085,741.3440000020836,-0.02
2086,741.3480000020836,-0.025
2087,741.3520000020836,-0.025
2088,741.3560000020836,-0.035
2089,741.3600000020837,-0.04
2090,741.3640000020837,-0.035
2091,741.3680000020837,-0.04
2092,741.3720000020837,-0.04
2093,741.3760000020837,-0.05
2094,741.3800000020838,-0.055
2095,741.3840000020838,-0.06
2096,741.3880000020838,-0.06
2097,741.3920000020838,-0.07
2098,741.3960000020838,-0.065
2099,741.4000000020839,-0.065
2100,741.4040000020839,-0.07
2101,741.4080000020839,-0.07
2102,741.4120000020839,-0.075
2103,741.4160000020839,-0.07
2104,741.420000002084,-0.07
2105,741.424000002084,-0.065
2106,741.428000002084,-0.07
2107,741.432000002084,-0.075
2108,741.436000002084,-0.07
2109,741.440000002084,-0.075
2110,741.4440000020841,-0.075
2111,741.4480000020841,-0.07
2112,741.4520000020841,-0.065
2113,741.4560000020841,-0.07
2114,741.4600000020841,-0.07
2115,741.4640000020842,-0.065
2116,741.4680000020842,-0.06
2117,741.4720000020842,-0.055
2118,741.4760000020842,-0.055
2119,741.4800000020842,-0.05
2120,741.4840000020843,-0.045
2121,741.4880000020843,-0.045
2122,741.4920000020843,-0.045
2123,741.4960000020843,-0.045
2124,741.5000000020843,-0.055
2125,741.5040000020844,-0.055
2126,741.5080000020844,-0.06
2127,741.5120000020844,-0.065
2128,741.5160000020844,-0.07
2129,741.5200000020844,-0.075
2130,741.5240000020844,-0.07
2131,741.5280000020845,-0.065
2132,741.5320000020845,-0.06
2133,741.5360000020845,-0.065
2134,741.5400000020845,-0.065
2135,741.5440000020845,-0.06
2136,741.5480000020846,-0.055
2137,741.5520000020846,-0.055
2138,741.5560000020846,-0.055
2139,741.5600000020846,-0.05
2140,741.5640000020846,-0.045
2141,741.5680000020847,-0.045
2142,741.5720000020847,-0.04
2143,741.5760000020847,-0.035
2144,741.5800000020847,-0.03
2145,741.5840000020847,-0.025
2146,741.5880000020848,-0.03
2147,741.5920000020848,-0.03
2148,741.5960000020848,-0.04
2149,741.6000000020848,-0.05
2150,741.6040000020848,-0.055
2151,741.6080000020849,-0.065
2152,741.6120000020849,-0.07
2153,741.6160000020849,-0.08
2154,741.6200000020849,-0.08
2155,741.6240000020849,-0.08
2156,741.628000002085,-0.085
2157,741.632000002085,-0.085
2158,741.636000002085,-0.08
2159,741.640000002085,-0.075
2160,741.644000002085,-0.07
2161,741.648000002085,-0.07
2162,741.6520000020851,-0.06
2163,741.6560000020851,-0.06
2164,741.6600000020851,-0.05
2165,741.6640000020851,-0.045
2166,741.6680000020851,-0.04
2167,741.6720000020852,-0.03
2168,741.6760000020852,-0.02
2169,741.6800000020852,-0.01
2170,741.6840000020852,0.0
2171,741.6880000020852,0.005
2172,741.6920000020853,0.01
2173,741.6960000020853,0.01
2174,741.7000000020853,0.015
2175,741.7040000020853,0.005
2176,741.7080000020853,0.0
2177,741.7120000020853,-0.005
2178,741.7160000020854,-0.005
2179,741.7200000020854,0.0
2180,741.7240000020854,0.005
2181,741.7280000020854,0.02
2182,741.7320000020854,0.02
2183,741.7360000020855,0.025
2184,741.7400000020855,0.025
2185,741.7440000020855,0.025
2186,741.7480000020855,0.025
2187,741.7520000020855,0.015
2188,741.7560000020856,0.02
2189,741.7600000020856,0.02
2190,741.7640000020856,0.025
2191,741.7680000020856,0.03
2192,741.7720000020856,0.035
2193,741.7760000020857,0.035
2194,741.7800000020857,0.04
2195,741.7840000020857,0.03
2196,741.7880000020857,0.025
2197,741.7920000020857,0.01
2198,741.7960000020857,0.0
2199,741.8000000020858,0.0
2200,741.8040000020858,-0.01
2201,741.8080000020858,-0.015
2202,741.8120000020858,-0.025
2203,741.8160000020858,-0.035
2204,741.8200000020859,-0.04
2205,741.8240000020859,-0.045
2206,741.8280000020859,-0.045
2207,741.8320000020859,-0.055
2208,741.8360000020859,-0.06
2209,741.840000002086,-0.06
2210,741.844000002086,-0.065
2211,741.848000002086,-0.07
2212,741.852000002086,-0.075
2213,741.856000002086,-0.08
2214,741.860000002086,-0.08
2215,741.8640000020861,-0.08
2216,741.8680000020861,-0.085
2217,741.8720000020861,-0.09
2218,741.8760000020861,-0.09
2219,741.8800000020861,-0.08
2220,741.8840000020862,-0.08
2221,741.8880000020862,-0.075
2222,741.8920000020862,-0.075
2223,741.8960000020862,-0.08
2224,741.9000000020862,-0.085
2225,741.9040000020863,-0.09
2226,741.9080000020863,-0.1
2227,741.9120000020863,-0.105
2228,741.9160000020863,-0.11
2229,741.9200000020863,-0.115
2230,741.9240000020864,-0.115
2231,741.9280000020864,-0.11
2232,741.9320000020864,-0.11
2233,741.9360000020864,-0.105
2234,741.9400000020864,-0.11
2235,741.9440000020865,-0.105
2236,741.9480000020865,-0.1
2237,741.9520000020865,-0.1
2238,741.9560000020865,-0.095
2239,741.9600000020865,-0.095
2240,741.9640000020866,-0.085
2241,741.9680000020866,-0.08
2242,741.9720000020866,-0.065
2243,741.9760000020866,-0.06
2244,741.9800000020866,-0.055
2245,741.9840000020866,-0.045
2246,741.9880000020867,-0.035
2247,741.9920000020867,-0.03
2248,741.9960000020867,-0.025
2249,742.0000000020867,-0.02
2250,742.0040000020867,-0.02
2251,742.0080000020868,-0.025
2252,742.0120000020868,-0.03
2253,742.0160000020868,-0.03
2254,742.0200000020868,-0.03
2255,742.0240000020868,-0.03
2256,742.0280000020869,-0.03
2257,742.0320000020869,-0.03
2258,742.0360000020869,-0.035
2259,742.0400000020869,-0.035
2260,742.0440000020869,-0.04
2261,742.048000002087,-0.045
2262,742.052000002087,-0.05
2263,742.056000002087,-0.06
2264,742.060000002087,-0.055
2265,742.064000002087,-0.06
2266,742.068000002087,-0.065
2267,742.0720000020871,-0.075
2268,742.0760000020871,-0.08
2269,742.0800000020871,-0.075
2270,742.0840000020871,-0.075
2271,742.0880000020871,-0.08
2272,742.0920000020872,-0.08
2273,742.0960000020872,-0.08
2274,742.1000000020872,-0.075
2275,742.1040000020872,-0.085
2276,742.1080000020872,-0.08
2277,742.1120000020873,-0.09
2278,742.1160000020873,-0.085
2279,742.1200000020873,-0.08
2280,742.1240000020873,-0.08
2281,742.1280000020873,-0.075
2282,742.1320000020874,-0.07
2283,742.1360000020874,-0.065
2284,742.1400000020874,-0.055
2285,742.1440000020874,-0.045
2286,742.1480000020874,-0.04
2287,742.1520000020874,-0.04
2288,742.1560000020875,-0.04
2289,742.1600000020875,-0.035
2290,742.1640000020875,-0.035
2291,742.1680000020875,-0.03
2292,742.1720000020875,-0.03
2293,742.1760000020876,-0.035
2294,742.1800000020876,-0.03
2295,742.1840000020876,-0.03
2296,742.1880000020876,-0.03
2297,742.1920000020876,-0.04
2298,742.1960000020877,-0.045
2299,742.2000000020877,-0.05
2300,742.2040000020877,-0.055
2301,742.2080000020877,-0.055
2302,742.2120000020877,-0.055
2303,742.2160000020878,-0.065
2304,742.2200000020878,-0.06
2305,742.2240000020878,-0.065
2306,742.2280000020878,-0.075
2307,742.2320000020878,-0.085
2308,742.2360000020878,-0.085
2309,742.2400000020879,-0.08
2310,742.2440000020879,-0.08
2311,742.2480000020879,-0.075
2312,742.2520000020879,-0.08
2313,742.256000002088,-0.08
2314,742.260000002088,-0.075
2315,742.264000002088,-0.075
2316,742.268000002088,-0.08
2317,742.272000002088,-0.085
2318,742.276000002088,-0.085
2319,742.2800000020881,-0.085
2320,742.2840000020881,-0.085
2321,742.2880000020881,-0.08
2322,742.2920000020881,-0.075
2323,742.2960000020881,-0.07
2324,742.3000000020882,-0.06
2325,742.3040000020882,-0.05
2326,742.3080000020882,-0.05
2327,742.3120000020882,-0.04
2328,742.3160000020882,-0.03
2329,742.3200000020882,-0.025
2330,742.3240000020883,-0.015
2331,742.3280000020883,-0.015
2332,742.3320000020883,-0.015
2333,742.3360000020883,-0.015
2334,742.3400000020883,-0.015
2335,742.3440000020884,-0.015
2336,742.3480000020884,-0.015
2337,742.3520000020884,-0.015
2338,742.3560000020884,-0.01
2339,742.3600000020884,-0.005
2340,742.3640000020885,-0.01
2341,742.3680000020885,-0.01
2342,742.3720000020885,-0.015
2343,742.3760000020885,-0.02
2344,742.3800000020885,-0.02
2345,742.3840000020886,-0.015
2346,742.3880000020886,-0.015
2347,742.3920000020886,-0.01
2348,742.3960000020886,-0.01
2349,742.4000000020886,-0.005
2350,742.4040000020887,-0.01
2351,742.4080000020887,-0.01
2352,742.4120000020887,-0.02
2353,742.4160000020887,-0.025
2354,742.4200000020887,-0.025
2355,742.4240000020887,-0.035
2356,742.4280000020888,-0.03
2357,742.4320000020888,-0.035
2358,742.4360000020888,-0.04
2359,742.4400000020888,-0.03
2360,742.4440000020888,-0.03
2361,742.4480000020889,-0.04
2362,742.4520000020889,-0.035
2363,742.4560000020889,-0.035
2364,742.4600000020889,-0.03
2365,742.4640000020889,-0.035
2366,742.468000002089,-0.025
2367,742.472000002089,-0.035
2368,742.476000002089,-0.03
2369,742.480000002089,-0.02
2370,742.484000002089,-0.015
2371,742.488000002089,-0.02
2372,742.4920000020891,-0.015
2373,742.4960000020891,-0.015
2374,742.5000000020891,-0.015
2375,742.5040000020891,-0.02
2376,742.5080000020891,-0.02
2377,742.5120000020892,-0.025
2378,742.5160000020892,-0.03
2379,742.5200000020892,-0.035
2380,742.5240000020892,-0.035
2381,742.5280000020892,-0.035
2382,742.5320000020893,-0.04
2383,742.5360000020893,-0.035
2384,742.5400000020893,-0.02
2385,742.5440000020893,-0.01
2386,742.5480000020893,-0.01
2387,742.5520000020894,-0.005
2388,742.5560000020894,0.0
2389,742.5600000020894,0.005
2390,742.5640000020894,0.01
2391,742.5680000020894,0.0
2392,742.5720000020895,0.005
2393,742.5760000020895,0.0
2394,742.5800000020895,0.0
2395,742.5840000020895,-0.005
2396,742.5880000020895,0.0
2397,742.5920000020895,0.0
2398,742.5960000020896,0.005
2399,742.6000000020896,0.005
2400,742.6040000020896,0.0
2401,742.6080000020896,0.0
2402,742.6120000020896,-0.005
2403,742.6160000020897,-0.005
2404,742.6200000020897,0.0
2405,742.6240000020897,0.0
2406,742.6280000020897,0.0
2407,742.6320000020897,0.0
2408,742.6360000020898,0.005
2409,742.6400000020898,0.005
2410,742.6440000020898,0.01
2411,742.6480000020898,0.01
2412,742.6520000020898,0.005
2413,742.6560000020899,0.01
2414,742.6600000020899,0.005
2415,742.6640000020899,0.0
2416,742.6680000020899,0.0
2417,742.6720000020899,-0.01
2418,742.67600000209,-0.015
2419,742.68000000209,-0.01
2420,742.68400000209,-0.005
2421,742.68800000209,-0.005
2422,742.69200000209,-0.005
2423,742.69600000209,-0.005
2424,742.7000000020901,0.0
2425,742.7040000020901,-0.005
2426,742.7080000020901,-0.005
2427,742.7120000020901,-0.01
2428,742.7160000020901,-0.01
2429,742.7200000020902,-0.01
2430,742.7240000020902,-0.015
2431,742.7280000020902,-0.02
2432,742.7320000020902,-0.025
2433,742.7360000020902,-0.025
2434,742.7400000020903,-0.03
2435,742.7440000020903,-0.03
2436,742.7480000020903,-0.035
2437,742.7520000020903,-0.04
2438,742.7560000020903,-0.035
2439,742.7600000020904,-0.04
2440,742.7640000020904,-0.04
2441,742.7680000020904,-0.04
2442,742.7720000020904,-0.04
2443,742.7760000020904,-0.035
2444,742.7800000020904,-0.03
2445,742.7840000020905,-0.02
2446,742.7880000020905,-0.015
2447,742.7920000020905,-0.015
2448,742.7960000020905,-0.015
2449,742.8000000020905,-0.015
2450,742.8040000020906,-0.01
2451,742.8080000020906,0.085
2452,742.8120000020906,0.08
2453,742.8160000020906,-0.035
2454,742.8200000020906,-0.055
2455,742.8240000020907,-0.075
2456,742.8280000020907,-0.09
2457,742.8320000020907,-0.09
2458,742.8360000020907,-0.07
2459,742.8400000020907,-0.055
2460,742.8440000020908,-0.065
2461,742.8480000020908,-0.085
2462,742.8520000020908,-0.09
2463,742.8560000020908,-0.08
2464,742.8600000020908,-0.075
2465,742.8640000020908,-0.085
2466,742.8680000020909,-0.1
2467,742.8720000020909,-0.1
2468,742.8760000020909,-0.09
2469,742.8800000020909,-0.095
2470,742.8840000020909,-0.1
2471,742.888000002091,-0.115
2472,742.892000002091,-0.12
2473,742.896000002091,-0.11
2474,742.900000002091,-0.1
2475,742.904000002091,-0.105
2476,742.9080000020911,-0.105
2477,742.9120000020911,-0.1
2478,742.9160000020911,-0.09
2479,742.9200000020911,-0.08
2480,742.9240000020911,-0.08
2481,742.9280000020912,-0.08
2482,742.9320000020912,-0.08
2483,742.9360000020912,-0.07
2484,742.9400000020912,-0.065
2485,742.9440000020912,-0.07
2486,742.9480000020912,-0.07
2487,742.9520000020913,-0.07
2488,742.9560000020913,-0.07
2489,742.9600000020913,-0.07
2490,742.9640000020913,-0.065
2491,742.9680000020913,-0.065
2492,742.9720000020914,-0.07
2493,742.9760000020914,-0.07
2494,742.9800000020914,-0.07
2495,742.9840000020914,-0.08
2496,742.9880000020914,-0.09
2497,742.9920000020915,-0.095
2498,742.9960000020915,-0.1
2499,743.0000000020915,-0.105
2500,743.0040000020915,-0.105
2501,743.0080000020915,-0.11
2502,743.0120000020916,-0.11
2503,743.0160000020916,-0.11
2504,743.0200000020916,-0.11
2505,743.0240000020916,-0.11
2506,743.0280000020916,-0.115
2507,743.0320000020916,-0.115
2508,743.0360000020917,-0.11
2509,743.0400000020917,-0.105
2510,743.0440000020917,-0.095
2511,743.0480000020917,-0.1
2512,743.0520000020917,-0.085
2513,743.0560000020918,-0.08
2514,743.0600000020918,-0.07
2515,743.0640000020918,-0.065
2516,743.0680000020918,-0.065
2517,743.0720000020918,-0.055
2518,743.0760000020919,-0.05
2519,743.0800000020919,-0.03
2520,743.0840000020919,-0.025
2521,743.0880000020919,-0.025
2522,743.0920000020919,-0.015
2523,743.096000002092,-0.015
2524,743.100000002092,-0.005
2525,743.104000002092,-0.01
2526,743.108000002092,-0.015
2527,743.112000002092,-0.025
2528,743.116000002092,-0.025
2529,743.1200000020921,-0.03
2530,743.1240000020921,-0.035
2531,743.1280000020921,-0.035
2532,743.1320000020921,-0.04
2533,743.1360000020921,-0.04
2534,743.1400000020922,-0.04
2535,743.1440000020922,-0.045
2536,743.1480000020922,-0.045
2537,743.1520000020922,-0.055
2538,743.1560000020922,-0.05
2539,743.1600000020923,-0.045
2540,743.1640000020923,-0.035
2541,743.1680000020923,-0.04
2542,743.1720000020923,-0.04
2543,743.1760000020923,-0.04
2544,743.1800000020924,-0.045
2545,743.1840000020924,-0.04
2546,743.1880000020924,-0.035
2547,743.1920000020924,-0.04
2548,743.1960000020924,-0.045
2549,743.2000000020925,-0.04
2550,743.2040000020925,-0.03
2551,743.2080000020925,-0.03
2552,743.2120000020925,-0.035
2553,743.2160000020925,-0.02
2554,743.2200000020925,-0.025
2555,743.2240000020926,-0.02
2556,743.2280000020926,-0.02
2557,743.2320000020926,-0.025
2558,743.2360000020926,-0.025
2559,743.2400000020926,-0.03
2560,743.2440000020927,-0.04
2561,743.2480000020927,-0.04
2562,743.2520000020927,-0.05
2563,743.2560000020927,-0.06
2564,743.2600000020927,-0.06
2565,743.2640000020928,-0.065
2566,743.2680000020928,-0.065
2567,743.2720000020928,-0.07
2568,743.2760000020928,-0.065
2569,743.2800000020928,-0.07
2570,743.2840000020929,-0.065
2571,743.2880000020929,-0.06
2572,743.2920000020929,-0.065
2573,743.2960000020929,-0.065
2574,743.3000000020929,-0.065
2575,743.304000002093,-0.065
2576,743.308000002093,-0.065
2577,743.312000002093,-0.065
2578,743.316000002093,-0.065
2579,743.320000002093,-0.06
2580,743.324000002093,-0.06
2581,743.3280000020931,-0.05
2582,743.3320000020931,-0.045
2583,743.3360000020931,-0.04
2584,743.3400000020931,-0.03
2585,743.3440000020931,-0.025
2586,743.3480000020932,-0.025
2587,743.3520000020932,-0.025
2588,743.3560000020932,-0.02
2589,743.3600000020932,-0.02
2590,743.3640000020932,-0.015
2591,743.3680000020933,-0.015
2592,743.3720000020933,-0.015
2593,743.3760000020933,-0.015
2594,743.3800000020933,-0.01
2595,743.3840000020933,-0.01
2596,743.3880000020933,-0.01
2597,743.3920000020934,-0.02
2598,743.3960000020934,-0.02
2599,743.4000000020934,-0.015
2600,743.4040000020934,-0.015
2601,743.4080000020934,-0.015
2602,743.4120000020935,-0.02
2603,743.4160000020935,-0.02
2604,743.4200000020935,-0.01
2605,743.4240000020935,-0.01
2606,743.4280000020935,-0.01
2607,743.4320000020936,-0.01
2608,743.4360000020936,-0.005
2609,743.4400000020936,-0.005
2610,743.4440000020936,0.0
2611,743.4480000020936,0.0
2612,743.4520000020937,0.0
2613,743.4560000020937,0.005
2614,743.4600000020937,0.01
2615,743.4640000020937,0.01
2616,743.4680000020937,0.01
2617,743.4720000020938,0.015
2618,743.4760000020938,0.025
2619,743.4800000020938,0.02
2620,743.4840000020938,0.02
2621,743.4880000020938,0.02
2622,743.4920000020938,0.015
2623,743.4960000020939,0.01
2624,743.5000000020939,0.0
2625,743.5040000020939,0.0
2626,743.5080000020939,-0.015
2627,743.5120000020939,-0.015
2628,743.516000002094,-0.02
2629,743.520000002094,-0.03
2630,743.524000002094,-0.035
2631,743.528000002094,-0.045
2632,743.532000002094,-0.05
2633,743.536000002094,-0.06
2634,743.5400000020941,-0.065
2635,743.5440000020941,-0.065
2636,743.5480000020941,-0.07
2637,743.5520000020941,-0.075
2638,743.5560000020942,-0.075
2639,743.5600000020942,-0.08
2640,743.5640000020942,-0.075
2641,743.5680000020942,-0.075
2642,743.5720000020942,-0.07
2643,743.5760000020942,-0.07
2644,743.5800000020943,-0.065
2645,743.5840000020943,-0.065
2646,743.5880000020943,-0.055
2647,743.5920000020943,-0.055
2648,743.5960000020943,-0.065
2649,743.6000000020944,-0.06
2650,743.6040000020944,-0.06
2651,743.6080000020944,-0.06
2652,743.6120000020944,-0.055
2653,743.6160000020944,-0.06
2654,743.6200000020945,-0.06
2655,743.6240000020945,-0.055
2656,743.6280000020945,-0.045
2657,743.6320000020945,-0.045
2658,743.6360000020945,-0.045
2659,743.6400000020946,-0.045
2660,743.6440000020946,-0.045
2661,743.6480000020946,-0.045
2662,743.6520000020946,-0.05
2663,743.6560000020946,-0.05
2664,743.6600000020946,-0.05
2665,743.6640000020947,-0.05
2666,743.6680000020947,-0.055
2667,743.6720000020947,-0.055
2668,743.6760000020947,-0.06
2669,743.6800000020947,-0.065
2670,743.6840000020948,-0.06
2671,743.6880000020948,-0.055
2672,743.6920000020948,-0.055
2673,743.6960000020948,-0.05
2674,743.7000000020948,-0.05
2675,743.7040000020949,-0.045
2676,743.7080000020949,-0.045
2677,743.7120000020949,-0.05
2678,743.7160000020949,-0.05
2679,743.7200000020949,-0.05
2680,743.724000002095,-0.05
2681,743.728000002095,-0.05
2682,743.732000002095,-0.055
2683,743.736000002095,-0.055
2684,743.740000002095,-0.06
2685,743.744000002095,-0.05
2686,743.7480000020951,-0.045
2687,743.7520000020951,-0.045
2688,743.7560000020951,-0.04
2689,743.7600000020951,-0.035
2690,743.7640000020951,-0.025
2691,743.7680000020952,-0.02
2692,743.7720000020952,-0.025
2693,743.7760000020952,-0.025
2694,743.7800000020952,-0.025
2695,743.7840000020952,-0.03
2696,743.7880000020953,-0.035
2697,743.7920000020953,-0.035
2698,743.7960000020953,-0.045
2699,743.8000000020953,-0.04
2700,743.8040000020953,-0.045
2701,743.8080000020954,-0.045
2702,743.8120000020954,-0.04
2703,743.8160000020954,-0.045
2704,743.8200000020954,-0.035
2705,743.8240000020954,-0.035
2706,743.8280000020955,-0.03
2707,743.8320000020955,-0.025
2708,743.8360000020955,-0.02
2709,743.8400000020955,-0.015
2710,743.8440000020955,-0.01
2711,743.8480000020955,-0.01
2712,743.8520000020956,-0.01
2713,743.8560000020956,-0.01
2714,743.8600000020956,-0.015
2715,743.8640000020956,-0.02
2716,743.8680000020956,-0.02
2717,743.8720000020957,-0.025
2718,743.8760000020957,-0.03
2719,743.8800000020957,-0.025
2720,743.8840000020957,-0.03
2721,743.8880000020957,-0.025
2722,743.8920000020958,-0.035
2723,743.8960000020958,-0.035
2724,743.9000000020958,-0.025
2725,743.9040000020958,-0.025
2726,743.9080000020958,-0.02
2727,743.9120000020959,-0.02
2728,743.9160000020959,-0.025
2729,743.9200000020959,-0.015
2730,743.9240000020959,-0.02
2731,743.9280000020959,-0.02
2732,743.932000002096,-0.03
2733,743.936000002096,-0.025
2734,743.940000002096,-0.025
2735,743.944000002096,-0.025
2736,743.948000002096,-0.02
2737,743.952000002096,-0.03
2738,743.9560000020961,-0.035
2739,743.9600000020961,-0.03
2740,743.9640000020961,-0.035
2741,743.9680000020961,-0.04
2742,743.9720000020961,-0.045
2743,743.9760000020962,-0.05
2744,743.9800000020962,-0.05
2745,743.9840000020962,-0.05
2746,743.9880000020962,-0.055
2747,743.9920000020962,-0.05
2748,743.9960000020963,-0.045
2749,744.0000000020963,-0.035
