,329.0000000001147,-0.245
0,329.00400000011473,-0.27
1,329.00800000011475,-0.31
2,329.01200000011477,-0.35000000000000003
3,329.0160000001148,-0.385
4,329.0200000001148,-0.42
5,329.0240000001148,-0.45
6,329.02800000011484,-0.465
7,329.03200000011486,-0.47500000000000003
8,329.0360000001149,-0.455
9,329.0400000001149,-0.41000000000000003
10,329.0440000001149,-0.35000000000000003
11,329.04800000011494,-0.265
12,329.05200000011496,-0.16
13,329.056000000115,-0.035
14,329.060000000115,0.08
15,329.064000000115,0.19
16,329.06800000011503,0.29
17,329.07200000011505,0.35000000000000003
18,329.0760000001151,0.37
19,329.0800000001151,0.365
20,329.0840000001151,0.335
21,329.08800000011513,0.295
22,329.09200000011515,0.245
23,329.09600000011517,0.19
24,329.1000000001152,0.14
25,329.1040000001152,0.09
26,329.1080000001152,0.03
27,329.11200000011524,-0.02
28,329.11600000011526,-0.085
29,329.1200000001153,-0.15
30,329.1240000001153,-0.21
31,329.1280000001153,-0.26
32,329.13200000011534,-0.295
33,329.13600000011536,-0.32
34,329.1400000001154,-0.34
35,329.1440000001154,-0.34500000000000003
36,329.1480000001154,-0.335
37,329.15200000011544,-0.32
38,329.15600000011545,-0.29
39,329.1600000001155,-0.26
40,329.1640000001155,-0.22
41,329.1680000001155,-0.19
42,329.17200000011553,-0.16
43,329.17600000011555,-0.11
44,329.18000000011557,-0.075
45,329.1840000001156,-0.04
46,329.1880000001156,-0.015
47,329.1920000001156,0.005
48,329.19600000011565,0.04
49,329.20000000011566,0.085
50,329.2040000001157,0.125
51,329.2080000001157,0.16
52,329.2120000001157,0.185
53,329.21600000011574,0.2
54,329.22000000011576,0.19
55,329.2240000001158,0.165
56,329.2280000001158,0.13
57,329.2320000001158,0.09
58,329.23600000011584,0.045
59,329.24000000011586,0.0
60,329.2440000001159,-0.07
61,329.2480000001159,-0.13
62,329.2520000001159,-0.195
63,329.25600000011593,-0.25
64,329.26000000011595,-0.28
65,329.26400000011597,-0.28
66,329.268000000116,-0.27
67,329.272000000116,-0.26
68,329.276000000116,-0.26
69,329.28000000011605,-0.265
70,329.28400000011607,-0.275
71,329.2880000001161,-0.275
72,329.2920000001161,-0.26
73,329.2960000001161,-0.225
74,329.30000000011614,-0.17500000000000002
75,329.30400000011616,-0.135
76,329.3080000001162,-0.095
77,329.3120000001162,-0.065
78,329.3160000001162,-0.045
79,329.32000000011624,-0.035
80,329.32400000011626,-0.02
81,329.3280000001163,-0.03
82,329.3320000001163,-0.045
83,329.3360000001163,-0.075
84,329.34000000011633,-0.11
85,329.34400000011635,-0.15
86,329.3480000001164,-0.18
87,329.3520000001164,-0.2
88,329.3560000001164,-0.2
89,329.36000000011643,-0.19
90,329.36400000011645,-0.155
91,329.36800000011647,-0.11
92,329.3720000001165,-0.065
93,329.3760000001165,-0.025
94,329.3800000001165,-0.005
95,329.38400000011654,0.0
96,329.38800000011656,0.0
97,329.3920000001166,0.0
98,329.3960000001166,-0.005
99,329.4000000001166,-0.025
100,329.40400000011664,-0.04
101,329.40800000011666,-0.06
102,329.4120000001167,-0.08
103,329.4160000001167,-0.09
104,329.4200000001167,-0.095
105,329.42400000011673,-0.08
106,329.42800000011675,-0.045
107,329.4320000001168,-0.01
108,329.4360000001168,0.03
109,329.4400000001168,0.06
110,329.44400000011683,0.08
111,329.44800000011685,0.1
112,329.45200000011687,0.11
113,329.4560000001169,0.11
114,329.4600000001169,0.095
115,329.4640000001169,0.075
116,329.46800000011694,0.05
117,329.47200000011696,0.03
118,329.476000000117,0.005
119,329.480000000117,0.0
120,329.484000000117,-0.01
121,329.48800000011704,-0.02
122,329.49200000011706,-0.025
123,329.4960000001171,-0.055
124,329.5000000001171,-0.08
125,329.5040000001171,-0.125
126,329.50800000011714,-0.17500000000000002
127,329.51200000011715,-0.23
128,329.5160000001172,-0.265
129,329.5200000001172,-0.295
130,329.5240000001172,-0.3
131,329.52800000011723,-0.315
132,329.53200000011725,-0.335
133,329.53600000011727,-0.375
134,329.5400000001173,-0.42
135,329.5440000001173,-0.45
136,329.5480000001173,-0.46
137,329.55200000011735,-0.45
138,329.55600000011736,-0.42
139,329.5600000001174,-0.37
140,329.5640000001174,-0.32
141,329.5680000001174,-0.25
142,329.57200000011744,-0.18
143,329.57600000011746,-0.085
144,329.5800000001175,0.03
145,329.5840000001175,0.155
146,329.5880000001175,0.26
147,329.59200000011754,0.34
148,329.59600000011756,0.385
149,329.6000000001176,0.41000000000000003
150,329.6040000001176,0.41500000000000004
151,329.6080000001176,0.4
152,329.61200000011763,0.375
153,329.61600000011765,0.335
154,329.62000000011767,0.275
155,329.6240000001177,0.20500000000000002
156,329.6280000001177,0.12
157,329.6320000001177,0.05
158,329.63600000011775,-0.01
159,329.64000000011777,-0.075
160,329.6440000001178,-0.11
161,329.6480000001178,-0.145
162,329.6520000001178,-0.17
163,329.65600000011784,-0.20500000000000002
164,329.66000000011786,-0.24
165,329.6640000001179,-0.265
166,329.6680000001179,-0.275
167,329.6720000001179,-0.275
168,329.67600000011794,-0.265
169,329.68000000011796,-0.255
170,329.684000000118,-0.255
171,329.688000000118,-0.255
172,329.692000000118,-0.245
173,329.69600000011803,-0.22
174,329.70000000011805,-0.185
175,329.70400000011807,-0.165
176,329.7080000001181,-0.15
177,329.7120000001181,-0.155
178,329.71600000011813,-0.17
179,329.72000000011815,-0.19
180,329.72400000011817,-0.20500000000000002
181,329.7280000001182,-0.21
182,329.7320000001182,-0.19
183,329.7360000001182,-0.165
184,329.74000000011824,-0.135
185,329.74400000011826,-0.105
186,329.7480000001183,-0.085
187,329.7520000001183,-0.07
188,329.7560000001183,-0.06
189,329.76000000011834,-0.06
190,329.76400000011836,-0.05
191,329.7680000001184,-0.03
192,329.7720000001184,-0.005
193,329.7760000001184,0.03
194,329.78000000011843,0.055
195,329.78400000011845,0.075
196,329.7880000001185,0.085
197,329.7920000001185,0.09
198,329.7960000001185,0.07
199,329.80000000011853,0.055
200,329.80400000011855,0.045
201,329.80800000011857,0.04
202,329.8120000001186,0.035
203,329.8160000001186,0.04
204,329.8200000001186,0.02
205,329.82400000011864,-0.005
206,329.82800000011866,-0.04
207,329.8320000001187,-0.095
208,329.8360000001187,-0.12
209,329.8400000001187,-0.15
210,329.84400000011874,-0.18
211,329.84800000011876,-0.195
212,329.8520000001188,-0.19
213,329.8560000001188,-0.185
214,329.8600000001188,-0.17500000000000002
215,329.86400000011884,-0.16
216,329.86800000011885,-0.14
217,329.8720000001189,-0.125
218,329.8760000001189,-0.11
219,329.8800000001189,-0.105
220,329.88400000011893,-0.1
221,329.88800000011895,-0.105
222,329.89200000011897,-0.11
223,329.896000000119,-0.115
224,329.900000000119,-0.13
225,329.904000000119,-0.12
226,329.90800000011905,-0.115
227,329.91200000011906,-0.1
228,329.9160000001191,-0.07
229,329.9200000001191,-0.045
230,329.9240000001191,-0.015
231,329.92800000011914,0.0
232,329.93200000011916,0.0
233,329.9360000001192,-0.02
234,329.9400000001192,-0.04
235,329.9440000001192,-0.07
236,329.94800000011924,-0.095
237,329.95200000011926,-0.105
238,329.9560000001193,-0.09
239,329.9600000001193,-0.065
240,329.9640000001193,-0.03
241,329.96800000011933,-0.01
242,329.97200000011935,0.0
243,329.97600000011937,-0.005
244,329.9800000001194,-0.005
245,329.9840000001194,0.0
246,329.9880000001194,0.0
247,329.99200000011945,0.0
248,329.99600000011947,0.0
249,330.0000000001195,0.005
250,330.0040000001195,0.025
251,330.0080000001195,0.04
252,330.01200000011954,0.05
253,330.01600000011956,0.055
254,330.0200000001196,0.04
255,330.0240000001196,0.035
256,330.0280000001196,0.02
257,330.03200000011964,0.01
258,330.03600000011966,0.0
259,330.0400000001197,-0.02
260,330.0440000001197,-0.045
261,330.0480000001197,-0.07
262,330.05200000011973,-0.095
263,330.05600000011975,-0.13
264,330.06000000011977,-0.16
265,330.0640000001198,-0.185
266,330.0680000001198,-0.195
267,330.07200000011983,-0.19
268,330.07600000011985,-0.19
269,330.08000000011987,-0.185
270,330.0840000001199,-0.195
271,330.0880000001199,-0.215
272,330.0920000001199,-0.23
273,330.09600000011994,-0.245
274,330.10000000011996,-0.255
275,330.10400000012,-0.24
276,330.10800000012,-0.23
277,330.11200000012,-0.21
278,330.11600000012004,-0.185
279,330.12000000012006,-0.165
280,330.1240000001201,-0.14
281,330.1280000001201,-0.105
282,330.1320000001201,-0.085
283,330.13600000012013,-0.06
284,330.14000000012015,-0.04
285,330.1440000001202,-0.025
286,330.1480000001202,-0.015
287,330.1520000001202,0.005
288,330.15600000012023,0.045
289,330.16000000012025,0.07
290,330.16400000012027,0.08
291,330.1680000001203,0.07
292,330.1720000001203,0.055
293,330.1760000001203,0.025
294,330.18000000012034,-0.005
295,330.18400000012036,-0.03
296,330.1880000001204,-0.045
297,330.1920000001204,-0.06
298,330.1960000001204,-0.07
299,330.20000000012044,-0.07
300,330.20400000012046,-0.07
301,330.2080000001205,-0.065
302,330.2120000001205,-0.07
303,330.2160000001205,-0.085
304,330.22000000012054,-0.09
305,330.22400000012055,-0.13
306,330.2280000001206,-0.16
307,330.2320000001206,-0.185
308,330.2360000001206,-0.195
309,330.24000000012063,-0.195
310,330.24400000012065,-0.19
311,330.24800000012067,-0.21
312,330.2520000001207,-0.21
313,330.2560000001207,-0.215
314,330.2600000001207,-0.21
315,330.26400000012075,-0.2
316,330.26800000012076,-0.185
317,330.2720000001208,-0.17500000000000002
318,330.2760000001208,-0.155
319,330.2800000001208,-0.115
320,330.28400000012084,-0.08
321,330.28800000012086,-0.05
322,330.2920000001209,-0.04
323,330.2960000001209,-0.045
324,330.3000000001209,-0.07
325,330.30400000012094,-0.115
326,330.30800000012096,-0.17500000000000002
327,330.312000000121,-0.22
328,330.316000000121,-0.255
329,330.320000000121,-0.28
330,330.32400000012103,-0.28
331,330.32800000012105,-0.27
332,330.33200000012107,-0.25
333,330.3360000001211,-0.215
334,330.3400000001211,-0.17
335,330.3440000001211,-0.11
336,330.34800000012115,-0.045
337,330.35200000012117,0.015
338,330.3560000001212,0.075
339,330.3600000001212,0.12
340,330.3640000001212,0.15
341,330.36800000012124,0.17
342,330.37200000012126,0.17
343,330.3760000001213,0.16
344,330.3800000001213,0.155
345,330.3840000001213,0.155
346,330.38800000012134,0.16
347,330.39200000012136,0.19
348,330.3960000001214,0.2
349,330.4000000001214,0.21
350,330.4040000001214,0.20500000000000002
351,330.40800000012143,0.21
352,330.41200000012145,0.185
353,330.41600000012147,0.16
354,330.4200000001215,0.125
355,330.4240000001215,0.075
356,330.42800000012153,0.02
357,330.43200000012155,-0.025
358,330.43600000012157,-0.085
359,330.4400000001216,-0.16
360,330.4440000001216,-0.23
361,330.4480000001216,-0.295
362,330.45200000012164,-0.36
363,330.45600000012166,-0.41000000000000003
364,330.4600000001217,-0.455
365,330.4640000001217,-0.495
366,330.4680000001217,-0.525
367,330.47200000012174,-0.55
368,330.47600000012176,-0.545
369,330.4800000001218,-0.49
370,330.4840000001218,-0.405
371,330.4880000001218,-0.295
372,330.49200000012183,-0.2
373,330.49600000012185,-0.125
374,330.5000000001219,-0.045
375,330.5040000001219,0.0
376,330.5080000001219,0.06
377,330.51200000012193,0.13
378,330.51600000012195,0.215
379,330.52000000012197,0.29
380,330.524000000122,0.365
381,330.528000000122,0.43
382,330.532000000122,0.485
383,330.53600000012204,0.515
384,330.54000000012206,0.535
385,330.5440000001221,0.635
386,330.5480000001221,0.58
387,330.5520000001221,0.365
388,330.55600000012214,0.305
389,330.56000000012216,0.245
390,330.5640000001222,0.17
391,330.5680000001222,0.115
392,330.5720000001222,0.07
393,330.57600000012224,0.0
394,330.58000000012225,-0.07
395,330.5840000001223,-0.14
396,330.5880000001223,-0.2
397,330.5920000001223,-0.23500000000000001
398,330.59600000012233,-0.13
399,330.60000000012235,-0.27
400,330.60400000012237,-0.295
401,330.6080000001224,-0.31
402,330.6120000001224,-0.31
403,330.6160000001224,-0.305
404,330.62000000012245,-0.275
405,330.62400000012246,-0.21
406,330.6280000001225,-0.125
407,330.6320000001225,-0.01
408,330.6360000001225,0.1
409,330.64000000012254,0.20500000000000002
410,330.64400000012256,0.29
411,330.6480000001226,0.36
412,330.6520000001226,0.405
413,330.6560000001226,0.41500000000000004
414,330.66000000012264,0.4
415,330.66400000012266,0.355
416,330.6680000001227,0.3
417,330.6720000001227,0.23500000000000001
418,330.6760000001227,0.15
419,330.68000000012273,0.065
420,330.68400000012275,-0.01
421,330.68800000012277,-0.085
422,330.6920000001228,-0.155
423,330.6960000001228,-0.225
424,330.7000000001228,-0.295
425,330.70400000012285,-0.355
426,330.70800000012287,-0.39
427,330.7120000001229,-0.4
428,330.7160000001229,-0.395
429,330.7200000001229,-0.385
430,330.72400000012294,-0.37
431,330.72800000012296,-0.36
432,330.732000000123,-0.335
433,330.736000000123,-0.315
434,330.740000000123,-0.275
435,330.74400000012304,-0.22
436,330.74800000012306,-0.15
437,330.7520000001231,-0.07
438,330.7560000001231,-0.005
439,330.7600000001231,0.055
440,330.76400000012313,0.105
441,330.76800000012315,0.135
442,330.77200000012317,0.16
443,330.7760000001232,0.19
444,330.7800000001232,0.21
445,330.7840000001232,0.245
446,330.78800000012325,0.29
447,330.79200000012327,0.31
448,330.7960000001233,0.335
449,330.8000000001233,0.34
450,330.8040000001233,0.33
451,330.80800000012334,0.325
452,330.81200000012336,0.29
453,330.8160000001234,0.24
454,330.8200000001234,0.16
455,330.8240000001234,0.065
456,330.82800000012344,-0.045
457,330.83200000012346,-0.16
458,330.8360000001235,-0.27
459,330.8400000001235,-0.355
460,330.8440000001235,-0.425
461,330.84800000012353,-0.48
462,330.85200000012355,-0.49
463,330.8560000001236,-0.49
464,330.8600000001236,-0.48
465,330.8640000001236,-0.44
466,330.86800000012363,-0.39
467,330.87200000012365,-0.35000000000000003
468,330.87600000012367,-0.28500000000000003
469,330.8800000001237,-0.22
470,330.8840000001237,-0.145
471,330.8880000001237,-0.08
472,330.89200000012374,-0.01
473,330.89600000012376,0.025
474,330.9000000001238,0.06
475,330.9040000001238,0.085
476,330.9080000001238,0.125
477,330.91200000012384,0.155
478,330.91600000012386,0.185
479,330.9200000001239,0.2
480,330.9240000001239,0.215
481,330.9280000001239,0.21
482,330.93200000012394,0.195
483,330.93600000012395,0.155
484,330.940000000124,0.125
485,330.944000000124,0.07
486,330.948000000124,0.01
487,330.95200000012403,-0.055
488,330.95600000012405,-0.125
489,330.96000000012407,-0.18
490,330.9640000001241,-0.245
491,330.9680000001241,-0.295
492,330.9720000001241,-0.335
493,330.97600000012415,-0.355
494,330.98000000012416,-0.355
495,330.9840000001242,-0.33
496,330.9880000001242,-0.305
497,330.9920000001242,-0.26
498,330.99600000012424,-0.20500000000000002
499,331.00000000012426,-0.15
500,331.0040000001243,-0.11
501,331.0080000001243,-0.05
502,331.0120000001243,-0.01
503,331.01600000012434,0.01
504,331.02000000012436,0.04
505,331.0240000001244,0.07
506,331.0280000001244,0.115
507,331.0320000001244,0.145
508,331.03600000012443,0.16
509,331.04000000012445,0.16
510,331.04400000012447,0.155
511,331.0480000001245,0.135
512,331.0520000001245,0.12
513,331.0560000001245,0.075
514,331.06000000012455,0.01
515,331.06400000012457,-0.07
516,331.0680000001246,-0.17
517,331.0720000001246,-0.26
518,331.0760000001246,-0.335
519,331.08000000012464,-0.385
520,331.08400000012466,-0.425
521,331.0880000001247,-0.465
522,331.0920000001247,-0.495
523,331.0960000001247,-0.53
524,331.10000000012474,-0.5650000000000001
525,331.10400000012476,-0.5750000000000001
526,331.1080000001248,-0.5700000000000001
527,331.1120000001248,-0.535
528,331.1160000001248,-0.485
529,331.12000000012483,-0.41000000000000003
530,331.12400000012485,-0.33
531,331.12800000012487,-0.245
532,331.1320000001249,-0.16
533,331.1360000001249,-0.085
534,331.1400000001249,-0.015
535,331.14400000012495,0.04
536,331.14800000012497,0.095
537,331.152000000125,0.155
538,331.156000000125,0.21
539,331.160000000125,0.26
540,331.16400000012504,0.29
541,331.16800000012506,0.3
542,331.1720000001251,0.295
543,331.1760000001251,0.28500000000000003
544,331.1800000001251,0.275
545,331.18400000012514,0.26
546,331.18800000012516,0.26
547,331.1920000001252,0.25
548,331.1960000001252,0.23
549,331.2000000001252,0.18
550,331.20400000012523,0.115
551,331.20800000012525,0.015
552,331.2120000001253,-0.065
553,331.2160000001253,-0.165
554,331.2200000001253,-0.25
555,331.22400000012533,-0.33
556,331.22800000012535,-0.405
557,331.23200000012537,-0.465
558,331.2360000001254,-0.47500000000000003
559,331.2400000001254,-0.47000000000000003
560,331.2440000001254,-0.43
561,331.24800000012544,-0.39
562,331.25200000012546,-0.34
563,331.2560000001255,-0.3
564,331.2600000001255,-0.26
565,331.2640000001255,-0.215
566,331.26800000012554,-0.17
567,331.27200000012556,-0.12
568,331.2760000001256,-0.065
569,331.2800000001256,-0.03
570,331.2840000001256,0.01
571,331.28800000012563,0.045
572,331.29200000012565,0.085
573,331.2960000001257,0.115
574,331.3000000001257,0.13
575,331.3040000001257,0.135
576,331.30800000012573,0.115
577,331.31200000012575,0.08
578,331.31600000012577,0.035
579,331.3200000001258,-0.005
580,331.3240000001258,-0.055
581,331.3280000001258,-0.09
582,331.33200000012584,-0.12
583,331.33600000012586,-0.155
584,331.3400000001259,-0.19
585,331.3440000001259,-0.245
586,331.3480000001259,-0.31
587,331.35200000012594,-0.365
588,331.35600000012596,-0.42
589,331.360000000126,-0.45
590,331.364000000126,-0.445
591,331.368000000126,-0.43
592,331.37200000012604,-0.4
593,331.37600000012606,-0.365
594,331.3800000001261,-0.31
595,331.3840000001261,-0.245
596,331.3880000001261,-0.165
597,331.39200000012613,-0.095
598,331.39600000012615,-0.02
599,331.40000000012617,0.02
600,331.4040000001262,0.06
601,331.4080000001262,0.08
602,331.4120000001262,0.095
603,331.41600000012625,0.105
604,331.42000000012627,0.11
605,331.4240000001263,0.105
606,331.4280000001263,0.1
607,331.4320000001263,0.09
608,331.43600000012634,0.085
609,331.44000000012636,0.08
610,331.4440000001264,0.075
611,331.4480000001264,0.055
612,331.4520000001264,0.02
613,331.45600000012644,-0.025
614,331.46000000012646,-0.09
615,331.4640000001265,-0.155
616,331.4680000001265,-0.215
617,331.4720000001265,-0.28
618,331.47600000012653,-0.34500000000000003
619,331.48000000012655,-0.39
620,331.48400000012657,-0.43
621,331.4880000001266,-0.44
622,331.4920000001266,-0.455
623,331.4960000001266,-0.455
624,331.50000000012665,-0.435
625,331.50400000012667,-0.41000000000000003
626,331.5080000001267,-0.375
627,331.5120000001267,-0.325
628,331.5160000001267,-0.28
629,331.52000000012674,-0.23
630,331.52400000012676,-0.19
631,331.5280000001268,-0.145
632,331.5320000001268,-0.095
633,331.5360000001268,-0.045
634,331.54000000012684,0.005
635,331.54400000012686,0.07
636,331.5480000001269,0.135
637,331.5520000001269,0.19
638,331.5560000001269,0.225
639,331.56000000012693,0.26
640,331.56400000012695,0.28500000000000003
641,331.568000000127,0.3
642,331.572000000127,0.31
643,331.576000000127,0.315
644,331.58000000012703,0.3
645,331.58400000012705,0.28500000000000003
646,331.58800000012707,0.26
647,331.5920000001271,0.23
648,331.5960000001271,0.19
649,331.6000000001271,0.15
650,331.60400000012714,0.08
651,331.60800000012716,-0.02
652,331.6120000001272,-0.135
653,331.6160000001272,-0.265
654,331.6200000001272,-0.395
655,331.62400000012724,-0.51
656,331.62800000012726,-0.62
657,331.6320000001273,-0.715
658,331.6360000001273,-0.775
659,331.6400000001273,-0.8
660,331.64400000012733,-0.79
661,331.64800000012735,-0.745
662,331.6520000001274,-0.675
663,331.6560000001274,-0.585
664,331.6600000001274,-0.51
665,331.66400000012743,-0.425
666,331.66800000012745,-0.335
667,331.67200000012747,-0.245
668,331.6760000001275,-0.15
669,331.6800000001275,-0.045
670,331.6840000001275,0.035
671,331.68800000012754,0.125
672,331.69200000012756,0.2
673,331.6960000001276,0.25
674,331.7000000001276,0.28
675,331.7040000001276,0.28
676,331.70800000012764,0.28
677,331.71200000012766,0.265
678,331.7160000001277,0.23
679,331.7200000001277,0.195
680,331.7240000001277,0.14
681,331.72800000012774,0.07
682,331.73200000012775,-0.005
683,331.7360000001278,-0.07
684,331.7400000001278,-0.14
685,331.7440000001278,-0.185
686,331.74800000012783,-0.225
687,331.75200000012785,-0.255
688,331.75600000012787,-0.26
689,331.7600000001279,-0.27
690,331.7640000001279,-0.265
691,331.7680000001279,-0.255
692,331.77200000012795,-0.225
693,331.77600000012796,-0.20500000000000002
694,331.780000000128,-0.185
695,331.784000000128,-0.17500000000000002
696,331.788000000128,-0.155
697,331.79200000012804,-0.145
698,331.79600000012806,-0.12
699,331.8000000001281,-0.095
700,331.8040000001281,-0.08
701,331.8080000001281,-0.045
702,331.81200000012814,-0.025
703,331.81600000012816,-0.01
704,331.8200000001282,-0.01
705,331.8240000001282,-0.015
706,331.8280000001282,-0.025
707,331.83200000012823,-0.025
708,331.83600000012825,-0.025
709,331.84000000012827,-0.015
710,331.8440000001283,0.0
711,331.8480000001283,0.015
712,331.8520000001283,0.04
713,331.85600000012835,0.06
714,331.86000000012837,0.06
715,331.8640000001284,0.055
716,331.8680000001284,0.03
717,331.8720000001284,-0.01
718,331.87600000012844,-0.08
719,331.88000000012846,-0.165
720,331.8840000001285,-0.27
721,331.8880000001285,-0.375
722,331.8920000001285,-0.48
723,331.89600000012854,-0.56
724,331.90000000012856,-0.595
725,331.9040000001286,-0.6
726,331.9080000001286,-0.5650000000000001
727,331.9120000001286,-0.515
728,331.91600000012863,-0.445
729,331.92000000012865,-0.37
730,331.9240000001287,-0.3
731,331.9280000001287,-0.23
732,331.9320000001287,-0.17
733,331.93600000012873,-0.11
734,331.94000000012875,-0.045
735,331.94400000012877,0.025
736,331.9480000001288,0.09
737,331.9520000001288,0.14
738,331.9560000001288,0.17500000000000002
739,331.96000000012884,0.19
740,331.96400000012886,0.195
741,331.9680000001289,0.185
742,331.9720000001289,0.17
743,331.9760000001289,0.15
744,331.98000000012894,0.125
745,331.98400000012896,0.085
746,331.988000000129,0.045
747,331.992000000129,0.005
748,331.996000000129,-0.025
749,332.00000000012903,-0.055
750,332.00400000012905,-0.08
751,332.0080000001291,-0.1
752,332.0120000001291,-0.125
753,332.0160000001291,-0.15
754,332.02000000012913,-0.185
755,332.02400000012915,-0.21
756,332.02800000012917,-0.23
757,332.0320000001292,-0.24
758,332.0360000001292,-0.23500000000000001
759,332.0400000001292,-0.2
760,332.04400000012924,-0.14
761,332.04800000012926,-0.07
762,332.0520000001293,0.005
763,332.0560000001293,0.085
764,332.0600000001293,0.155
765,332.06400000012934,0.21
766,332.06800000012936,0.25
767,332.0720000001294,0.265
768,332.0760000001294,0.28500000000000003
769,332.0800000001294,0.29
770,332.08400000012944,0.29
771,332.08800000012945,0.27
772,332.0920000001295,0.245
773,332.0960000001295,0.21
774,332.1000000001295,0.17
775,332.10400000012953,0.135
776,332.10800000012955,0.1
777,332.11200000012957,0.065
778,332.1160000001296,0.035
779,332.1200000001296,-0.005
780,332.1240000001296,-0.06
781,332.12800000012965,-0.12
782,332.13200000012966,-0.21
783,332.1360000001297,-0.3
784,332.1400000001297,-0.38
785,332.1440000001297,-0.46
786,332.14800000012974,-0.52
787,332.15200000012976,-0.5650000000000001
788,332.1560000001298,-0.595
789,332.1600000001298,-0.615
790,332.1640000001298,-0.625
791,332.16800000012984,-0.63
792,332.17200000012986,-0.605
793,332.1760000001299,-0.555
794,332.1800000001299,-0.51
795,332.1840000001299,-0.45
796,332.18800000012993,-0.39
797,332.19200000012995,-0.335
798,332.19600000012997,-0.27
799,332.20000000013,-0.20500000000000002
800,332.20400000013,-0.135
801,332.20800000013,-0.05
802,332.21200000013005,0.025
803,332.21600000013007,0.1
804,332.2200000001301,0.17
805,332.2240000001301,0.22
806,332.2280000001301,0.255
807,332.23200000013014,0.28500000000000003
808,332.23600000013016,0.3
809,332.2400000001302,0.3
810,332.2440000001302,0.3
811,332.2480000001302,0.29
812,332.25200000013024,0.275
813,332.25600000013026,0.24
814,332.2600000001303,0.18
815,332.2640000001303,0.11
816,332.2680000001303,0.035
817,332.27200000013033,-0.03
818,332.27600000013035,-0.09
819,332.28000000013037,-0.135
820,332.2840000001304,-0.165
821,332.2880000001304,-0.2
822,332.29200000013043,-0.225
823,332.29600000013045,-0.23500000000000001
824,332.30000000013047,-0.22
825,332.3040000001305,-0.17500000000000002
826,332.3080000001305,-0.105
827,332.3120000001305,-0.025
828,332.31600000013054,0.03
829,332.32000000013056,0.08
830,332.3240000001306,0.11
831,332.3280000001306,0.12
832,332.3320000001306,0.12
833,332.33600000013064,0.115
834,332.34000000013066,0.115
835,332.3440000001307,0.13
836,332.3480000001307,0.15
837,332.3520000001307,0.165
838,332.35600000013073,0.17500000000000002
839,332.36000000013075,0.17500000000000002
840,332.3640000001308,0.155
841,332.3680000001308,0.12
842,332.3720000001308,0.07
843,332.37600000013083,0.005
844,332.38000000013085,-0.07
845,332.38400000013087,-0.165
846,332.3880000001309,-0.255
847,332.3920000001309,-0.32
848,332.3960000001309,-0.35000000000000003
849,332.40000000013094,-0.375
850,332.40400000013096,-0.38
851,332.408000000131,-0.365
852,332.412000000131,-0.355
853,332.416000000131,-0.33
854,332.42000000013104,-0.315
855,332.42400000013106,-0.295
856,332.4280000001311,-0.27
857,332.4320000001311,-0.25
858,332.4360000001311,-0.22
859,332.44000000013114,-0.19
860,332.44400000013115,-0.155
861,332.4480000001312,-0.125
862,332.4520000001312,-0.11
863,332.4560000001312,-0.085
864,332.46000000013123,-0.055
865,332.46400000013125,-0.025
866,332.46800000013127,-0.005
867,332.4720000001313,0.0
868,332.4760000001313,0.005
869,332.4800000001313,0.0
870,332.48400000013135,-0.01
871,332.48800000013136,-0.01
872,332.4920000001314,-0.015
873,332.4960000001314,-0.03
874,332.5000000001314,-0.05
875,332.50400000013144,-0.085
876,332.50800000013146,-0.13
877,332.5120000001315,-0.17500000000000002
878,332.5160000001315,-0.215
879,332.5200000001315,-0.26
880,332.52400000013154,-0.31
881,332.52800000013156,-0.34500000000000003
882,332.5320000001316,-0.37
883,332.5360000001316,-0.365
884,332.5400000001316,-0.355
885,332.54400000013163,-0.335
886,332.54800000013165,-0.305
887,332.55200000013167,-0.29
888,332.5560000001317,-0.28
889,332.5600000001317,-0.26
890,332.5640000001317,-0.225
891,332.56800000013175,-0.16
892,332.57200000013177,-0.07
893,332.5760000001318,0.01
894,332.5800000001318,0.09
895,332.5840000001318,0.15
896,332.58800000013184,0.17
897,332.59200000013186,0.18
898,332.5960000001319,0.17
899,332.6000000001319,0.17500000000000002
900,332.6040000001319,0.17
901,332.60800000013194,0.18
902,332.61200000013196,0.195
903,332.616000000132,0.20500000000000002
904,332.620000000132,0.225
905,332.624000000132,0.225
906,332.62800000013203,0.21
907,332.63200000013205,0.18
908,332.63600000013207,0.135
909,332.6400000001321,0.085
910,332.6440000001321,0.04
911,332.64800000013213,0.005
912,332.65200000013215,-0.04
913,332.65600000013217,-0.09
914,332.6600000001322,-0.145
915,332.6640000001322,-0.19
916,332.6680000001322,-0.23
917,332.67200000013224,-0.26
918,332.67600000013226,-0.27
919,332.6800000001323,-0.275
920,332.6840000001323,-0.28
921,332.6880000001323,-0.29
922,332.69200000013234,-0.305
923,332.69600000013236,-0.325
924,332.7000000001324,-0.34
925,332.7040000001324,-0.35000000000000003
926,332.7080000001324,-0.355
927,332.71200000013243,-0.335
928,332.71600000013245,-0.325
929,332.7200000001325,-0.295
930,332.7240000001325,-0.265
931,332.7280000001325,-0.245
932,332.73200000013253,-0.215
933,332.73600000013255,-0.185
934,332.74000000013257,-0.145
935,332.7440000001326,-0.1
936,332.7480000001326,-0.05
937,332.7520000001326,-0.015
938,332.75600000013264,0.0
939,332.76000000013266,0.0
940,332.7640000001327,-0.005
941,332.7680000001327,-0.015
942,332.7720000001327,-0.035
943,332.77600000013274,-0.05
944,332.78000000013276,-0.07
945,332.7840000001328,-0.09
946,332.7880000001328,-0.1
947,332.7920000001328,-0.095
948,332.79600000013284,-0.085
949,332.80000000013285,-0.07
950,332.8040000001329,-0.05
951,332.8080000001329,-0.045
952,332.8120000001329,-0.06
953,332.81600000013293,-0.07
954,332.82000000013295,-0.09
955,332.82400000013297,-0.11
956,332.828000000133,-0.13
957,332.832000000133,-0.165
958,332.836000000133,-0.21
959,332.84000000013305,-0.27
960,332.84400000013306,-0.33
961,332.8480000001331,-0.375
962,332.8520000001331,-0.4
963,332.8560000001331,-0.405
964,332.86000000013314,-0.37
965,332.86400000013316,-0.305
966,332.8680000001332,-0.225
967,332.8720000001332,-0.13
968,332.8760000001332,-0.045
969,332.88000000013324,0.03
970,332.88400000013326,0.095
971,332.8880000001333,0.14
972,332.8920000001333,0.185
973,332.8960000001333,0.21
974,332.90000000013333,0.22
975,332.90400000013335,0.22
976,332.90800000013337,0.20500000000000002
977,332.9120000001334,0.17500000000000002
978,332.9160000001334,0.135
979,332.9200000001334,0.07
980,332.92400000013345,0.01
981,332.92800000013347,-0.03
982,332.9320000001335,-0.075
983,332.9360000001335,-0.115
984,332.9400000001335,-0.155
985,332.94400000013354,-0.2
986,332.94800000013356,-0.225
987,332.9520000001336,-0.23500000000000001
988,332.9560000001336,-0.24
989,332.9600000001336,-0.225
990,332.96400000013364,-0.20500000000000002
991,332.96800000013366,-0.17500000000000002
992,332.9720000001337,-0.135
993,332.9760000001337,-0.095
994,332.9800000001337,-0.07
995,332.98400000013373,-0.04
996,332.98800000013375,-0.04
997,332.99200000013377,-0.04
998,332.9960000001338,-0.04
999,333.0000000001338,-0.045
1000,333.00400000013383,-0.05
1001,333.00800000013385,-0.055
1002,333.01200000013387,-0.06
1003,333.0160000001339,-0.055
1004,333.0200000001339,-0.045
1005,333.0240000001339,-0.025
1006,333.02800000013394,-0.015
1007,333.03200000013396,-0.015
1008,333.036000000134,-0.025
1009,333.040000000134,-0.035
1010,333.044000000134,-0.045
1011,333.04800000013404,-0.06
1012,333.05200000013406,-0.075
1013,333.0560000001341,-0.085
1014,333.0600000001341,-0.095
1015,333.0640000001341,-0.09
1016,333.06800000013413,-0.09
1017,333.07200000013415,-0.1
1018,333.0760000001342,-0.105
1019,333.0800000001342,-0.125
1020,333.0840000001342,-0.14
1021,333.08800000013423,-0.15
1022,333.09200000013425,-0.13
1023,333.09600000013427,-0.095
1024,333.1000000001343,-0.05
1025,333.1040000001343,-0.02
1026,333.1080000001343,-0.005
1027,333.11200000013434,-0.005
1028,333.11600000013436,0.0
1029,333.1200000001344,0.0
1030,333.1240000001344,0.0
1031,333.1280000001344,0.01
1032,333.13200000013444,0.025
1033,333.13600000013446,0.05
1034,333.1400000001345,0.075
1035,333.1440000001345,0.085
1036,333.1480000001345,0.08
1037,333.15200000013454,0.05
1038,333.15600000013455,-0.01
1039,333.1600000001346,-0.09
1040,333.1640000001346,-0.16
1041,333.1680000001346,-0.24
1042,333.17200000013463,-0.28500000000000003
1043,333.17600000013465,-0.3
1044,333.18000000013467,-0.3
1045,333.1840000001347,-0.295
1046,333.1880000001347,-0.28
1047,333.1920000001347,-0.265
1048,333.19600000013475,-0.25
1049,333.20000000013476,-0.255
1050,333.2040000001348,-0.26
1051,333.2080000001348,-0.27
1052,333.2120000001348,-0.275
1053,333.21600000013484,-0.28
1054,333.22000000013486,-0.26
1055,333.2240000001349,-0.23500000000000001
1056,333.2280000001349,-0.2
1057,333.2320000001349,-0.165
1058,333.23600000013494,-0.125
1059,333.24000000013496,-0.1
1060,333.244000000135,-0.065
1061,333.248000000135,-0.03
1062,333.252000000135,0.0
1063,333.25600000013503,0.03
1064,333.26000000013505,0.05
1065,333.26400000013507,0.07
1066,333.2680000001351,0.08
1067,333.2720000001351,0.07
1068,333.2760000001351,0.055
1069,333.28000000013515,0.04
1070,333.28400000013517,0.035
1071,333.2880000001352,0.05
1072,333.2920000001352,0.065
1073,333.2960000001352,0.065
1074,333.30000000013524,0.055
1075,333.30400000013526,0.03
1076,333.3080000001353,-0.01
1077,333.3120000001353,-0.06
1078,333.3160000001353,-0.11
1079,333.32000000013534,-0.145
1080,333.32400000013536,-0.17500000000000002
1081,333.3280000001354,-0.195
1082,333.3320000001354,-0.195
1083,333.3360000001354,-0.18
1084,333.34000000013543,-0.165
1085,333.34400000013545,-0.15
1086,333.34800000013547,-0.135
1087,333.3520000001355,-0.12
1088,333.3560000001355,-0.1
1089,333.3600000001355,-0.075
1090,333.36400000013555,-0.05
1091,333.36800000013557,-0.015
1092,333.3720000001356,0.0
1093,333.3760000001356,0.025
1094,333.3800000001356,0.045
1095,333.38400000013564,0.05
1096,333.38800000013566,0.055
1097,333.3920000001357,0.055
1098,333.3960000001357,0.03
1099,333.4000000001357,-0.01
1100,333.40400000013574,-0.06
1101,333.40800000013576,-0.11
1102,333.4120000001358,-0.145
1103,333.4160000001358,-0.155
1104,333.4200000001358,-0.145
1105,333.42400000013583,-0.135
1106,333.42800000013585,-0.115
1107,333.4320000001359,-0.11
1108,333.4360000001359,-0.09
1109,333.4400000001359,-0.08
1110,333.44400000013593,-0.07
1111,333.44800000013595,-0.055
1112,333.45200000013597,-0.045
1113,333.456000000136,-0.035
1114,333.460000000136,-0.035
1115,333.464000000136,-0.04
1116,333.46800000013604,-0.06
1117,333.47200000013606,-0.08
1118,333.4760000001361,-0.1
1119,333.4800000001361,-0.115
1120,333.4840000001361,-0.125
1121,333.48800000013614,-0.12
1122,333.49200000013616,-0.11
1123,333.4960000001362,-0.095
1124,333.5000000001362,-0.075
1125,333.5040000001362,-0.055
1126,333.50800000013624,-0.035
1127,333.51200000013625,-0.035
1128,333.5160000001363,-0.045
1129,333.5200000001363,-0.07
1130,333.5240000001363,-0.11
1131,333.52800000013633,-0.15
1132,333.53200000013635,-0.18
1133,333.53600000013637,-0.2
1134,333.5400000001364,-0.215
1135,333.5440000001364,-0.215
1136,333.5480000001364,-0.21
1137,333.55200000013645,-0.185
1138,333.55600000013646,-0.16
1139,333.5600000001365,-0.125
1140,333.5640000001365,-0.08
1141,333.5680000001365,-0.035
1142,333.57200000013654,0.0
1143,333.57600000013656,0.035
1144,333.5800000001366,0.05
1145,333.5840000001366,0.065
1146,333.5880000001366,0.08
1147,333.59200000013664,0.09
1148,333.59600000013666,0.09
1149,333.6000000001367,0.095
1150,333.6040000001367,0.09
1151,333.6080000001367,0.1
1152,333.61200000013673,0.095
1153,333.61600000013675,0.11
1154,333.62000000013677,0.125
1155,333.6240000001368,0.135
1156,333.6280000001368,0.16
1157,333.6320000001368,0.165
1158,333.63600000013685,0.17
1159,333.64000000013687,0.16
1160,333.6440000001369,0.135
1161,333.6480000001369,0.1
1162,333.6520000001369,0.055
1163,333.65600000013694,0.01
1164,333.66000000013696,-0.045
1165,333.664000000137,-0.11
1166,333.668000000137,-0.18
1167,333.672000000137,-0.25
1168,333.67600000013704,-0.315
1169,333.68000000013706,-0.35000000000000003
1170,333.6840000001371,-0.37
1171,333.6880000001371,-0.37
1172,333.6920000001371,-0.35000000000000003
1173,333.69600000013713,-0.32
1174,333.70000000013715,-0.295
1175,333.70400000013717,-0.275
1176,333.7080000001372,-0.245
1177,333.7120000001372,-0.23
1178,333.7160000001372,-0.22
1179,333.72000000013725,-0.21
1180,333.72400000013727,-0.185
1181,333.7280000001373,-0.155
1182,333.7320000001373,-0.11
1183,333.7360000001373,-0.08
1184,333.74000000013734,-0.035
1185,333.74400000013736,-0.01
1186,333.7480000001374,0.02
1187,333.7520000001374,0.035
1188,333.7560000001374,0.065
1189,333.76000000013744,0.085
1190,333.76400000013746,0.11
1191,333.7680000001375,0.12
1192,333.7720000001375,0.12
1193,333.7760000001375,0.105
1194,333.78000000013753,0.105
1195,333.78400000013755,0.1
1196,333.7880000001376,0.105
1197,333.7920000001376,0.095
1198,333.7960000001376,0.09
1199,333.80000000013763,0.065
1200,333.80400000013765,0.035
1201,333.80800000013767,0.005
1202,333.8120000001377,-0.01
1203,333.8160000001377,-0.04
1204,333.8200000001377,-0.08
1205,333.82400000013774,-0.12
1206,333.82800000013776,-0.15
1207,333.8320000001378,-0.165
1208,333.8360000001378,-0.17
1209,333.8400000001378,-0.155
1210,333.84400000013784,-0.12
1211,333.84800000013786,-0.115
1212,333.8520000001379,-0.13
1213,333.8560000001379,-0.165
1214,333.8600000001379,-0.21
1215,333.86400000013793,-0.245
1216,333.86800000013795,-0.27
1217,333.872000000138,-0.28
1218,333.876000000138,-0.28
1219,333.880000000138,-0.26
1220,333.88400000013803,-0.245
1221,333.88800000013805,-0.225
1222,333.89200000013807,-0.2
1223,333.8960000001381,-0.17
1224,333.9000000001381,-0.11
1225,333.9040000001381,-0.045
1226,333.90800000013814,0.02
1227,333.91200000013816,0.095
1228,333.9160000001382,0.17
1229,333.9200000001382,0.23
1230,333.9240000001382,0.27
1231,333.92800000013824,0.29
1232,333.93200000013826,0.28500000000000003
1233,333.9360000001383,0.25
1234,333.9400000001383,0.19
1235,333.9440000001383,0.11
1236,333.94800000013834,0.035
1237,333.95200000013836,-0.055
1238,333.9560000001384,-0.14
1239,333.9600000001384,-0.24
1240,333.9640000001384,-0.325
1241,333.96800000013843,-0.4
1242,333.97200000013845,-0.445
1243,333.97600000013847,-0.48
1244,333.9800000001385,-0.47000000000000003
1245,333.9840000001385,-0.45
1246,333.9880000001385,-0.42
1247,333.99200000013855,-0.37
1248,333.99600000013857,-0.315
1249,334.0000000001386,-0.26
1250,334.0040000001386,-0.22
1251,334.0080000001386,-0.2
1252,334.01200000013864,-0.185
1253,334.01600000013866,-0.185
1254,334.0200000001387,-0.19
1255,334.0240000001387,-0.195
1256,334.0280000001387,-0.19
1257,334.03200000013874,-0.15
1258,334.03600000013876,-0.115
1259,334.0400000001388,-0.07
1260,334.0440000001388,-0.03
1261,334.0480000001388,0.0
1262,334.05200000013883,0.015
1263,334.05600000013885,0.025
1264,334.06000000013887,0.045
1265,334.0640000001389,0.065
1266,334.0680000001389,0.075
1267,334.0720000001389,0.095
1268,334.07600000013895,0.115
1269,334.08000000013897,0.14
1270,334.084000000139,0.165
1271,334.088000000139,0.17500000000000002
1272,334.092000000139,0.18
1273,334.09600000013904,0.17
1274,334.10000000013906,0.16
1275,334.1040000001391,0.15
1276,334.1080000001391,0.135
1277,334.1120000001391,0.14
1278,334.11600000013914,0.135
1279,334.12000000013916,0.13
1280,334.1240000001392,0.115
1281,334.1280000001392,0.095
1282,334.1320000001392,0.065
1283,334.13600000013923,0.05
1284,334.14000000013925,0.045
1285,334.1440000001393,0.04
1286,334.1480000001393,0.04
1287,334.1520000001393,0.05
1288,334.15600000013933,0.055
1289,334.16000000013935,0.065
1290,334.16400000013937,0.07
1291,334.1680000001394,0.09
1292,334.1720000001394,0.1
1293,334.1760000001394,0.085
1294,334.18000000013944,0.065
1295,334.18400000013946,0.04
1296,334.1880000001395,0.015
1297,334.1920000001395,0.005
1298,334.1960000001395,0.005
1299,334.20000000013954,0.01
1300,334.20400000013956,0.0
1301,334.2080000001396,-0.02
1302,334.2120000001396,-0.045
1303,334.2160000001396,-0.07
1304,334.22000000013963,-0.075
1305,334.22400000013965,-0.08
1306,334.2280000001397,-0.085
1307,334.2320000001397,-0.095
1308,334.2360000001397,-0.09
1309,334.24000000013973,-0.09
1310,334.24400000013975,-0.095
1311,334.24800000013977,-0.08
1312,334.2520000001398,-0.055
1313,334.2560000001398,-0.04
1314,334.2600000001398,-0.03
1315,334.26400000013984,-0.025
1316,334.26800000013986,0.0
1317,334.2720000001399,0.02
1318,334.2760000001399,0.065
1319,334.2800000001399,0.1
1320,334.28400000013994,0.135
1321,334.28800000013996,0.155
1322,334.29200000014,0.15
1323,334.29600000014,0.145
1324,334.30000000014,0.12
1325,334.30400000014004,0.11
1326,334.30800000014005,0.09
1327,334.3120000001401,0.075
1328,334.3160000001401,0.04
1329,334.3200000001401,0.0
1330,334.32400000014013,-0.025
1331,334.32800000014015,-0.03
1332,334.33200000014017,-0.03
1333,334.3360000001402,-0.015
1334,334.3400000001402,-0.01
1335,334.3440000001402,0.0
1336,334.34800000014025,0.005
1337,334.35200000014027,0.0
1338,334.3560000001403,-0.02
1339,334.3600000001403,-0.065
1340,334.3640000001403,-0.135
1341,334.36800000014034,-0.22
1342,334.37200000014036,-0.315
1343,334.3760000001404,-0.4
1344,334.3800000001404,-0.435
1345,334.3840000001404,-0.435
1346,334.38800000014044,-0.385
1347,334.39200000014046,-0.31
1348,334.3960000001405,-0.215
1349,334.4000000001405,-0.12
1350,334.4040000001405,-0.02
1351,334.40800000014053,0.05
1352,334.41200000014055,0.135
1353,334.41600000014057,0.195
1354,334.4200000001406,0.24
1355,334.4240000001406,0.27
1356,334.4280000001406,0.28
1357,334.43200000014065,0.275
1358,334.43600000014067,0.26
1359,334.4400000001407,0.26
1360,334.4440000001407,0.255
1361,334.4480000001407,0.23500000000000001
1362,334.45200000014074,0.22
1363,334.45600000014076,0.195
1364,334.4600000001408,0.17
1365,334.4640000001408,0.135
1366,334.4680000001408,0.08
1367,334.47200000014084,0.02
1368,334.47600000014086,-0.04
1369,334.4800000001409,-0.105
1370,334.4840000001409,-0.165
1371,334.4880000001409,-0.245
1372,334.49200000014093,-0.32
1373,334.49600000014095,-0.39
1374,334.500000000141,-0.45
1375,334.504000000141,-0.48
1376,334.508000000141,-0.485
1377,334.51200000014103,-0.455
1378,334.51600000014105,-0.43
1379,334.52000000014107,-0.385
1380,334.5240000001411,-0.335
1381,334.5280000001411,-0.27
1382,334.5320000001411,-0.195
1383,334.53600000014114,-0.12
1384,334.54000000014116,-0.045
1385,334.5440000001412,0.01
1386,334.5480000001412,0.065
1387,334.5520000001412,0.105
1388,334.55600000014124,0.13
1389,334.56000000014126,0.145
1390,334.5640000001413,0.155
1391,334.5680000001413,0.15
1392,334.5720000001413,0.135
1393,334.57600000014133,0.125
1394,334.58000000014135,0.11
1395,334.5840000001414,0.095
1396,334.5880000001414,0.065
1397,334.5920000001414,0.035
1398,334.59600000014143,-0.005
1399,334.60000000014145,-0.06
1400,334.60400000014147,-0.14
1401,334.6080000001415,-0.225
1402,334.6120000001415,-0.29
1403,334.6160000001415,-0.335
1404,334.62000000014154,-0.36
1405,334.62400000014156,-0.375
1406,334.6280000001416,-0.385
1407,334.6320000001416,-0.41000000000000003
1408,334.6360000001416,-0.435
1409,334.64000000014164,-0.455
1410,334.64400000014166,-0.48
1411,334.6480000001417,-0.48
1412,334.6520000001417,-0.455
1413,334.6560000001417,-0.4
1414,334.66000000014174,-0.315
1415,334.66400000014175,-0.215
1416,334.6680000001418,-0.085
1417,334.6720000001418,0.03
1418,334.6760000001418,0.14
1419,334.68000000014183,0.225
1420,334.68400000014185,0.3
1421,334.68800000014187,0.34500000000000003
1422,334.6920000001419,0.365
1423,334.6960000001419,0.385
1424,334.7000000001419,0.39
1425,334.70400000014195,0.39
1426,334.70800000014196,0.385
1427,334.712000000142,0.365
1428,334.716000000142,0.335
1429,334.720000000142,0.32
1430,334.72400000014204,0.295
1431,334.72800000014206,0.28
1432,334.7320000001421,0.265
1433,334.7360000001421,0.25
1434,334.7400000001421,0.23500000000000001
1435,334.74400000014214,0.19
1436,334.74800000014216,0.135
1437,334.7520000001422,0.04
1438,334.7560000001422,-0.06
1439,334.7600000001422,-0.19
1440,334.76400000014223,-0.335
1441,334.76800000014225,-0.485
1442,334.77200000014227,-0.655
1443,334.7760000001423,-0.795
1444,334.7800000001423,-0.895
1445,334.7840000001423,-0.935
1446,334.78800000014235,-0.9
1447,334.79200000014237,-0.805
1448,334.7960000001424,-0.68
1449,334.8000000001424,-0.54
1450,334.8040000001424,-0.395
1451,334.80800000014244,-0.25
1452,334.81200000014246,-0.12
1453,334.8160000001425,-0.01
1454,334.8200000001425,0.08
1455,334.8240000001425,0.145
1456,334.82800000014254,0.19
1457,334.83200000014256,0.23
1458,334.8360000001426,0.255
1459,334.8400000001426,0.28500000000000003
1460,334.8440000001426,0.31
1461,334.84800000014263,0.34
1462,334.85200000014265,0.35000000000000003
1463,334.85600000014267,0.355
1464,334.8600000001427,0.34
1465,334.8640000001427,0.315
1466,334.86800000014273,0.28
1467,334.87200000014275,0.24
1468,334.87600000014277,0.185
1469,334.8800000001428,0.13
1470,334.8840000001428,0.055
1471,334.8880000001428,-0.015
1472,334.89200000014284,-0.095
1473,334.89600000014286,-0.165
1474,334.9000000001429,-0.22
1475,334.9040000001429,-0.275
1476,334.9080000001429,-0.32
1477,334.91200000014294,-0.36
1478,334.91600000014296,-0.385
1479,334.920000000143,-0.405
1480,334.924000000143,-0.395
1481,334.928000000143,-0.36
1482,334.93200000014303,-0.31
1483,334.93600000014305,-0.245
1484,334.9400000001431,-0.17500000000000002
1485,334.9440000001431,-0.11
1486,334.9480000001431,-0.06
1487,334.95200000014313,-0.02
1488,334.95600000014315,-0.005
1489,334.96000000014317,-0.015
1490,334.9640000001432,-0.035
1491,334.9680000001432,-0.055
1492,334.9720000001432,-0.07
1493,334.97600000014324,-0.075
1494,334.98000000014326,-0.06
1495,334.9840000001433,-0.055
1496,334.9880000001433,-0.04
1497,334.9920000001433,-0.045
1498,334.99600000014334,-0.035
1499,335.00000000014336,-0.05
1500,335.0040000001434,-0.075
1501,335.0080000001434,-0.095
1502,335.0120000001434,-0.115
1503,335.01600000014344,-0.13
1504,335.02000000014345,-0.145
1505,335.0240000001435,-0.145
1506,335.0280000001435,-0.16
1507,335.0320000001435,-0.18
1508,335.03600000014353,-0.2
1509,335.04000000014355,-0.225
1510,335.04400000014357,-0.25
1511,335.0480000001436,-0.265
1512,335.0520000001436,-0.275
1513,335.0560000001436,-0.26
1514,335.06000000014365,-0.245
1515,335.06400000014366,-0.23
1516,335.0680000001437,-0.195
1517,335.0720000001437,-0.155
1518,335.0760000001437,-0.105
1519,335.08000000014374,-0.04
1520,335.08400000014376,0.02
1521,335.0880000001438,0.09
1522,335.0920000001438,0.15
1523,335.0960000001438,0.2
1524,335.10000000014384,0.225
1525,335.10400000014386,0.23500000000000001
1526,335.1080000001439,0.22
1527,335.1120000001439,0.17500000000000002
1528,335.1160000001439,0.11
1529,335.12000000014393,0.03
1530,335.12400000014395,-0.045
1531,335.12800000014397,-0.135
1532,335.132000000144,-0.215
1533,335.136000000144,-0.295
1534,335.140000000144,-0.36
1535,335.14400000014405,-0.41500000000000004
1536,335.14800000014407,-0.45
1537,335.1520000001441,-0.465
1538,335.1560000001441,-0.47000000000000003
1539,335.1600000001441,-0.46
1540,335.16400000014414,-0.47000000000000003
1541,335.16800000014416,-0.495
1542,335.1720000001442,-0.535
1543,335.1760000001442,-0.5650000000000001
1544,335.1800000001442,-0.58
1545,335.18400000014424,-0.5700000000000001
1546,335.18800000014426,-0.54
1547,335.1920000001443,-0.5
1548,335.1960000001443,-0.45
1549,335.2000000001443,-0.39
1550,335.20400000014433,-0.325
1551,335.20800000014435,-0.255
1552,335.21200000014437,-0.18
1553,335.2160000001444,-0.11
1554,335.2200000001444,-0.04
1555,335.22400000014443,0.02
1556,335.22800000014445,0.08
1557,335.23200000014447,0.135
1558,335.2360000001445,0.17
1559,335.2400000001445,0.195
1560,335.2440000001445,0.2
1561,335.24800000014454,0.19
1562,335.25200000014456,0.15
1563,335.2560000001446,0.1
1564,335.2600000001446,0.04
1565,335.2640000001446,0.005
1566,335.26800000014464,-0.02
1567,335.27200000014466,-0.03
1568,335.2760000001447,-0.04
1569,335.2800000001447,-0.055
1570,335.2840000001447,-0.08
1571,335.28800000014473,-0.105
1572,335.29200000014475,-0.125
1573,335.2960000001448,-0.14
1574,335.3000000001448,-0.15
1575,335.3040000001448,-0.155
1576,335.30800000014483,-0.15
1577,335.31200000014485,-0.155
1578,335.31600000014487,-0.17500000000000002
1579,335.3200000001449,-0.21
1580,335.3240000001449,-0.255
1581,335.3280000001449,-0.295
1582,335.33200000014494,-0.32
1583,335.33600000014496,-0.335
1584,335.340000000145,-0.34
1585,335.344000000145,-0.335
1586,335.348000000145,-0.325
1587,335.35200000014504,-0.29
1588,335.35600000014506,-0.26
1589,335.3600000001451,-0.22
1590,335.3640000001451,-0.19
1591,335.3680000001451,-0.17500000000000002
1592,335.37200000014514,-0.16
1593,335.37600000014515,-0.145
1594,335.3800000001452,-0.135
1595,335.3840000001452,-0.12
1596,335.3880000001452,-0.11
1597,335.39200000014523,-0.095
1598,335.39600000014525,-0.085
1599,335.40000000014527,-0.075
1600,335.4040000001453,-0.08
1601,335.4080000001453,-0.09
1602,335.4120000001453,-0.085
1603,335.41600000014535,-0.085
1604,335.42000000014536,-0.065
1605,335.4240000001454,-0.03
1606,335.4280000001454,-0.01
1607,335.4320000001454,0.01
1608,335.43600000014544,0.02
1609,335.44000000014546,0.035
1610,335.4440000001455,0.035
1611,335.4480000001455,0.03
1612,335.4520000001455,0.015
1613,335.45600000014554,-0.015
1614,335.46000000014556,-0.04
1615,335.4640000001456,-0.065
1616,335.4680000001456,-0.09
1617,335.4720000001456,-0.12
1618,335.47600000014563,-0.145
1619,335.48000000014565,-0.16
1620,335.48400000014567,-0.17
1621,335.4880000001457,-0.16
1622,335.4920000001457,-0.145
1623,335.4960000001457,-0.13
1624,335.50000000014575,-0.11
1625,335.50400000014577,-0.095
1626,335.5080000001458,-0.09
1627,335.5120000001458,-0.085
1628,335.5160000001458,-0.09
1629,335.52000000014584,-0.095
1630,335.52400000014586,-0.09
1631,335.5280000001459,-0.08
1632,335.5320000001459,-0.055
1633,335.5360000001459,-0.04
1634,335.54000000014594,-0.025
1635,335.54400000014596,-0.045
1636,335.548000000146,-0.08
1637,335.552000000146,-0.115
1638,335.556000000146,-0.16
1639,335.56000000014603,-0.185
1640,335.56400000014605,-0.2
1641,335.56800000014607,-0.20500000000000002
1642,335.5720000001461,-0.20500000000000002
1643,335.5760000001461,-0.20500000000000002
1644,335.58000000014613,-0.215
1645,335.58400000014615,-0.22
1646,335.58800000014617,-0.22
1647,335.5920000001462,-0.21
1648,335.5960000001462,-0.195
1649,335.6000000001462,-0.195
1650,335.60400000014624,-0.185
1651,335.60800000014626,-0.17500000000000002
1652,335.6120000001463,-0.16
1653,335.6160000001463,-0.14
1654,335.6200000001463,-0.125
1655,335.62400000014634,-0.1
1656,335.62800000014636,-0.075
1657,335.6320000001464,-0.055
1658,335.6360000001464,-0.035
1659,335.6400000001464,-0.015
1660,335.64400000014643,0.0
1661,335.64800000014645,0.005
1662,335.6520000001465,0.02
1663,335.6560000001465,0.045
1664,335.6600000001465,0.08
1665,335.66400000014653,0.12
1666,335.66800000014655,0.155
1667,335.67200000014657,0.17500000000000002
1668,335.6760000001466,0.185
1669,335.6800000001466,0.16
1670,335.6840000001466,0.12
1671,335.68800000014664,0.07
1672,335.69200000014666,0.005
1673,335.6960000001467,-0.065
1674,335.7000000001467,-0.145
1675,335.7040000001467,-0.2
1676,335.70800000014674,-0.245
1677,335.71200000014676,-0.25
1678,335.7160000001468,-0.24
1679,335.7200000001468,-0.22
1680,335.7240000001468,-0.19
1681,335.72800000014684,-0.16
1682,335.73200000014685,-0.135
1683,335.7360000001469,-0.125
1684,335.7400000001469,-0.135
1685,335.7440000001469,-0.16
1686,335.74800000014693,-0.20500000000000002
1687,335.75200000014695,-0.245
1688,335.75600000014697,-0.275
1689,335.760000000147,-0.295
1690,335.764000000147,-0.31
1691,335.768000000147,-0.29
1692,335.77200000014705,-0.26
1693,335.77600000014706,-0.22
1694,335.7800000001471,-0.155
1695,335.7840000001471,-0.115
1696,335.7880000001471,-0.08
1697,335.79200000014714,-0.055
1698,335.79600000014716,-0.035
1699,335.8000000001472,-0.015
1700,335.8040000001472,0.0
1701,335.8080000001472,0.0
1702,335.81200000014724,0.01
1703,335.81600000014726,0.005
1704,335.8200000001473,0.025
1705,335.8240000001473,0.04
1706,335.8280000001473,0.06
1707,335.83200000014733,0.06
1708,335.83600000014735,0.045
1709,335.84000000014737,0.015
1710,335.8440000001474,-0.025
1711,335.8480000001474,-0.06
1712,335.8520000001474,-0.085
1713,335.85600000014745,-0.115
1714,335.86000000014747,-0.115
1715,335.8640000001475,-0.105
1716,335.8680000001475,-0.1
1717,335.8720000001475,-0.085
1718,335.87600000014754,-0.08
1719,335.88000000014756,-0.075
1720,335.8840000001476,-0.065
1721,335.8880000001476,-0.07
1722,335.8920000001476,-0.07
1723,335.89600000014764,-0.07
1724,335.90000000014766,-0.08
1725,335.9040000001477,-0.08
1726,335.9080000001477,-0.085
1727,335.9120000001477,-0.08
1728,335.91600000014773,-0.065
1729,335.92000000014775,-0.035
1730,335.92400000014777,-0.005
1731,335.9280000001478,0.01
1732,335.9320000001478,0.025
1733,335.9360000001478,0.025
1734,335.94000000014785,0.01
1735,335.94400000014787,0.0
1736,335.9480000001479,-0.02
1737,335.9520000001479,-0.055
1738,335.9560000001479,-0.09
1739,335.96000000014794,-0.13
1740,335.96400000014796,-0.16
1741,335.968000000148,-0.19
1742,335.972000000148,-0.20500000000000002
1743,335.976000000148,-0.225
1744,335.98000000014804,-0.25
1745,335.98400000014806,-0.28500000000000003
1746,335.9880000001481,-0.32
1747,335.9920000001481,-0.36
1748,335.9960000001481,-0.395
1749,336.00000000014813,-0.42
1750,336.00400000014815,-0.425
1751,336.0080000001482,-0.42
1752,336.0120000001482,-0.385
1753,336.0160000001482,-0.32
1754,336.02000000014823,-0.23
1755,336.02400000014825,-0.13
1756,336.02800000014827,-0.03
1757,336.0320000001483,0.05
1758,336.0360000001483,0.13
1759,336.0400000001483,0.165
1760,336.04400000014834,0.185
1761,336.04800000014836,0.195
1762,336.0520000001484,0.195
1763,336.0560000001484,0.195
1764,336.0600000001484,0.19
1765,336.06400000014844,0.17
1766,336.06800000014846,0.16
1767,336.0720000001485,0.165
1768,336.0760000001485,0.17
1769,336.0800000001485,0.16
1770,336.08400000014854,0.15
1771,336.08800000014855,0.135
1772,336.0920000001486,0.125
1773,336.0960000001486,0.105
1774,336.1000000001486,0.085
1775,336.10400000014863,0.065
1776,336.10800000014865,0.03
1777,336.11200000014867,-0.015
1778,336.1160000001487,-0.055
1779,336.1200000001487,-0.095
1780,336.1240000001487,-0.145
1781,336.12800000014875,-0.21
1782,336.13200000014876,-0.29
1783,336.1360000001488,-0.355
1784,336.1400000001488,-0.41500000000000004
1785,336.1440000001488,-0.445
1786,336.14800000014884,-0.445
1787,336.15200000014886,-0.445
1788,336.1560000001489,-0.435
1789,336.1600000001489,-0.42
1790,336.1640000001489,-0.39
1791,336.16800000014894,-0.33
1792,336.17200000014896,-0.265
1793,336.176000000149,-0.18
1794,336.180000000149,-0.09
1795,336.184000000149,0.0
1796,336.18800000014903,0.07
1797,336.19200000014905,0.145
1798,336.19600000014907,0.20500000000000002
1799,336.2000000001491,0.23500000000000001
1800,336.2040000001491,0.255
1801,336.2080000001491,0.25
1802,336.21200000014915,0.25
1803,336.21600000014917,0.245
1804,336.2200000001492,0.23500000000000001
1805,336.2240000001492,0.22
1806,336.2280000001492,0.19
1807,336.23200000014924,0.16
1808,336.23600000014926,0.125
1809,336.2400000001493,0.075
1810,336.2440000001493,0.02
1811,336.2480000001493,-0.025
1812,336.25200000014934,-0.085
1813,336.25600000014936,-0.145
1814,336.2600000001494,-0.185
1815,336.2640000001494,-0.24
1816,336.2680000001494,-0.295
1817,336.27200000014943,-0.34
1818,336.27600000014945,-0.375
1819,336.28000000014947,-0.385
1820,336.2840000001495,-0.375
1821,336.2880000001495,-0.34
1822,336.2920000001495,-0.295
1823,336.29600000014955,-0.265
1824,336.30000000014957,-0.225
1825,336.3040000001496,-0.19
1826,336.3080000001496,-0.17
1827,336.3120000001496,-0.145
1828,336.31600000014964,-0.14
1829,336.32000000014966,-0.14
1830,336.3240000001497,-0.145
1831,336.3280000001497,-0.14
1832,336.3320000001497,-0.145
1833,336.33600000014974,-0.145
1834,336.34000000014976,-0.14
1835,336.3440000001498,-0.11
1836,336.3480000001498,-0.065
1837,336.3520000001498,-0.01
1838,336.35600000014983,0.045
1839,336.36000000014985,0.1
1840,336.3640000001499,0.13
1841,336.3680000001499,0.15
1842,336.3720000001499,0.16
1843,336.37600000014993,0.165
1844,336.38000000014995,0.17500000000000002
1845,336.38400000014997,0.185
1846,336.38800000015,0.19
1847,336.39200000015,0.19
1848,336.39600000015,0.19
1849,336.40000000015004,0.16
1850,336.40400000015006,0.11
1851,336.4080000001501,0.055
1852,336.4120000001501,-0.01
1853,336.4160000001501,-0.065
1854,336.42000000015014,-0.095
1855,336.42400000015016,-0.1
1856,336.4280000001502,-0.08
1857,336.4320000001502,-0.04
1858,336.4360000001502,-0.005
1859,336.44000000015023,0.035
1860,336.44400000015025,0.045
1861,336.4480000001503,0.025
1862,336.4520000001503,-0.01
1863,336.4560000001503,-0.07
1864,336.46000000015033,-0.13
1865,336.46400000015035,-0.195
1866,336.46800000015037,-0.26
1867,336.4720000001504,-0.305
1868,336.4760000001504,-0.315
1869,336.4800000001504,-0.32
1870,336.48400000015044,-0.315
1871,336.48800000015046,-0.305
1872,336.4920000001505,-0.29
1873,336.4960000001505,-0.27
1874,336.5000000001505,-0.245
1875,336.50400000015054,-0.215
1876,336.50800000015056,-0.185
1877,336.5120000001506,-0.165
1878,336.5160000001506,-0.14
1879,336.5200000001506,-0.085
1880,336.52400000015064,-0.01
1881,336.52800000015066,0.06
1882,336.5320000001507,0.115
1883,336.5360000001507,0.17
1884,336.5400000001507,0.215
1885,336.54400000015073,0.23500000000000001
1886,336.54800000015075,0.23500000000000001
1887,336.55200000015077,0.22
1888,336.5560000001508,0.20500000000000002
1889,336.5600000001508,0.17500000000000002
1890,336.5640000001508,0.17
1891,336.56800000015085,0.165
1892,336.57200000015087,0.155
1893,336.5760000001509,0.13
1894,336.5800000001509,0.09
1895,336.5840000001509,0.055
1896,336.58800000015094,0.02
1897,336.59200000015096,0.0
1898,336.596000000151,-0.03
1899,336.600000000151,-0.04
1900,336.604000000151,-0.05
1901,336.60800000015104,-0.035
1902,336.61200000015106,-0.02
1903,336.6160000001511,-0.01
1904,336.6200000001511,-0.02
1905,336.6240000001511,-0.04
1906,336.62800000015113,-0.055
1907,336.63200000015115,-0.075
1908,336.63600000015117,-0.075
1909,336.6400000001512,-0.11
1910,336.6440000001512,-0.145
1911,336.6480000001512,-0.2
1912,336.65200000015125,-0.245
1913,336.65600000015127,-0.265
1914,336.6600000001513,-0.275
1915,336.6640000001513,-0.25
1916,336.6680000001513,-0.225
1917,336.67200000015134,-0.215
1918,336.67600000015136,-0.21
1919,336.6800000001514,-0.2
1920,336.6840000001514,-0.185
1921,336.6880000001514,-0.15
1922,336.69200000015144,-0.115
1923,336.69600000015146,-0.075
1924,336.7000000001515,-0.015
1925,336.7040000001515,0.03
1926,336.7080000001515,0.09
1927,336.71200000015153,0.125
1928,336.71600000015155,0.16
1929,336.7200000001516,0.17500000000000002
1930,336.7240000001516,0.18
1931,336.7280000001516,0.18
1932,336.73200000015163,0.17500000000000002
1933,336.73600000015165,0.165
1934,336.74000000015167,0.15
1935,336.7440000001517,0.14
1936,336.7480000001517,0.11
1937,336.7520000001517,0.075
1938,336.75600000015174,0.025
1939,336.76000000015176,-0.045
1940,336.7640000001518,-0.11
1941,336.7680000001518,-0.16
1942,336.7720000001518,-0.19
1943,336.77600000015184,-0.19
1944,336.78000000015186,-0.195
1945,336.7840000001519,-0.195
1946,336.7880000001519,-0.21
1947,336.7920000001519,-0.22
1948,336.79600000015193,-0.215
1949,336.80000000015195,-0.20500000000000002
1950,336.804000000152,-0.185
1951,336.808000000152,-0.145
1952,336.812000000152,-0.12
1953,336.81600000015203,-0.085
1954,336.82000000015205,-0.065
1955,336.82400000015207,-0.045
1956,336.8280000001521,-0.02
1957,336.8320000001521,0.0
1958,336.8360000001521,0.025
1959,336.84000000015214,0.045
1960,336.84400000015216,0.06
1961,336.8480000001522,0.06
1962,336.8520000001522,0.06
1963,336.8560000001522,0.06
1964,336.86000000015224,0.04
1965,336.86400000015226,0.02
1966,336.8680000001523,0.0
1967,336.8720000001523,-0.015
1968,336.8760000001523,-0.015
1969,336.88000000015234,-0.01
1970,336.88400000015235,0.005
1971,336.8880000001524,0.035
1972,336.8920000001524,0.055
1973,336.8960000001524,0.05
1974,336.90000000015243,0.04
1975,336.90400000015245,0.025
1976,336.90800000015247,-0.005
1977,336.9120000001525,-0.035
1978,336.9160000001525,-0.06
1979,336.9200000001525,-0.085
1980,336.92400000015255,-0.115
1981,336.92800000015257,-0.15
1982,336.9320000001526,-0.185
1983,336.9360000001526,-0.225
1984,336.9400000001526,-0.255
1985,336.94400000015264,-0.275
1986,336.94800000015266,-0.27
1987,336.9520000001527,-0.255
1988,336.9560000001527,-0.245
1989,336.9600000001527,-0.215
1990,336.96400000015274,-0.2
1991,336.96800000015276,-0.17
1992,336.9720000001528,-0.145
1993,336.9760000001528,-0.115
1994,336.9800000001528,-0.09
1995,336.98400000015283,-0.06
1996,336.98800000015285,-0.04
1997,336.99200000015287,-0.03
1998,336.9960000001529,-0.045
1999,337.0000000001529,-0.06
2000,337.0040000001529,-0.085
2001,337.00800000015295,-0.11
2002,337.01200000015297,-0.13
2003,337.016000000153,-0.14
2004,337.020000000153,-0.14
2005,337.024000000153,-0.13
2006,337.02800000015304,-0.12
2007,337.03200000015306,-0.115
2008,337.0360000001531,-0.115
2009,337.0400000001531,-0.095
2010,337.0440000001531,-0.09
2011,337.04800000015314,-0.09
2012,337.05200000015316,-0.09
2013,337.0560000001532,-0.095
2014,337.0600000001532,-0.105
2015,337.0640000001532,-0.11
2016,337.06800000015323,-0.12
2017,337.07200000015325,-0.125
2018,337.0760000001533,-0.11
2019,337.0800000001533,-0.085
2020,337.0840000001533,-0.045
2021,337.08800000015333,-0.005
2022,337.09200000015335,0.035
2023,337.09600000015337,0.065
2024,337.1000000001534,0.095
2025,337.1040000001534,0.11
2026,337.1080000001534,0.115
2027,337.11200000015344,0.12
2028,337.11600000015346,0.125
2029,337.1200000001535,0.115
2030,337.1240000001535,0.11
2031,337.1280000001535,0.085
2032,337.13200000015354,0.05
2033,337.13600000015356,0.0
2034,337.1400000001536,-0.06
2035,337.1440000001536,-0.145
2036,337.1480000001536,-0.225
2037,337.15200000015363,-0.305
2038,337.15600000015365,-0.385
2039,337.1600000001537,-0.465
2040,337.1640000001537,-0.55
2041,337.1680000001537,-0.615
2042,337.17200000015373,-0.665
2043,337.17600000015375,-0.6950000000000001
2044,337.18000000015377,-0.715
2045,337.1840000001538,-0.715
2046,337.1880000001538,-0.6900000000000001
2047,337.1920000001538,-0.64
2048,337.19600000015384,-0.58
2049,337.20000000015386,-0.495
2050,337.2040000001539,-0.395
2051,337.2080000001539,-0.305
2052,337.2120000001539,-0.21
2053,337.21600000015394,-0.115
2054,337.22000000015396,-0.02
2055,337.224000000154,0.055
2056,337.228000000154,0.115
2057,337.232000000154,0.165
2058,337.23600000015404,0.2
2059,337.24000000015405,0.225
2060,337.2440000001541,0.25
2061,337.2480000001541,0.275
2062,337.2520000001541,0.3
2063,337.25600000015413,0.325
2064,337.26000000015415,0.33
2065,337.26400000015417,0.335
2066,337.2680000001542,0.335
2067,337.2720000001542,0.325
2068,337.2760000001542,0.29
2069,337.28000000015425,0.23500000000000001
2070,337.28400000015426,0.16
2071,337.2880000001543,0.07
2072,337.2920000001543,-0.025
2073,337.2960000001543,-0.135
2074,337.30000000015434,-0.245
2075,337.30400000015436,-0.34
2076,337.3080000001544,-0.43
2077,337.3120000001544,-0.5
2078,337.3160000001544,-0.5650000000000001
2079,337.32000000015444,-0.615
2080,337.32400000015446,-0.645
2081,337.3280000001545,-0.66
2082,337.3320000001545,-0.645
2083,337.3360000001545,-0.61
2084,337.34000000015453,-0.55
2085,337.34400000015455,-0.48
2086,337.34800000015457,-0.39
2087,337.3520000001546,-0.3
2088,337.3560000001546,-0.20500000000000002
2089,337.3600000001546,-0.12
2090,337.36400000015465,-0.04
2091,337.36800000015467,0.01
2092,337.3720000001547,0.055
2093,337.3760000001547,0.095
2094,337.3800000001547,0.13
2095,337.38400000015474,0.165
2096,337.38800000015476,0.20500000000000002
2097,337.3920000001548,0.24
2098,337.3960000001548,0.28500000000000003
2099,337.4000000001548,0.31
2100,337.40400000015484,0.32
2101,337.40800000015486,0.295
2102,337.4120000001549,0.24
2103,337.4160000001549,0.155
2104,337.4200000001549,0.055
2105,337.42400000015493,-0.045
2106,337.42800000015495,-0.16
2107,337.43200000015497,-0.27
2108,337.436000000155,-0.375
2109,337.440000000155,-0.455
2110,337.44400000015503,-0.505
2111,337.44800000015505,-0.525
2112,337.45200000015507,-0.51
2113,337.4560000001551,-0.465
2114,337.4600000001551,-0.405
2115,337.4640000001551,-0.34
2116,337.46800000015514,-0.265
2117,337.47200000015516,-0.185
2118,337.4760000001552,-0.1
2119,337.4800000001552,-0.025
2120,337.4840000001552,0.04
2121,337.48800000015524,0.11
2122,337.49200000015526,0.15
2123,337.4960000001553,0.165
2124,337.5000000001553,0.18
2125,337.5040000001553,0.17
2126,337.50800000015533,0.165
2127,337.51200000015535,0.145
2128,337.5160000001554,0.135
2129,337.5200000001554,0.115
2130,337.5240000001554,0.09
2131,337.52800000015543,0.07
2132,337.53200000015545,0.06
2133,337.53600000015547,0.045
2134,337.5400000001555,0.04
2135,337.5440000001555,0.03
2136,337.5480000001555,0.015
2137,337.55200000015554,-0.015
2138,337.55600000015556,-0.065
2139,337.5600000001556,-0.125
2140,337.5640000001556,-0.19
2141,337.5680000001556,-0.275
2142,337.57200000015564,-0.36
2143,337.57600000015566,-0.455
2144,337.5800000001557,-0.525
2145,337.5840000001557,-0.56
2146,337.5880000001557,-0.555
2147,337.59200000015574,-0.525
2148,337.59600000015575,-0.455
2149,337.6000000001558,-0.375
2150,337.6040000001558,-0.3
2151,337.6080000001558,-0.225
2152,337.61200000015583,-0.145
2153,337.61600000015585,-0.06
2154,337.62000000015587,0.025
2155,337.6240000001559,0.11
2156,337.6280000001559,0.2
2157,337.6320000001559,0.275
2158,337.63600000015595,0.34
2159,337.64000000015596,0.38
2160,337.644000000156,0.4
2161,337.648000000156,0.385
2162,337.652000000156,0.34
2163,337.65600000015604,0.295
2164,337.66000000015606,0.23
2165,337.6640000001561,0.165
2166,337.6680000001561,0.11
2167,337.6720000001561,0.035
2168,337.67600000015614,-0.015
2169,337.68000000015616,-0.07
2170,337.6840000001562,-0.12
2171,337.6880000001562,-0.16
2172,337.6920000001562,-0.19
2173,337.69600000015623,-0.21
2174,337.70000000015625,-0.24
2175,337.70400000015627,-0.295
2176,337.7080000001563,-0.33
2177,337.7120000001563,-0.385
2178,337.7160000001563,-0.44
2179,337.72000000015635,-0.47500000000000003
2180,337.72400000015637,-0.48
2181,337.7280000001564,-0.47000000000000003
2182,337.7320000001564,-0.445
2183,337.7360000001564,-0.405
2184,337.74000000015644,-0.355
2185,337.74400000015646,-0.29
2186,337.7480000001565,-0.23500000000000001
2187,337.7520000001565,-0.185
2188,337.7560000001565,-0.13
2189,337.76000000015654,-0.08
2190,337.76400000015656,-0.025
2191,337.7680000001566,0.025
2192,337.7720000001566,0.095
2193,337.7760000001566,0.17500000000000002
2194,337.78000000015663,0.24
2195,337.78400000015665,0.305
2196,337.78800000015667,0.355
2197,337.7920000001567,0.395
2198,337.7960000001567,0.43
2199,337.80000000015673,0.44
2200,337.80400000015675,0.435
2201,337.80800000015677,0.405
2202,337.8120000001568,0.335
2203,337.8160000001568,0.25
2204,337.8200000001568,0.14
2205,337.82400000015684,0.01
2206,337.82800000015686,-0.12
2207,337.8320000001569,-0.25
2208,337.8360000001569,-0.365
2209,337.8400000001569,-0.465
2210,337.84400000015694,-0.54
2211,337.84800000015696,-0.58
2212,337.852000000157,-0.605
2213,337.856000000157,-0.605
2214,337.860000000157,-0.595
2215,337.86400000015703,-0.5700000000000001
2216,337.86800000015705,-0.52
2217,337.8720000001571,-0.465
2218,337.8760000001571,-0.4
2219,337.8800000001571,-0.34
2220,337.88400000015713,-0.28500000000000003
2221,337.88800000015715,-0.22
2222,337.89200000015717,-0.155
2223,337.8960000001572,-0.09
2224,337.9000000001572,-0.02
2225,337.9040000001572,0.03
2226,337.90800000015724,0.075
2227,337.91200000015726,0.11
2228,337.9160000001573,0.155
2229,337.9200000001573,0.20500000000000002
2230,337.9240000001573,0.26
2231,337.92800000015734,0.305
2232,337.93200000015736,0.32
2233,337.9360000001574,0.32
2234,337.9400000001574,0.3
2235,337.9440000001574,0.28
2236,337.94800000015744,0.245
2237,337.95200000015745,0.23500000000000001
2238,337.9560000001575,0.23
2239,337.9600000001575,0.23
2240,337.9640000001575,0.215
2241,337.96800000015753,0.19
2242,337.97200000015755,0.135
2243,337.97600000015757,0.065
2244,337.9800000001576,-0.03
2245,337.9840000001576,-0.135
2246,337.9880000001576,-0.25
2247,337.99200000015765,-0.36
2248,337.99600000015766,-0.465
2249,338.0000000001577,-0.55
2250,338.0040000001577,-0.6
2251,338.0080000001577,-0.625
2252,338.01200000015774,-0.625
2253,338.01600000015776,-0.605
2254,338.0200000001578,-0.5700000000000001
2255,338.0240000001578,-0.535
2256,338.0280000001578,-0.485
2257,338.03200000015784,-0.425
2258,338.03600000015786,-0.34500000000000003
2259,338.0400000001579,-0.26
2260,338.0440000001579,-0.17
2261,338.0480000001579,-0.09
2262,338.05200000015793,-0.03
2263,338.05600000015795,0.0
2264,338.06000000015797,0.01
2265,338.064000000158,0.02
2266,338.068000000158,0.015
2267,338.072000000158,0.01
2268,338.07600000015805,0.025
2269,338.08000000015807,0.035
2270,338.0840000001581,0.065
2271,338.0880000001581,0.1
2272,338.0920000001581,0.145
2273,338.09600000015814,0.17500000000000002
2274,338.10000000015816,0.185
2275,338.1040000001582,0.17
2276,338.1080000001582,0.135
2277,338.1120000001582,0.095
2278,338.11600000015824,0.05
2279,338.12000000015826,0.0
2280,338.1240000001583,-0.035
2281,338.1280000001583,-0.07
2282,338.1320000001583,-0.095
2283,338.13600000015833,-0.105
2284,338.14000000015835,-0.1
2285,338.14400000015837,-0.1
2286,338.1480000001584,-0.1
2287,338.1520000001584,-0.105
2288,338.15600000015843,-0.105
2289,338.16000000015845,-0.1
2290,338.16400000015847,-0.09
2291,338.1680000001585,-0.085
2292,338.1720000001585,-0.08
2293,338.1760000001585,-0.08
2294,338.18000000015854,-0.08
2295,338.18400000015856,-0.085
2296,338.1880000001586,-0.1
2297,338.1920000001586,-0.125
2298,338.1960000001586,-0.14
2299,338.20000000015864,-0.165
2300,338.20400000015866,-0.2
2301,338.2080000001587,-0.21
2302,338.2120000001587,-0.225
2303,338.2160000001587,-0.225
2304,338.22000000015873,-0.21
2305,338.22400000015875,-0.2
2306,338.2280000001588,-0.19
2307,338.2320000001588,-0.19
2308,338.2360000001588,-0.18
2309,338.24000000015883,-0.18
2310,338.24400000015885,-0.17
2311,338.24800000015887,-0.165
2312,338.2520000001589,-0.17
2313,338.2560000001589,-0.165
2314,338.2600000001589,-0.155
2315,338.26400000015894,-0.125
2316,338.26800000015896,-0.08
2317,338.272000000159,-0.04
2318,338.276000000159,-0.005
2319,338.280000000159,0.01
2320,338.28400000015904,0.045
2321,338.28800000015906,0.09
2322,338.2920000001591,0.125
2323,338.2960000001591,0.15
2324,338.3000000001591,0.18
2325,338.30400000015914,0.215
2326,338.30800000015915,0.24
2327,338.3120000001592,0.245
2328,338.3160000001592,0.225
2329,338.3200000001592,0.17
2330,338.32400000015923,0.105
2331,338.32800000015925,0.05
2332,338.33200000015927,0.01
2333,338.3360000001593,0.0
2334,338.3400000001593,0.0
2335,338.3440000001593,0.0
2336,338.34800000015935,0.0
2337,338.35200000015936,0.01
2338,338.3560000001594,0.02
2339,338.3600000001594,0.025
2340,338.3640000001594,0.0
2341,338.36800000015944,-0.04
2342,338.37200000015946,-0.075
2343,338.3760000001595,-0.12
2344,338.3800000001595,-0.15
2345,338.3840000001595,-0.17
2346,338.38800000015954,-0.17500000000000002
2347,338.39200000015956,-0.19
2348,338.3960000001596,-0.2
2349,338.4000000001596,-0.215
2350,338.4040000001596,-0.23
2351,338.40800000015963,-0.225
2352,338.41200000015965,-0.225
2353,338.41600000015967,-0.215
2354,338.4200000001597,-0.2
2355,338.4240000001597,-0.17500000000000002
2356,338.4280000001597,-0.135
2357,338.43200000015975,-0.08
2358,338.43600000015977,-0.025
2359,338.4400000001598,0.02
2360,338.4440000001598,0.07
2361,338.4480000001598,0.1
2362,338.45200000015984,0.13
2363,338.45600000015986,0.145
2364,338.4600000001599,0.14
2365,338.4640000001599,0.115
2366,338.4680000001599,0.07
2367,338.47200000015994,0.0
2368,338.47600000015996,-0.05
2369,338.48000000016,-0.09
2370,338.48400000016,-0.11
2371,338.48800000016,-0.11
2372,338.49200000016003,-0.08
2373,338.49600000016005,-0.04
2374,338.50000000016007,0.0
2375,338.5040000001601,0.03
2376,338.5080000001601,0.06
2377,338.5120000001601,0.06
2378,338.51600000016015,0.065
2379,338.52000000016017,0.07
2380,338.5240000001602,0.075
2381,338.5280000001602,0.07
2382,338.5320000001602,0.055
2383,338.53600000016024,0.035
2384,338.54000000016026,0.025
2385,338.5440000001603,0.005
2386,338.5480000001603,0.0
2387,338.5520000001603,0.0
2388,338.55600000016034,0.0
2389,338.56000000016036,0.0
2390,338.5640000001604,0.015
2391,338.5680000001604,0.035
2392,338.5720000001604,0.06
2393,338.57600000016043,0.09
2394,338.58000000016045,0.1
2395,338.5840000001605,0.115
2396,338.5880000001605,0.12
2397,338.5920000001605,0.11
2398,338.59600000016053,0.095
2399,338.60000000016055,0.045
2400,338.60400000016057,-0.035
2401,338.6080000001606,-0.145
2402,338.6120000001606,-0.27
2403,338.6160000001606,-0.39
2404,338.62000000016064,-0.49
2405,338.62400000016066,-0.555
2406,338.6280000001607,-0.585
2407,338.6320000001607,-0.595
2408,338.6360000001607,-0.5700000000000001
2409,338.64000000016074,-0.525
2410,338.64400000016076,-0.465
2411,338.6480000001608,-0.405
2412,338.6520000001608,-0.36
2413,338.6560000001608,-0.315
2414,338.66000000016084,-0.265
2415,338.66400000016085,-0.215
2416,338.6680000001609,-0.155
2417,338.6720000001609,-0.085
2418,338.6760000001609,0.0
2419,338.68000000016093,0.07
2420,338.68400000016095,0.14
2421,338.68800000016097,0.185
2422,338.692000000161,0.215
2423,338.696000000161,0.225
2424,338.700000000161,0.23
2425,338.70400000016105,0.24
2426,338.70800000016106,0.245
2427,338.7120000001611,0.245
2428,338.7160000001611,0.23
2429,338.7200000001611,0.20500000000000002
2430,338.72400000016114,0.17
2431,338.72800000016116,0.13
2432,338.7320000001612,0.085
2433,338.7360000001612,0.035
2434,338.7400000001612,-0.01
2435,338.74400000016124,-0.045
2436,338.74800000016126,-0.095
2437,338.7520000001613,-0.155
2438,338.7560000001613,-0.2
2439,338.7600000001613,-0.25
2440,338.76400000016133,-0.295
2441,338.76800000016135,-0.33
2442,338.77200000016137,-0.34500000000000003
2443,338.7760000001614,-0.34
2444,338.7800000001614,-0.33
2445,338.7840000001614,-0.315
2446,338.78800000016145,-0.28500000000000003
2447,338.79200000016147,-0.255
2448,338.7960000001615,-0.215
2449,338.8000000001615,-0.165
2450,338.8040000001615,-0.12
2451,338.80800000016154,-0.065
2452,338.81200000016156,-0.015
2453,338.8160000001616,0.02
2454,338.8200000001616,0.06
2455,338.8240000001616,0.09
2456,338.82800000016164,0.115
2457,338.83200000016166,0.13
2458,338.8360000001617,0.14
2459,338.8400000001617,0.135
2460,338.8440000001617,0.115
2461,338.84800000016173,0.09
2462,338.85200000016175,0.06
2463,338.85600000016177,0.03
2464,338.8600000001618,0.015
2465,338.8640000001618,0.0
2466,338.8680000001618,-0.02
2467,338.87200000016185,-0.07
2468,338.87600000016187,-0.13
2469,338.8800000001619,-0.20500000000000002
2470,338.8840000001619,-0.295
2471,338.8880000001619,-0.38
2472,338.89200000016194,-0.45
2473,338.89600000016196,-0.51
2474,338.900000000162,-0.53
2475,338.904000000162,-0.535
2476,338.908000000162,-0.505
2477,338.91200000016204,-0.47000000000000003
2478,338.91600000016206,-0.42
2479,338.9200000001621,-0.38
2480,338.9240000001621,-0.34
2481,338.9280000001621,-0.3
2482,338.93200000016213,-0.245
2483,338.93600000016215,-0.2
2484,338.9400000001622,-0.17
2485,338.9440000001622,-0.16
2486,338.9480000001622,-0.15
2487,338.95200000016223,-0.145
2488,338.95600000016225,-0.135
2489,338.96000000016227,-0.115
2490,338.9640000001623,-0.08
2491,338.9680000001623,-0.04
2492,338.9720000001623,0.0
2493,338.97600000016234,0.065
2494,338.98000000016236,0.155
2495,338.9840000001624,0.24
2496,338.9880000001624,0.33
2497,338.9920000001624,0.41000000000000003
2498,338.99600000016244,0.465
2499,339.00000000016246,0.495
2500,339.0040000001625,0.505
2501,339.0080000001625,0.495
2502,339.0120000001625,0.46
2503,339.01600000016253,0.405
2504,339.02000000016255,0.33
2505,339.0240000001626,0.24
2506,339.0280000001626,0.145
2507,339.0320000001626,0.035
2508,339.03600000016263,-0.075
2509,339.04000000016265,-0.21
2510,339.04400000016267,-0.34
2511,339.0480000001627,-0.46
2512,339.0520000001627,-0.555
2513,339.0560000001627,-0.61
2514,339.06000000016274,-0.635
2515,339.06400000016276,-0.61
2516,339.0680000001628,-0.5700000000000001
2517,339.0720000001628,-0.515
2518,339.0760000001628,-0.455
2519,339.08000000016284,-0.405
2520,339.08400000016286,-0.36
2521,339.0880000001629,-0.33
2522,339.0920000001629,-0.315
2523,339.0960000001629,-0.3
2524,339.10000000016294,-0.275
2525,339.10400000016296,-0.245
2526,339.108000000163,-0.20500000000000002
2527,339.112000000163,-0.165
2528,339.116000000163,-0.12
2529,339.12000000016303,-0.085
2530,339.12400000016305,-0.055
2531,339.12800000016307,-0.03
2532,339.1320000001631,0.0
2533,339.1360000001631,0.04
2534,339.1400000001631,0.09
2535,339.14400000016315,0.14
2536,339.14800000016317,0.185
2537,339.1520000001632,0.215
2538,339.1560000001632,0.23500000000000001
2539,339.1600000001632,0.24
2540,339.16400000016324,0.245
2541,339.16800000016326,0.245
2542,339.1720000001633,0.23
2543,339.1760000001633,0.19
2544,339.1800000001633,0.135
2545,339.18400000016334,0.06
2546,339.18800000016336,0.0
2547,339.1920000001634,-0.065
2548,339.1960000001634,-0.12
2549,339.2000000001634,-0.16
2550,339.20400000016343,-0.18
2551,339.20800000016345,-0.18
2552,339.21200000016347,-0.17
2553,339.2160000001635,-0.16
2554,339.2200000001635,-0.17
2555,339.2240000001635,-0.195
2556,339.22800000016355,-0.225
2557,339.23200000016357,-0.24
2558,339.2360000001636,-0.24
2559,339.2400000001636,-0.23
2560,339.2440000001636,-0.21
2561,339.24800000016364,-0.195
2562,339.25200000016366,-0.18
2563,339.2560000001637,-0.17
2564,339.2600000001637,-0.16
2565,339.2640000001637,-0.14
2566,339.26800000016374,-0.115
2567,339.27200000016376,-0.09
2568,339.2760000001638,-0.075
2569,339.2800000001638,-0.06
2570,339.2840000001638,-0.04
2571,339.28800000016383,-0.035
2572,339.29200000016385,-0.025
2573,339.2960000001639,-0.01
2574,339.3000000001639,0.0
2575,339.3040000001639,0.015
2576,339.30800000016393,0.02
2577,339.31200000016395,0.03
2578,339.31600000016397,0.025
2579,339.320000000164,0.025
2580,339.324000000164,0.025
2581,339.328000000164,0.01
2582,339.33200000016404,-0.005
2583,339.33600000016406,-0.03
2584,339.3400000001641,-0.04
2585,339.3440000001641,-0.045
2586,339.3480000001641,-0.055
2587,339.35200000016414,-0.065
2588,339.35600000016416,-0.065
2589,339.3600000001642,-0.075
2590,339.3640000001642,-0.095
2591,339.3680000001642,-0.115
2592,339.37200000016423,-0.14
2593,339.37600000016425,-0.155
2594,339.3800000001643,-0.165
2595,339.3840000001643,-0.17500000000000002
2596,339.3880000001643,-0.165
2597,339.39200000016433,-0.15
2598,339.39600000016435,-0.13
2599,339.40000000016437,-0.095
2600,339.4040000001644,-0.06
2601,339.4080000001644,-0.02
2602,339.4120000001644,0.02
2603,339.41600000016444,0.05
2604,339.42000000016446,0.07
2605,339.4240000001645,0.085
2606,339.4280000001645,0.08
2607,339.4320000001645,0.05
2608,339.43600000016454,0.025
2609,339.44000000016456,-0.01
2610,339.4440000001646,-0.05
2611,339.4480000001646,-0.095
2612,339.4520000001646,-0.13
2613,339.45600000016464,-0.17
2614,339.46000000016465,-0.20500000000000002
2615,339.4640000001647,-0.215
2616,339.4680000001647,-0.22
2617,339.4720000001647,-0.215
2618,339.47600000016473,-0.21
2619,339.48000000016475,-0.195
2620,339.48400000016477,-0.19
2621,339.4880000001648,-0.17
2622,339.4920000001648,-0.165
2623,339.4960000001648,-0.15
2624,339.50000000016485,-0.145
2625,339.50400000016487,-0.165
2626,339.5080000001649,-0.19
2627,339.5120000001649,-0.215
2628,339.5160000001649,-0.23500000000000001
2629,339.52000000016494,-0.255
2630,339.52400000016496,-0.265
2631,339.528000000165,-0.27
2632,339.532000000165,-0.265
2633,339.536000000165,-0.255
2634,339.54000000016504,-0.25
2635,339.54400000016506,-0.23500000000000001
2636,339.5480000001651,-0.2
2637,339.5520000001651,-0.155
2638,339.5560000001651,-0.115
2639,339.56000000016513,-0.055
2640,339.56400000016515,0.005
2641,339.56800000016517,0.075
2642,339.5720000001652,0.13
2643,339.5760000001652,0.18
2644,339.5800000001652,0.2
2645,339.58400000016525,0.22
2646,339.58800000016527,0.21
2647,339.5920000001653,0.185
2648,339.5960000001653,0.15
2649,339.6000000001653,0.115
2650,339.60400000016534,0.085
2651,339.60800000016536,0.07
2652,339.6120000001654,0.075
2653,339.6160000001654,0.1
2654,339.6200000001654,0.115
2655,339.62400000016544,0.115
2656,339.62800000016546,0.095
2657,339.6320000001655,0.05
2658,339.6360000001655,-0.005
2659,339.6400000001655,-0.075
2660,339.64400000016553,-0.155
2661,339.64800000016555,-0.225
2662,339.6520000001656,-0.29
2663,339.6560000001656,-0.33
2664,339.6600000001656,-0.37
2665,339.66400000016563,-0.395
2666,339.66800000016565,-0.41500000000000004
2667,339.67200000016567,-0.42
2668,339.6760000001657,-0.42
2669,339.6800000001657,-0.4
2670,339.6840000001657,-0.36
2671,339.68800000016574,-0.305
2672,339.69200000016576,-0.24
2673,339.6960000001658,-0.16
2674,339.7000000001658,-0.09
2675,339.7040000001658,-0.015
2676,339.70800000016584,0.04
2677,339.71200000016586,0.075
2678,339.7160000001659,0.105
2679,339.7200000001659,0.105
2680,339.7240000001659,0.09
2681,339.72800000016593,0.05
2682,339.73200000016595,0.005
2683,339.736000000166,-0.045
2684,339.740000000166,-0.09
2685,339.744000000166,-0.13
2686,339.74800000016603,-0.155
2687,339.75200000016605,-0.18
2688,339.75600000016607,-0.225
2689,339.7600000001661,-0.265
2690,339.7640000001661,-0.28
2691,339.7680000001661,-0.28500000000000003
2692,339.77200000016614,-0.265
2693,339.77600000016616,-0.23
2694,339.7800000001662,-0.19
2695,339.7840000001662,-0.15
2696,339.7880000001662,-0.1
2697,339.79200000016624,-0.05
2698,339.79600000016626,0.0
2699,339.8000000001663,0.04
2700,339.8040000001663,0.06
2701,339.8080000001663,0.045
2702,339.81200000016634,0.015
2703,339.81600000016635,-0.015
2704,339.8200000001664,-0.05
2705,339.8240000001664,-0.085
2706,339.8280000001664,-0.11
2707,339.83200000016643,-0.125
2708,339.83600000016645,-0.13
2709,339.84000000016647,-0.13
2710,339.8440000001665,-0.12
2711,339.8480000001665,-0.115
2712,339.8520000001665,-0.11
2713,339.85600000016655,-0.1
2714,339.86000000016656,-0.085
2715,339.8640000001666,-0.085
2716,339.8680000001666,-0.08
2717,339.8720000001666,-0.075
2718,339.87600000016664,-0.075
2719,339.88000000016666,-0.075
2720,339.8840000001667,-0.07
2721,339.8880000001667,-0.075
2722,339.8920000001667,-0.09
2723,339.89600000016674,-0.095
2724,339.90000000016676,-0.11
2725,339.9040000001668,-0.105
2726,339.9080000001668,-0.095
2727,339.9120000001668,-0.08
2728,339.91600000016683,-0.07
2729,339.92000000016685,-0.055
2730,339.92400000016687,-0.05
2731,339.9280000001669,-0.03
2732,339.9320000001669,-0.01
2733,339.9360000001669,0.01
2734,339.94000000016695,0.055
2735,339.94400000016697,0.105
2736,339.948000000167,0.15
2737,339.952000000167,0.185
2738,339.956000000167,0.21
2739,339.96000000016704,0.225
2740,339.96400000016706,0.23
2741,339.9680000001671,0.22
2742,339.9720000001671,0.19
2743,339.9760000001671,0.15
2744,339.98000000016714,0.085
2745,339.98400000016716,0.01
2746,339.9880000001672,-0.06
2747,339.9920000001672,-0.145
2748,339.9960000001672,-0.21
2749,340.00000000016723,-0.27
2750,340.00400000016725,-0.32
2751,340.00800000016727,-0.375
2752,340.0120000001673,-0.42
2753,340.0160000001673,-0.455
2754,340.02000000016733,-0.485
2755,340.02400000016735,-0.51
2756,340.02800000016737,-0.52
2757,340.0320000001674,-0.51
2758,340.0360000001674,-0.5
2759,340.0400000001674,-0.45
2760,340.04400000016744,-0.4
2761,340.04800000016746,-0.34500000000000003
2762,340.0520000001675,-0.295
2763,340.0560000001675,-0.24
2764,340.0600000001675,-0.17
2765,340.06400000016754,-0.105
2766,340.06800000016756,-0.035
2767,340.0720000001676,0.01
2768,340.0760000001676,0.06
2769,340.0800000001676,0.09
2770,340.08400000016763,0.12
2771,340.08800000016765,0.135
2772,340.0920000001677,0.155
2773,340.0960000001677,0.15
2774,340.1000000001677,0.14
2775,340.10400000016773,0.115
2776,340.10800000016775,0.085
2777,340.11200000016777,0.06
2778,340.1160000001678,0.045
2779,340.1200000001678,0.04
2780,340.1240000001678,0.035
2781,340.12800000016784,0.02
2782,340.13200000016786,0.015
2783,340.1360000001679,0.0
2784,340.1400000001679,-0.035
2785,340.1440000001679,-0.075
2786,340.14800000016794,-0.13
2787,340.15200000016796,-0.17500000000000002
2788,340.156000000168,-0.225
2789,340.160000000168,-0.275
2790,340.164000000168,-0.3
2791,340.16800000016804,-0.315
2792,340.17200000016805,-0.32
2793,340.1760000001681,-0.325
2794,340.1800000001681,-0.32
2795,340.1840000001681,-0.305
2796,340.18800000016813,-0.27
2797,340.19200000016815,-0.215
2798,340.19600000016817,-0.155
2799,340.2000000001682,-0.09
2800,340.2040000001682,-0.03
2801,340.2080000001682,0.005
2802,340.21200000016825,0.04
2803,340.21600000016826,0.08
2804,340.2200000001683,0.105
2805,340.2240000001683,0.115
2806,340.2280000001683,0.13
2807,340.23200000016834,0.145
2808,340.23600000016836,0.145
2809,340.2400000001684,0.13
2810,340.2440000001684,0.11
2811,340.2480000001684,0.065
2812,340.25200000016844,0.02
2813,340.25600000016846,-0.035
2814,340.2600000001685,-0.08
2815,340.2640000001685,-0.135
2816,340.2680000001685,-0.17
2817,340.27200000016853,-0.2
2818,340.27600000016855,-0.22
2819,340.28000000016857,-0.22
2820,340.2840000001686,-0.195
2821,340.2880000001686,-0.155
2822,340.2920000001686,-0.105
2823,340.29600000016865,-0.065
2824,340.30000000016867,-0.05
2825,340.3040000001687,-0.065
2826,340.3080000001687,-0.09
2827,340.3120000001687,-0.125
2828,340.31600000016874,-0.145
2829,340.32000000016876,-0.14
2830,340.3240000001688,-0.135
2831,340.3280000001688,-0.13
2832,340.3320000001688,-0.145
2833,340.33600000016884,-0.155
2834,340.34000000016886,-0.155
2835,340.3440000001689,-0.13
2836,340.3480000001689,-0.09
2837,340.3520000001689,-0.055
2838,340.35600000016893,-0.03
2839,340.36000000016895,0.01
2840,340.36400000016897,0.06
2841,340.368000000169,0.11
2842,340.372000000169,0.17
2843,340.37600000016903,0.20500000000000002
2844,340.38000000016905,0.225
2845,340.38400000016907,0.22
2846,340.3880000001691,0.2
2847,340.3920000001691,0.16
2848,340.3960000001691,0.13
2849,340.40000000016914,0.105
2850,340.40400000016916,0.09
2851,340.4080000001692,0.07
2852,340.4120000001692,0.04
2853,340.4160000001692,0.005
2854,340.42000000016924,-0.03
2855,340.42400000016926,-0.065
2856,340.4280000001693,-0.095
2857,340.4320000001693,-0.135
2858,340.4360000001693,-0.17500000000000002
2859,340.44000000016933,-0.22
2860,340.44400000016935,-0.275
2861,340.4480000001694,-0.315
2862,340.4520000001694,-0.34
2863,340.4560000001694,-0.35000000000000003
2864,340.46000000016943,-0.34500000000000003
2865,340.46400000016945,-0.32
2866,340.46800000016947,-0.255
2867,340.4720000001695,-0.17500000000000002
2868,340.4760000001695,-0.085
2869,340.4800000001695,0.0
2870,340.48400000016954,0.055
2871,340.48800000016956,0.1
2872,340.4920000001696,0.13
2873,340.4960000001696,0.16
2874,340.5000000001696,0.185
2875,340.50400000016964,0.22
2876,340.50800000016966,0.275
2877,340.5120000001697,0.325
2878,340.5160000001697,0.375
2879,340.5200000001697,0.4
2880,340.52400000016974,0.395
2881,340.52800000016975,0.375
2882,340.5320000001698,0.33
2883,340.5360000001698,0.28
2884,340.5400000001698,0.22
2885,340.54400000016983,0.155
2886,340.54800000016985,0.095
2887,340.55200000016987,0.045
2888,340.5560000001699,0.0
2889,340.5600000001699,-0.05
2890,340.5640000001699,-0.115
2891,340.56800000016995,-0.165
2892,340.57200000016996,-0.225
2893,340.57600000017,-0.27
2894,340.58000000017,-0.315
2895,340.58400000017,-0.36
2896,340.58800000017004,-0.41000000000000003
2897,340.59200000017006,-0.46
2898,340.5960000001701,-0.49
2899,340.6000000001701,-0.505
2900,340.6040000001701,-0.51
2901,340.60800000017014,-0.5
2902,340.61200000017016,-0.48
2903,340.6160000001702,-0.445
2904,340.6200000001702,-0.4
2905,340.6240000001702,-0.34500000000000003
2906,340.62800000017023,-0.29
2907,340.63200000017025,-0.22
2908,340.63600000017027,-0.14
2909,340.6400000001703,-0.05
2910,340.6440000001703,0.035
2911,340.6480000001703,0.13
2912,340.65200000017035,0.21
2913,340.65600000017037,0.27
2914,340.6600000001704,0.32
2915,340.6640000001704,0.34
2916,340.6680000001704,0.34
2917,340.67200000017044,0.31
2918,340.67600000017046,0.265
2919,340.6800000001705,0.195
2920,340.6840000001705,0.14
2921,340.6880000001705,0.085
2922,340.69200000017054,0.035
2923,340.69600000017056,0.0
2924,340.7000000001706,-0.04
2925,340.7040000001706,-0.09
2926,340.7080000001706,-0.13
2927,340.71200000017063,-0.165
2928,340.71600000017065,-0.19
2929,340.72000000017067,-0.19
2930,340.7240000001707,-0.17500000000000002
2931,340.7280000001707,-0.15
2932,340.73200000017073,-0.11
2933,340.73600000017075,-0.07
2934,340.74000000017077,-0.04
2935,340.7440000001708,-0.015
2936,340.7480000001708,0.0
2937,340.7520000001708,-0.01
2938,340.75600000017084,-0.025
2939,340.76000000017086,-0.045
2940,340.7640000001709,-0.06
2941,340.7680000001709,-0.08
2942,340.7720000001709,-0.085
2943,340.77600000017094,-0.09
2944,340.78000000017096,-0.08
2945,340.784000000171,-0.06
2946,340.788000000171,-0.035
2947,340.792000000171,-0.005
2948,340.79600000017103,0.01
2949,340.80000000017105,0.025
2950,340.8040000001711,0.03
2951,340.8080000001711,0.03
2952,340.8120000001711,0.025
2953,340.81600000017113,0.02
2954,340.82000000017115,0.03
2955,340.82400000017117,0.03
2956,340.8280000001712,0.03
2957,340.8320000001712,0.0
2958,340.8360000001712,-0.04
2959,340.84000000017124,-0.095
2960,340.84400000017126,-0.165
2961,340.8480000001713,-0.24
2962,340.8520000001713,-0.32
2963,340.8560000001713,-0.41500000000000004
2964,340.86000000017134,-0.505
2965,340.86400000017136,-0.595
2966,340.8680000001714,-0.655
2967,340.8720000001714,-0.68
2968,340.8760000001714,-0.675
2969,340.88000000017144,-0.62
2970,340.88400000017145,-0.535
2971,340.8880000001715,-0.425
2972,340.8920000001715,-0.31
2973,340.8960000001715,-0.225
2974,340.90000000017153,-0.17
2975,340.90400000017155,-0.135
2976,340.90800000017157,-0.125
2977,340.9120000001716,-0.11
2978,340.9160000001716,-0.085
2979,340.9200000001716,-0.055
2980,340.92400000017165,-0.03
2981,340.92800000017166,-0.01
2982,340.9320000001717,-0.005
2983,340.9360000001717,-0.005
2984,340.9400000001717,0.0
2985,340.94400000017174,-0.005
2986,340.94800000017176,-0.02
2987,340.9520000001718,-0.025
2988,340.9560000001718,-0.03
2989,340.9600000001718,-0.035
2990,340.96400000017184,-0.03
2991,340.96800000017186,-0.01
2992,340.9720000001719,0.005
2993,340.9760000001719,0.03
2994,340.9800000001719,0.05
2995,340.98400000017193,0.065
2996,340.98800000017195,0.08
2997,340.99200000017197,0.085
2998,340.996000000172,0.08
2999,341.000000000172,0.045
