,623.0000000015185,-0.36
0,623.0040000015185,-0.35000000000000003
1,623.0080000015186,-0.325
2,623.0120000015186,-0.31
3,623.0160000015186,-0.28
4,623.0200000015186,-0.25
5,623.0240000015186,-0.21
6,623.0280000015186,-0.18
7,623.0320000015187,-0.155
8,623.0360000015187,-0.13
9,623.0400000015187,-0.11
10,623.0440000015187,-0.09
11,623.0480000015187,-0.07
12,623.0520000015188,-0.055
13,623.0560000015188,-0.035
14,623.0600000015188,-0.015
15,623.0640000015188,0.005
16,623.0680000015188,0.035
17,623.0720000015189,0.07
18,623.0760000015189,0.095
19,623.0800000015189,0.12
20,623.0840000015189,0.135
21,623.0880000015189,0.16
22,623.092000001519,0.185
23,623.096000001519,0.20500000000000002
24,623.100000001519,0.24
25,623.104000001519,0.26
26,623.108000001519,0.28500000000000003
27,623.112000001519,0.31
28,623.1160000015191,0.325
29,623.1200000015191,0.355
30,623.1240000015191,0.365
31,623.1280000015191,0.38
32,623.1320000015191,0.39
33,623.1360000015192,0.4
34,623.1400000015192,0.405
35,623.1440000015192,0.405
36,623.1480000015192,0.395
37,623.1520000015192,0.39
38,623.1560000015193,0.39
39,623.1600000015193,0.38
40,623.1640000015193,0.375
41,623.1680000015193,0.36
42,623.1720000015193,0.355
43,623.1760000015194,0.35000000000000003
44,623.1800000015194,0.33
45,623.1840000015194,0.325
46,623.1880000015194,0.305
47,623.1920000015194,0.295
48,623.1960000015195,0.28
49,623.2000000015195,0.265
50,623.2040000015195,0.25
51,623.2080000015195,0.225
52,623.2120000015195,0.20500000000000002
53,623.2160000015195,0.19
54,623.2200000015196,0.17
55,623.2240000015196,0.155
56,623.2280000015196,0.145
57,623.2320000015196,0.135
58,623.2360000015196,0.12
59,623.2400000015197,0.105
60,623.2440000015197,0.095
61,623.2480000015197,0.085
62,623.2520000015197,0.07
63,623.2560000015197,0.055
64,623.2600000015198,0.04
65,623.2640000015198,0.03
66,623.2680000015198,0.015
67,623.2720000015198,0.0
68,623.2760000015198,0.0
69,623.2800000015199,-0.02
70,623.2840000015199,-0.035
71,623.2880000015199,-0.05
72,623.2920000015199,-0.065
73,623.2960000015199,-0.075
74,623.30000000152,-0.095
75,623.30400000152,-0.1
76,623.30800000152,-0.115
77,623.31200000152,-0.12
78,623.31600000152,-0.135
79,623.32000000152,-0.14
80,623.3240000015201,-0.14
81,623.3280000015201,-0.155
82,623.3320000015201,-0.155
83,623.3360000015201,-0.155
84,623.3400000015201,-0.165
85,623.3440000015202,-0.165
86,623.3480000015202,-0.17
87,623.3520000015202,-0.17500000000000002
88,623.3560000015202,-0.165
89,623.3600000015202,-0.165
90,623.3640000015203,-0.17
91,623.3680000015203,-0.165
92,623.3720000015203,-0.17
93,623.3760000015203,-0.16
94,623.3800000015203,-0.16
95,623.3840000015203,-0.165
96,623.3880000015204,-0.16
97,623.3920000015204,-0.16
98,623.3960000015204,-0.155
99,623.4000000015204,-0.155
100,623.4040000015204,-0.155
101,623.4080000015205,-0.155
102,623.4120000015205,-0.14
103,623.4160000015205,-0.14
104,623.4200000015205,-0.13
105,623.4240000015205,-0.125
106,623.4280000015206,-0.115
107,623.4320000015206,-0.11
108,623.4360000015206,-0.095
109,623.4400000015206,-0.08
110,623.4440000015206,-0.065
111,623.4480000015207,-0.055
112,623.4520000015207,-0.045
113,623.4560000015207,-0.04
114,623.4600000015207,-0.035
115,623.4640000015207,-0.035
116,623.4680000015207,-0.035
117,623.4720000015208,-0.03
118,623.4760000015208,-0.025
119,623.4800000015208,-0.025
120,623.4840000015208,-0.025
121,623.4880000015208,-0.02
122,623.4920000015209,-0.02
123,623.4960000015209,-0.015
124,623.5000000015209,-0.02
125,623.5040000015209,-0.025
126,623.5080000015209,-0.02
127,623.512000001521,-0.015
128,623.516000001521,-0.025
129,623.520000001521,-0.025
130,623.524000001521,-0.025
131,623.528000001521,-0.015
132,623.532000001521,-0.02
133,623.5360000015211,-0.015
134,623.5400000015211,-0.015
135,623.5440000015211,-0.015
136,623.5480000015211,-0.015
137,623.5520000015212,-0.015
138,623.5560000015212,-0.015
139,623.5600000015212,-0.025
140,623.5640000015212,-0.03
141,623.5680000015212,-0.04
142,623.5720000015212,-0.05
143,623.5760000015213,-0.06
144,623.5800000015213,-0.07
145,623.5840000015213,-0.075
146,623.5880000015213,-0.07
147,623.5920000015213,-0.07
148,623.5960000015214,-0.075
149,623.6000000015214,-0.08
150,623.6040000015214,-0.075
151,623.6080000015214,-0.07
152,623.6120000015214,-0.07
153,623.6160000015215,-0.07
154,623.6200000015215,-0.06
155,623.6240000015215,-0.07
156,623.6280000015215,-0.065
157,623.6320000015215,-0.065
158,623.6360000015216,-0.055
159,623.6400000015216,-0.055
160,623.6440000015216,-0.06
161,623.6480000015216,-0.05
162,623.6520000015216,-0.05
163,623.6560000015216,-0.05
164,623.6600000015217,-0.045
165,623.6640000015217,-0.05
166,623.6680000015217,-0.05
167,623.6720000015217,-0.045
168,623.6760000015217,-0.04
169,623.6800000015218,-0.04
170,623.6840000015218,-0.035
171,623.6880000015218,-0.035
172,623.6920000015218,-0.035
173,623.6960000015218,-0.035
174,623.7000000015219,-0.025
175,623.7040000015219,-0.025
176,623.7080000015219,-0.025
177,623.7120000015219,-0.02
178,623.7160000015219,-0.02
179,623.720000001522,-0.015
180,623.724000001522,-0.015
181,623.728000001522,-0.01
182,623.732000001522,-0.015
183,623.736000001522,-0.015
184,623.740000001522,-0.015
185,623.7440000015221,-0.02
186,623.7480000015221,-0.02
187,623.7520000015221,-0.02
188,623.7560000015221,-0.02
189,623.7600000015221,-0.02
190,623.7640000015222,-0.025
191,623.7680000015222,-0.03
192,623.7720000015222,-0.03
193,623.7760000015222,-0.035
194,623.7800000015222,-0.045
195,623.7840000015223,-0.06
196,623.7880000015223,-0.07
197,623.7920000015223,-0.095
198,623.7960000015223,-0.115
199,623.8000000015223,-0.14
200,623.8040000015224,-0.16
201,623.8080000015224,-0.18
202,623.8120000015224,-0.21
203,623.8160000015224,-0.23500000000000001
204,623.8200000015224,-0.255
205,623.8240000015224,-0.275
206,623.8280000015225,-0.29
207,623.8320000015225,-0.3
208,623.8360000015225,-0.3
209,623.8400000015225,-0.31
210,623.8440000015225,-0.31
211,623.8480000015226,-0.325
212,623.8520000015226,-0.33
213,623.8560000015226,-0.34
214,623.8600000015226,-0.335
215,623.8640000015226,-0.33
216,623.8680000015227,-0.315
217,623.8720000015227,-0.295
218,623.8760000015227,-0.275
219,623.8800000015227,-0.26
220,623.8840000015227,-0.25
221,623.8880000015228,-0.23500000000000001
222,623.8920000015228,-0.22
223,623.8960000015228,-0.21
224,623.9000000015228,-0.19
225,623.9040000015228,-0.17500000000000002
226,623.9080000015229,-0.16
227,623.9120000015229,-0.135
228,623.9160000015229,-0.11
229,623.9200000015229,-0.085
230,623.9240000015229,-0.065
231,623.928000001523,-0.035
232,623.932000001523,-0.01
233,623.936000001523,0.015
234,623.940000001523,0.05
235,623.944000001523,0.08
236,623.948000001523,0.105
237,623.9520000015231,0.14
238,623.9560000015231,0.155
239,623.9600000015231,0.18
240,623.9640000015231,0.21
241,623.9680000015231,0.23500000000000001
242,623.9720000015232,0.25
243,623.9760000015232,0.27
244,623.9800000015232,0.28
245,623.9840000015232,0.28
246,623.9880000015232,0.295
247,623.9920000015233,0.305
248,623.9960000015233,0.31
249,624.0000000015233,0.32
250,624.0040000015233,0.325
251,624.0080000015233,0.335
252,624.0120000015233,0.34
253,624.0160000015234,0.34500000000000003
254,624.0200000015234,0.34500000000000003
255,624.0240000015234,0.34500000000000003
256,624.0280000015234,0.34
257,624.0320000015234,0.33
258,624.0360000015235,0.335
259,624.0400000015235,0.33
260,624.0440000015235,0.325
261,624.0480000015235,0.31
262,624.0520000015235,0.305
263,624.0560000015236,0.295
264,624.0600000015236,0.28
265,624.0640000015236,0.27
266,624.0680000015236,0.26
267,624.0720000015236,0.245
268,624.0760000015237,0.24
269,624.0800000015237,0.225
270,624.0840000015237,0.22
271,624.0880000015237,0.2
272,624.0920000015237,0.19
273,624.0960000015237,0.18
274,624.1000000015238,0.16
275,624.1040000015238,0.14
276,624.1080000015238,0.13
277,624.1120000015238,0.11
278,624.1160000015238,0.09
279,624.1200000015239,0.07
280,624.1240000015239,0.05
281,624.1280000015239,0.03
282,624.1320000015239,0.015
283,624.1360000015239,0.0
284,624.140000001524,-0.015
285,624.144000001524,-0.035
286,624.148000001524,-0.045
287,624.152000001524,-0.065
288,624.156000001524,-0.085
289,624.160000001524,-0.095
290,624.1640000015241,-0.105
291,624.1680000015241,-0.125
292,624.1720000015241,-0.135
293,624.1760000015241,-0.145
294,624.1800000015241,-0.16
295,624.1840000015242,-0.165
296,624.1880000015242,-0.17
297,624.1920000015242,-0.17500000000000002
298,624.1960000015242,-0.17500000000000002
299,624.2000000015242,-0.17500000000000002
300,624.2040000015243,-0.17500000000000002
301,624.2080000015243,-0.17500000000000002
302,624.2120000015243,-0.185
303,624.2160000015243,-0.185
304,624.2200000015243,-0.18
305,624.2240000015244,-0.185
306,624.2280000015244,-0.19
307,624.2320000015244,-0.19
308,624.2360000015244,-0.18
309,624.2400000015244,-0.185
310,624.2440000015245,-0.195
311,624.2480000015245,-0.195
312,624.2520000015245,-0.195
313,624.2560000015245,-0.2
314,624.2600000015245,-0.21
315,624.2640000015246,-0.215
316,624.2680000015246,-0.23
317,624.2720000015246,-0.24
318,624.2760000015246,-0.25
319,624.2800000015246,-0.265
320,624.2840000015246,-0.275
321,624.2880000015247,-0.29
322,624.2920000015247,-0.31
323,624.2960000015247,-0.33
324,624.3000000015247,-0.34
325,624.3040000015247,-0.36
326,624.3080000015248,-0.38
327,624.3120000015248,-0.395
328,624.3160000015248,-0.41500000000000004
329,624.3200000015248,-0.425
330,624.3240000015248,-0.445
331,624.3280000015249,-0.45
332,624.3320000015249,-0.455
333,624.3360000015249,-0.47000000000000003
334,624.3400000015249,-0.47500000000000003
335,624.3440000015249,-0.49
336,624.348000001525,-0.49
337,624.352000001525,-0.495
338,624.356000001525,-0.5
339,624.360000001525,-0.505
340,624.364000001525,-0.515
341,624.368000001525,-0.515
342,624.3720000015251,-0.52
343,624.3760000015251,-0.515
344,624.3800000015251,-0.515
345,624.3840000015251,-0.515
346,624.3880000015251,-0.51
347,624.3920000015252,-0.5
348,624.3960000015252,-0.49
349,624.4000000015252,-0.47500000000000003
350,624.4040000015252,-0.46
351,624.4080000015252,-0.45
352,624.4120000015253,-0.435
353,624.4160000015253,-0.41500000000000004
354,624.4200000015253,-0.405
355,624.4240000015253,-0.395
356,624.4280000015253,-0.375
357,624.4320000015254,-0.365
358,624.4360000015254,-0.34
359,624.4400000015254,-0.32
360,624.4440000015254,-0.295
361,624.4480000015254,-0.265
362,624.4520000015254,-0.245
363,624.4560000015255,-0.225
364,624.4600000015255,-0.20500000000000002
365,624.4640000015255,-0.19
366,624.4680000015255,-0.165
367,624.4720000015255,-0.15
368,624.4760000015256,-0.13
369,624.4800000015256,-0.11
370,624.4840000015256,-0.085
371,624.4880000015256,-0.05
372,624.4920000015256,-0.015
373,624.4960000015257,0.025
374,624.5000000015257,0.065
375,624.5040000015257,0.11
376,624.5080000015257,0.14
377,624.5120000015257,0.17500000000000002
378,624.5160000015258,0.21
379,624.5200000015258,0.23500000000000001
380,624.5240000015258,0.26
381,624.5280000015258,0.28500000000000003
382,624.5320000015258,0.31
383,624.5360000015258,0.325
384,624.5400000015259,0.335
385,624.5440000015259,0.355
386,624.5480000015259,0.36
387,624.5520000015259,0.37
388,624.556000001526,0.37
389,624.560000001526,0.375
390,624.564000001526,0.38
391,624.568000001526,0.37
392,624.572000001526,0.365
393,624.576000001526,0.36
394,624.5800000015261,0.35000000000000003
395,624.5840000015261,0.34500000000000003
396,624.5880000015261,0.33
397,624.5920000015261,0.325
398,624.5960000015261,0.315
399,624.6000000015262,0.31
400,624.6040000015262,0.3
401,624.6080000015262,0.29
402,624.6120000015262,0.275
403,624.6160000015262,0.27
404,624.6200000015263,0.255
405,624.6240000015263,0.24
406,624.6280000015263,0.225
407,624.6320000015263,0.21
408,624.6360000015263,0.2
409,624.6400000015263,0.185
410,624.6440000015264,0.17
411,624.6480000015264,0.155
412,624.6520000015264,0.145
413,624.6560000015264,0.125
414,624.6600000015264,0.115
415,624.6640000015265,0.1
416,624.6680000015265,0.09
417,624.6720000015265,0.075
418,624.6760000015265,0.065
419,624.6800000015265,0.05
420,624.6840000015266,0.04
421,624.6880000015266,0.03
422,624.6920000015266,0.02
423,624.6960000015266,0.015
424,624.7000000015266,0.005
425,624.7040000015267,0.0
426,624.7080000015267,-0.005
427,624.7120000015267,-0.005
428,624.7160000015267,-0.015
429,624.7200000015267,-0.02
430,624.7240000015267,-0.03
431,624.7280000015268,-0.04
432,624.7320000015268,-0.045
433,624.7360000015268,-0.04
434,624.7400000015268,-0.045
435,624.7440000015268,-0.045
436,624.7480000015269,-0.05
437,624.7520000015269,-0.05
438,624.7560000015269,-0.05
439,624.7600000015269,-0.05
440,624.7640000015269,-0.045
441,624.768000001527,-0.05
442,624.772000001527,-0.045
443,624.776000001527,-0.045
444,624.780000001527,-0.04
445,624.784000001527,-0.035
446,624.788000001527,-0.035
447,624.7920000015271,-0.03
448,624.7960000015271,-0.035
449,624.8000000015271,-0.03
450,624.8040000015271,-0.035
451,624.8080000015271,-0.04
452,624.8120000015272,-0.05
453,624.8160000015272,-0.05
454,624.8200000015272,-0.06
455,624.8240000015272,-0.07
456,624.8280000015272,-0.085
457,624.8320000015273,-0.1
458,624.8360000015273,-0.12
459,624.8400000015273,-0.13
460,624.8440000015273,-0.155
461,624.8480000015273,-0.17500000000000002
462,624.8520000015274,-0.195
463,624.8560000015274,-0.215
464,624.8600000015274,-0.23500000000000001
465,624.8640000015274,-0.255
466,624.8680000015274,-0.27
467,624.8720000015275,-0.28500000000000003
468,624.8760000015275,-0.3
469,624.8800000015275,-0.31
470,624.8840000015275,-0.32
471,624.8880000015275,-0.325
472,624.8920000015275,-0.335
473,624.8960000015276,-0.34500000000000003
474,624.9000000015276,-0.355
475,624.9040000015276,-0.36
476,624.9080000015276,-0.375
477,624.9120000015276,-0.375
478,624.9160000015277,-0.375
479,624.9200000015277,-0.385
480,624.9240000015277,-0.38
481,624.9280000015277,-0.385
482,624.9320000015277,-0.39
483,624.9360000015278,-0.38
484,624.9400000015278,-0.37
485,624.9440000015278,-0.37
486,624.9480000015278,-0.355
487,624.9520000015278,-0.34
488,624.9560000015279,-0.33
489,624.9600000015279,-0.315
490,624.9640000015279,-0.305
491,624.9680000015279,-0.295
492,624.9720000015279,-0.28500000000000003
493,624.976000001528,-0.27
494,624.980000001528,-0.25
495,624.984000001528,-0.225
496,624.988000001528,-0.195
497,624.992000001528,-0.17
498,624.996000001528,-0.15
499,625.0000000015281,-0.125
500,625.0040000015281,-0.105
501,625.0080000015281,-0.085
502,625.0120000015281,-0.07
503,625.0160000015281,-0.05
504,625.0200000015282,-0.035
505,625.0240000015282,-0.01
506,625.0280000015282,0.01
507,625.0320000015282,0.035
508,625.0360000015282,0.065
509,625.0400000015283,0.105
510,625.0440000015283,0.15
511,625.0480000015283,0.19
512,625.0520000015283,0.22
513,625.0560000015283,0.25
514,625.0600000015284,0.275
515,625.0640000015284,0.295
516,625.0680000015284,0.32
517,625.0720000015284,0.34
518,625.0760000015284,0.36
519,625.0800000015284,0.375
520,625.0840000015285,0.385
521,625.0880000015285,0.4
522,625.0920000015285,0.41000000000000003
523,625.0960000015285,0.42
524,625.1000000015285,0.425
525,625.1040000015286,0.43
526,625.1080000015286,0.425
527,625.1120000015286,0.42
528,625.1160000015286,0.41000000000000003
529,625.1200000015286,0.405
530,625.1240000015287,0.39
531,625.1280000015287,0.375
532,625.1320000015287,0.365
533,625.1360000015287,0.35000000000000003
534,625.1400000015287,0.335
535,625.1440000015288,0.32
536,625.1480000015288,0.3
537,625.1520000015288,0.28500000000000003
538,625.1560000015288,0.275
539,625.1600000015288,0.26
540,625.1640000015288,0.25
541,625.1680000015289,0.225
542,625.1720000015289,0.21
543,625.1760000015289,0.19
544,625.1800000015289,0.17
545,625.184000001529,0.15
546,625.188000001529,0.135
547,625.192000001529,0.115
548,625.196000001529,0.09
549,625.200000001529,0.07
550,625.204000001529,0.05
551,625.2080000015291,0.035
552,625.2120000015291,0.01
553,625.2160000015291,0.0
554,625.2200000015291,-0.015
555,625.2240000015291,-0.03
556,625.2280000015292,-0.05
557,625.2320000015292,-0.065
558,625.2360000015292,-0.08
559,625.2400000015292,-0.095
560,625.2440000015292,-0.115
561,625.2480000015292,-0.12
562,625.2520000015293,-0.13
563,625.2560000015293,-0.145
564,625.2600000015293,-0.155
565,625.2640000015293,-0.16
566,625.2680000015293,-0.165
567,625.2720000015294,-0.17500000000000002
568,625.2760000015294,-0.17500000000000002
569,625.2800000015294,-0.17500000000000002
570,625.2840000015294,-0.17500000000000002
571,625.2880000015294,-0.185
572,625.2920000015295,-0.185
573,625.2960000015295,-0.185
574,625.3000000015295,-0.19
575,625.3040000015295,-0.2
576,625.3080000015295,-0.21
577,625.3120000015296,-0.225
578,625.3160000015296,-0.23500000000000001
579,625.3200000015296,-0.24
580,625.3240000015296,-0.255
581,625.3280000015296,-0.27
582,625.3320000015297,-0.275
583,625.3360000015297,-0.28500000000000003
584,625.3400000015297,-0.295
585,625.3440000015297,-0.31
586,625.3480000015297,-0.32
587,625.3520000015297,-0.33
588,625.3560000015298,-0.335
589,625.3600000015298,-0.34500000000000003
590,625.3640000015298,-0.355
591,625.3680000015298,-0.365
592,625.3720000015298,-0.365
593,625.3760000015299,-0.37
594,625.3800000015299,-0.375
595,625.3840000015299,-0.38
596,625.3880000015299,-0.385
597,625.3920000015299,-0.385
598,625.39600000153,-0.4
599,625.40000000153,-0.4
600,625.40400000153,-0.41000000000000003
601,625.40800000153,-0.405
602,625.41200000153,-0.41000000000000003
603,625.41600000153,-0.405
604,625.4200000015301,-0.4
605,625.4240000015301,-0.39
606,625.4280000015301,-0.38
607,625.4320000015301,-0.365
608,625.4360000015301,-0.355
609,625.4400000015302,-0.34
610,625.4440000015302,-0.325
611,625.4480000015302,-0.315
612,625.4520000015302,-0.29
613,625.4560000015302,-0.27
614,625.4600000015303,-0.255
615,625.4640000015303,-0.23500000000000001
616,625.4680000015303,-0.21
617,625.4720000015303,-0.18
618,625.4760000015303,-0.15
619,625.4800000015304,-0.125
620,625.4840000015304,-0.095
621,625.4880000015304,-0.075
622,625.4920000015304,-0.05
623,625.4960000015304,-0.03
624,625.5000000015305,-0.015
625,625.5040000015305,0.0
626,625.5080000015305,0.015
627,625.5120000015305,0.035
628,625.5160000015305,0.05
629,625.5200000015305,0.065
630,625.5240000015306,0.09
631,625.5280000015306,0.115
632,625.5320000015306,0.145
633,625.5360000015306,0.17
634,625.5400000015306,0.2
635,625.5440000015307,0.23500000000000001
636,625.5480000015307,0.26
637,625.5520000015307,0.29
638,625.5560000015307,0.31
639,625.5600000015307,0.33
640,625.5640000015308,0.34
641,625.5680000015308,0.35000000000000003
642,625.5720000015308,0.365
643,625.5760000015308,0.375
644,625.5800000015308,0.385
645,625.5840000015309,0.395
646,625.5880000015309,0.395
647,625.5920000015309,0.395
648,625.5960000015309,0.395
649,625.6000000015309,0.39
650,625.604000001531,0.385
651,625.608000001531,0.375
652,625.612000001531,0.36
653,625.616000001531,0.35000000000000003
654,625.620000001531,0.34
655,625.624000001531,0.325
656,625.6280000015311,0.31
657,625.6320000015311,0.3
658,625.6360000015311,0.28
659,625.6400000015311,0.265
660,625.6440000015311,0.25
661,625.6480000015312,0.23500000000000001
662,625.6520000015312,0.215
663,625.6560000015312,0.2
664,625.6600000015312,0.19
665,625.6640000015312,0.17500000000000002
666,625.6680000015313,0.15
667,625.6720000015313,0.145
668,625.6760000015313,0.125
669,625.6800000015313,0.105
670,625.6840000015313,0.09
671,625.6880000015313,0.07
672,625.6920000015314,0.055
673,625.6960000015314,0.035
674,625.7000000015314,0.02
675,625.7040000015314,0.005
676,625.7080000015314,-0.015
677,625.7120000015315,-0.03
678,625.7160000015315,-0.05
679,625.7200000015315,-0.065
680,625.7240000015315,-0.08
681,625.7280000015315,-0.1
682,625.7320000015316,-0.11
683,625.7360000015316,-0.13
684,625.7400000015316,-0.145
685,625.7440000015316,-0.155
686,625.7480000015316,-0.17500000000000002
687,625.7520000015317,-0.18
688,625.7560000015317,-0.2
689,625.7600000015317,-0.21
690,625.7640000015317,-0.22
691,625.7680000015317,-0.23500000000000001
692,625.7720000015318,-0.245
693,625.7760000015318,-0.25
694,625.7800000015318,-0.26
695,625.7840000015318,-0.27
696,625.7880000015318,-0.28500000000000003
697,625.7920000015318,-0.295
698,625.7960000015319,-0.315
699,625.8000000015319,-0.33
700,625.8040000015319,-0.34
701,625.8080000015319,-0.36
702,625.8120000015319,-0.365
703,625.816000001532,-0.385
704,625.820000001532,-0.395
705,625.824000001532,-0.405
706,625.828000001532,-0.41500000000000004
707,625.832000001532,-0.43
708,625.836000001532,-0.435
709,625.8400000015321,-0.44
710,625.8440000015321,-0.45
711,625.8480000015321,-0.455
712,625.8520000015321,-0.46
713,625.8560000015322,-0.455
714,625.8600000015322,-0.46
715,625.8640000015322,-0.465
716,625.8680000015322,-0.455
717,625.8720000015322,-0.465
718,625.8760000015322,-0.455
719,625.8800000015323,-0.46
720,625.8840000015323,-0.465
721,625.8880000015323,-0.465
722,625.8920000015323,-0.465
723,625.8960000015323,-0.46
724,625.9000000015324,-0.465
725,625.9040000015324,-0.46
726,625.9080000015324,-0.455
727,625.9120000015324,-0.45
728,625.9160000015324,-0.435
729,625.9200000015325,-0.42
730,625.9240000015325,-0.405
731,625.9280000015325,-0.385
732,625.9320000015325,-0.37
733,625.9360000015325,-0.355
734,625.9400000015326,-0.335
735,625.9440000015326,-0.33
736,625.9480000015326,-0.315
737,625.9520000015326,-0.3
738,625.9560000015326,-0.28500000000000003
739,625.9600000015326,-0.26
740,625.9640000015327,-0.24
741,625.9680000015327,-0.20500000000000002
742,625.9720000015327,-0.18
743,625.9760000015327,-0.16
744,625.9800000015327,-0.13
745,625.9840000015328,-0.105
746,625.9880000015328,-0.08
747,625.9920000015328,-0.06
748,625.9960000015328,-0.035
749,626.0000000015328,-0.01
750,626.0040000015329,0.005
751,626.0080000015329,0.03
752,626.0120000015329,0.05
753,626.0160000015329,0.08
754,626.0200000015329,0.11
755,626.024000001533,0.15
756,626.028000001533,0.18
757,626.032000001533,0.215
758,626.036000001533,0.245
759,626.040000001533,0.275
760,626.044000001533,0.295
761,626.0480000015331,0.315
762,626.0520000015331,0.33
763,626.0560000015331,0.34500000000000003
764,626.0600000015331,0.35000000000000003
765,626.0640000015331,0.355
766,626.0680000015332,0.365
767,626.0720000015332,0.365
768,626.0760000015332,0.37
769,626.0800000015332,0.37
770,626.0840000015332,0.365
771,626.0880000015333,0.365
772,626.0920000015333,0.36
773,626.0960000015333,0.355
774,626.1000000015333,0.34500000000000003
775,626.1040000015333,0.34
776,626.1080000015334,0.315
777,626.1120000015334,0.31
778,626.1160000015334,0.29
779,626.1200000015334,0.275
780,626.1240000015334,0.265
781,626.1280000015335,0.25
782,626.1320000015335,0.24
783,626.1360000015335,0.225
784,626.1400000015335,0.21
785,626.1440000015335,0.20500000000000002
786,626.1480000015335,0.19
787,626.1520000015336,0.18
788,626.1560000015336,0.17
789,626.1600000015336,0.16
790,626.1640000015336,0.155
791,626.1680000015336,0.125
792,626.1720000015337,0.115
793,626.1760000015337,0.1
794,626.1800000015337,0.09
795,626.1840000015337,0.075
796,626.1880000015337,0.065
797,626.1920000015338,0.06
798,626.1960000015338,0.055
799,626.2000000015338,0.045
800,626.2040000015338,0.03
801,626.2080000015338,0.025
802,626.2120000015339,0.015
803,626.2160000015339,0.0
804,626.2200000015339,0.0
805,626.2240000015339,-0.02
806,626.2280000015339,-0.035
807,626.232000001534,-0.04
808,626.236000001534,-0.05
809,626.240000001534,-0.06
810,626.244000001534,-0.07
811,626.248000001534,-0.08
812,626.252000001534,-0.08
813,626.2560000015341,-0.085
814,626.2600000015341,-0.09
815,626.2640000015341,-0.095
816,626.2680000015341,-0.105
817,626.2720000015341,-0.1
818,626.2760000015342,-0.11
819,626.2800000015342,-0.11
820,626.2840000015342,-0.12
821,626.2880000015342,-0.12
822,626.2920000015342,-0.125
823,626.2960000015343,-0.125
824,626.3000000015343,-0.13
825,626.3040000015343,-0.14
826,626.3080000015343,-0.14
827,626.3120000015343,-0.14
828,626.3160000015343,-0.15
829,626.3200000015344,-0.155
830,626.3240000015344,-0.165
831,626.3280000015344,-0.18
832,626.3320000015344,-0.19
833,626.3360000015344,-0.20500000000000002
834,626.3400000015345,-0.23
835,626.3440000015345,-0.245
836,626.3480000015345,-0.26
837,626.3520000015345,-0.275
838,626.3560000015345,-0.295
839,626.3600000015346,-0.315
840,626.3640000015346,-0.325
841,626.3680000015346,-0.34500000000000003
842,626.3720000015346,-0.35000000000000003
843,626.3760000015346,-0.355
844,626.3800000015347,-0.36
845,626.3840000015347,-0.36
846,626.3880000015347,-0.365
847,626.3920000015347,-0.37
848,626.3960000015347,-0.365
849,626.4000000015347,-0.36
850,626.4040000015348,-0.365
851,626.4080000015348,-0.37
852,626.4120000015348,-0.37
853,626.4160000015348,-0.375
854,626.4200000015348,-0.385
855,626.4240000015349,-0.385
856,626.4280000015349,-0.38
857,626.4320000015349,-0.385
858,626.4360000015349,-0.39
859,626.4400000015349,-0.385
860,626.444000001535,-0.385
861,626.448000001535,-0.385
862,626.452000001535,-0.365
863,626.456000001535,-0.355
864,626.460000001535,-0.335
865,626.464000001535,-0.325
866,626.4680000015351,-0.31
867,626.4720000015351,-0.295
868,626.4760000015351,-0.28500000000000003
869,626.4800000015351,-0.265
870,626.4840000015352,-0.26
871,626.4880000015352,-0.24
872,626.4920000015352,-0.225
873,626.4960000015352,-0.195
874,626.5000000015352,-0.17500000000000002
875,626.5040000015352,-0.15
876,626.5080000015353,-0.13
877,626.5120000015353,-0.11
878,626.5160000015353,-0.09
879,626.5200000015353,-0.075
880,626.5240000015353,-0.055
881,626.5280000015354,-0.045
882,626.5320000015354,-0.025
883,626.5360000015354,-0.015
884,626.5400000015354,0.0
885,626.5440000015354,0.02
886,626.5480000015355,0.045
887,626.5520000015355,0.075
888,626.5560000015355,0.11
889,626.5600000015355,0.135
890,626.5640000015355,0.165
891,626.5680000015356,0.2
892,626.5720000015356,0.215
893,626.5760000015356,0.23
894,626.5800000015356,0.245
895,626.5840000015356,0.255
896,626.5880000015356,0.265
897,626.5920000015357,0.275
898,626.5960000015357,0.28
899,626.6000000015357,0.275
900,626.6040000015357,0.295
901,626.6080000015357,0.29
902,626.6120000015358,0.29
903,626.6160000015358,0.295
904,626.6200000015358,0.28500000000000003
905,626.6240000015358,0.275
906,626.6280000015358,0.265
907,626.6320000015359,0.245
908,626.6360000015359,0.23500000000000001
909,626.6400000015359,0.22
910,626.6440000015359,0.20500000000000002
911,626.6480000015359,0.18
912,626.652000001536,0.165
913,626.656000001536,0.155
914,626.660000001536,0.135
915,626.664000001536,0.125
916,626.668000001536,0.11
917,626.672000001536,0.095
918,626.6760000015361,0.085
919,626.6800000015361,0.075
920,626.6840000015361,0.065
921,626.6880000015361,0.05
922,626.6920000015361,0.04
923,626.6960000015362,0.025
924,626.7000000015362,0.005
925,626.7040000015362,-0.005
926,626.7080000015362,-0.02
927,626.7120000015362,-0.035
928,626.7160000015363,-0.055
929,626.7200000015363,-0.07
930,626.7240000015363,-0.085
931,626.7280000015363,-0.105
932,626.7320000015363,-0.115
933,626.7360000015364,-0.13
934,626.7400000015364,-0.14
935,626.7440000015364,-0.16
936,626.7480000015364,-0.17
937,626.7520000015364,-0.185
938,626.7560000015364,-0.19
939,626.7600000015365,-0.20500000000000002
940,626.7640000015365,-0.21
941,626.7680000015365,-0.225
942,626.7720000015365,-0.23
943,626.7760000015365,-0.23
944,626.7800000015366,-0.24
945,626.7840000015366,-0.24
946,626.7880000015366,-0.245
947,626.7920000015366,-0.255
948,626.7960000015366,-0.255
949,626.8000000015367,-0.255
950,626.8040000015367,-0.265
951,626.8080000015367,-0.27
952,626.8120000015367,-0.275
953,626.8160000015367,-0.275
954,626.8200000015368,-0.28
955,626.8240000015368,-0.29
956,626.8280000015368,-0.305
957,626.8320000015368,-0.31
958,626.8360000015368,-0.32
959,626.8400000015369,-0.325
960,626.8440000015369,-0.34
961,626.8480000015369,-0.35000000000000003
962,626.8520000015369,-0.365
963,626.8560000015369,-0.375
964,626.860000001537,-0.385
965,626.864000001537,-0.395
966,626.868000001537,-0.395
967,626.872000001537,-0.41000000000000003
968,626.876000001537,-0.4
969,626.880000001537,-0.41000000000000003
970,626.8840000015371,-0.405
971,626.8880000015371,-0.41500000000000004
972,626.8920000015371,-0.41500000000000004
973,626.8960000015371,-0.42
974,626.9000000015371,-0.42
975,626.9040000015372,-0.43
976,626.9080000015372,-0.435
977,626.9120000015372,-0.445
978,626.9160000015372,-0.445
979,626.9200000015372,-0.44
980,626.9240000015373,-0.44
981,626.9280000015373,-0.425
982,626.9320000015373,-0.41000000000000003
983,626.9360000015373,-0.395
984,626.9400000015373,-0.37
985,626.9440000015373,-0.35000000000000003
986,626.9480000015374,-0.33
987,626.9520000015374,-0.305
988,626.9560000015374,-0.28500000000000003
989,626.9600000015374,-0.255
990,626.9640000015374,-0.23
991,626.9680000015375,-0.21
992,626.9720000015375,-0.17
993,626.9760000015375,-0.14
994,626.9800000015375,-0.11
995,626.9840000015375,-0.075
996,626.9880000015376,-0.05
997,626.9920000015376,-0.02
998,626.9960000015376,0.0
999,627.0000000015376,0.025
1000,627.0040000015376,0.05
1001,627.0080000015377,0.08
1002,627.0120000015377,0.095
1003,627.0160000015377,0.11
1004,627.0200000015377,0.125
1005,627.0240000015377,0.15
1006,627.0280000015377,0.17500000000000002
1007,627.0320000015378,0.20500000000000002
1008,627.0360000015378,0.24
1009,627.0400000015378,0.27
1010,627.0440000015378,0.305
1011,627.0480000015378,0.335
1012,627.0520000015379,0.365
1013,627.0560000015379,0.395
1014,627.0600000015379,0.41500000000000004
1015,627.0640000015379,0.44
1016,627.0680000015379,0.455
1017,627.072000001538,0.455
1018,627.076000001538,0.485
1019,627.080000001538,0.5
1020,627.084000001538,0.51
1021,627.088000001538,0.52
1022,627.092000001538,0.525
1023,627.0960000015381,0.525
1024,627.1000000015381,0.515
1025,627.1040000015381,0.51
1026,627.1080000015381,0.505
1027,627.1120000015381,0.5
1028,627.1160000015382,0.49
1029,627.1200000015382,0.48
1030,627.1240000015382,0.465
1031,627.1280000015382,0.45
1032,627.1320000015382,0.44
1033,627.1360000015383,0.425
1034,627.1400000015383,0.41500000000000004
1035,627.1440000015383,0.395
1036,627.1480000015383,0.385
1037,627.1520000015383,0.365
1038,627.1560000015384,0.34500000000000003
1039,627.1600000015384,0.33
1040,627.1640000015384,0.315
1041,627.1680000015384,0.29
1042,627.1720000015384,0.28
1043,627.1760000015385,0.26
1044,627.1800000015385,0.245
1045,627.1840000015385,0.225
1046,627.1880000015385,0.20500000000000002
1047,627.1920000015385,0.18
1048,627.1960000015386,0.16
1049,627.2000000015386,0.14
1050,627.2040000015386,0.12
1051,627.2080000015386,0.1
1052,627.2120000015386,0.08
1053,627.2160000015386,0.06
1054,627.2200000015387,0.04
1055,627.2240000015387,0.025
1056,627.2280000015387,0.01
1057,627.2320000015387,0.0
1058,627.2360000015387,-0.015
1059,627.2400000015388,-0.035
1060,627.2440000015388,-0.05
1061,627.2480000015388,-0.065
1062,627.2520000015388,-0.08
1063,627.2560000015388,-0.1
1064,627.2600000015389,-0.115
1065,627.2640000015389,-0.125
1066,627.2680000015389,-0.14
1067,627.2720000015389,-0.15
1068,627.2760000015389,-0.17
1069,627.280000001539,-0.18
1070,627.284000001539,-0.19
1071,627.288000001539,-0.20500000000000002
1072,627.292000001539,-0.21
1073,627.296000001539,-0.215
1074,627.300000001539,-0.225
1075,627.3040000015391,-0.23
1076,627.3080000015391,-0.24
1077,627.3120000015391,-0.245
1078,627.3160000015391,-0.25
1079,627.3200000015391,-0.26
1080,627.3240000015392,-0.26
1081,627.3280000015392,-0.275
1082,627.3320000015392,-0.28500000000000003
1083,627.3360000015392,-0.305
1084,627.3400000015392,-0.31
1085,627.3440000015393,-0.33
1086,627.3480000015393,-0.355
1087,627.3520000015393,-0.375
1088,627.3560000015393,-0.4
1089,627.3600000015393,-0.42
1090,627.3640000015394,-0.44
1091,627.3680000015394,-0.465
1092,627.3720000015394,-0.48
1093,627.3760000015394,-0.49
1094,627.3800000015394,-0.505
1095,627.3840000015394,-0.515
1096,627.3880000015395,-0.53
1097,627.3920000015395,-0.53
1098,627.3960000015395,-0.53
1099,627.4000000015395,-0.53
1100,627.4040000015395,-0.53
1101,627.4080000015396,-0.52
1102,627.4120000015396,-0.52
1103,627.4160000015396,-0.515
1104,627.4200000015396,-0.51
1105,627.4240000015396,-0.505
1106,627.4280000015397,-0.505
1107,627.4320000015397,-0.5
1108,627.4360000015397,-0.495
1109,627.4400000015397,-0.485
1110,627.4440000015397,-0.48
1111,627.4480000015398,-0.47000000000000003
1112,627.4520000015398,-0.46
1113,627.4560000015398,-0.445
1114,627.4600000015398,-0.435
1115,627.4640000015398,-0.42
1116,627.4680000015398,-0.395
1117,627.4720000015399,-0.38
1118,627.4760000015399,-0.355
1119,627.4800000015399,-0.34500000000000003
1120,627.4840000015399,-0.325
1121,627.48800000154,-0.305
1122,627.49200000154,-0.28500000000000003
1123,627.49600000154,-0.27
1124,627.50000000154,-0.25
1125,627.50400000154,-0.23
1126,627.50800000154,-0.20500000000000002
1127,627.5120000015401,-0.18
1128,627.5160000015401,-0.16
1129,627.5200000015401,-0.13
1130,627.5240000015401,-0.105
1131,627.5280000015401,-0.085
1132,627.5320000015402,-0.065
1133,627.5360000015402,-0.045
1134,627.5400000015402,-0.025
1135,627.5440000015402,-0.005
1136,627.5480000015402,0.01
1137,627.5520000015403,0.03
1138,627.5560000015403,0.055
1139,627.5600000015403,0.075
1140,627.5640000015403,0.11
1141,627.5680000015403,0.15
1142,627.5720000015403,0.17500000000000002
1143,627.5760000015404,0.20500000000000002
1144,627.5800000015404,0.23500000000000001
1145,627.5840000015404,0.26
1146,627.5880000015404,0.28500000000000003
1147,627.5920000015404,0.3
1148,627.5960000015405,0.315
1149,627.6000000015405,0.33
1150,627.6040000015405,0.34
1151,627.6080000015405,0.35000000000000003
1152,627.6120000015405,0.355
1153,627.6160000015406,0.37
1154,627.6200000015406,0.365
1155,627.6240000015406,0.365
1156,627.6280000015406,0.36
1157,627.6320000015406,0.355
1158,627.6360000015407,0.355
1159,627.6400000015407,0.355
1160,627.6440000015407,0.355
1161,627.6480000015407,0.35000000000000003
1162,627.6520000015407,0.34500000000000003
1163,627.6560000015407,0.34500000000000003
1164,627.6600000015408,0.335
1165,627.6640000015408,0.33
1166,627.6680000015408,0.32
1167,627.6720000015408,0.31
1168,627.6760000015408,0.305
1169,627.6800000015409,0.3
1170,627.6840000015409,0.29
1171,627.6880000015409,0.28500000000000003
1172,627.6920000015409,0.275
1173,627.6960000015409,0.255
1174,627.700000001541,0.245
1175,627.704000001541,0.23
1176,627.708000001541,0.22
1177,627.712000001541,0.2
1178,627.716000001541,0.19
1179,627.720000001541,0.17500000000000002
1180,627.7240000015411,0.16
1181,627.7280000015411,0.135
1182,627.7320000015411,0.12
1183,627.7360000015411,0.095
1184,627.7400000015411,0.08
1185,627.7440000015412,0.065
1186,627.7480000015412,0.045
1187,627.7520000015412,0.03
1188,627.7560000015412,0.01
1189,627.7600000015412,-0.005
1190,627.7640000015413,-0.025
1191,627.7680000015413,-0.05
1192,627.7720000015413,-0.07
1193,627.7760000015413,-0.095
1194,627.7800000015413,-0.12
1195,627.7840000015414,-0.145
1196,627.7880000015414,-0.165
1197,627.7920000015414,-0.185
1198,627.7960000015414,-0.20500000000000002
1199,627.8000000015414,-0.225
1200,627.8040000015415,-0.24
1201,627.8080000015415,-0.255
1202,627.8120000015415,-0.27
1203,627.8160000015415,-0.28
1204,627.8200000015415,-0.28500000000000003
1205,627.8240000015415,-0.295
1206,627.8280000015416,-0.3
1207,627.8320000015416,-0.305
1208,627.8360000015416,-0.315
1209,627.8400000015416,-0.32
1210,627.8440000015416,-0.33
1211,627.8480000015417,-0.335
1212,627.8520000015417,-0.34500000000000003
1213,627.8560000015417,-0.35000000000000003
1214,627.8600000015417,-0.36
1215,627.8640000015417,-0.37
1216,627.8680000015418,-0.375
1217,627.8720000015418,-0.375
1218,627.8760000015418,-0.38
1219,627.8800000015418,-0.375
1220,627.8840000015418,-0.38
1221,627.8880000015419,-0.37
1222,627.8920000015419,-0.365
1223,627.8960000015419,-0.35000000000000003
1224,627.9000000015419,-0.34500000000000003
1225,627.9040000015419,-0.335
1226,627.908000001542,-0.325
1227,627.912000001542,-0.31
1228,627.916000001542,-0.295
1229,627.920000001542,-0.28500000000000003
1230,627.924000001542,-0.28
1231,627.928000001542,-0.26
1232,627.9320000015421,-0.245
1233,627.9360000015421,-0.23
1234,627.9400000015421,-0.20500000000000002
1235,627.9440000015421,-0.185
1236,627.9480000015421,-0.165
1237,627.9520000015422,-0.15
1238,627.9560000015422,-0.125
1239,627.9600000015422,-0.11
1240,627.9640000015422,-0.1
1241,627.9680000015422,-0.085
1242,627.9720000015423,-0.07
1243,627.9760000015423,-0.055
1244,627.9800000015423,-0.04
1245,627.9840000015423,-0.025
1246,627.9880000015423,-0.01
1247,627.9920000015424,-0.01
1248,627.9960000015424,0.01
1249,628.0000000015424,0.01
1250,628.0040000015424,0.035
1251,628.0080000015424,0.06
1252,628.0120000015424,0.075
1253,628.0160000015425,0.1
1254,628.0200000015425,0.12
1255,628.0240000015425,0.145
1256,628.0280000015425,0.165
1257,628.0320000015425,0.17500000000000002
1258,628.0360000015426,0.185
1259,628.0400000015426,0.195
1260,628.0440000015426,0.2
1261,628.0480000015426,0.20500000000000002
1262,628.0520000015426,0.20500000000000002
1263,628.0560000015427,0.215
1264,628.0600000015427,0.215
1265,628.0640000015427,0.21
1266,628.0680000015427,0.21
1267,628.0720000015427,0.20500000000000002
1268,628.0760000015428,0.2
1269,628.0800000015428,0.195
1270,628.0840000015428,0.19
1271,628.0880000015428,0.18
1272,628.0920000015428,0.185
1273,628.0960000015428,0.17500000000000002
1274,628.1000000015429,0.165
1275,628.1040000015429,0.15
1276,628.1080000015429,0.145
1277,628.1120000015429,0.14
1278,628.116000001543,0.125
1279,628.120000001543,0.115
1280,628.124000001543,0.105
1281,628.128000001543,0.09
1282,628.132000001543,0.07
1283,628.136000001543,0.065
1284,628.1400000015431,0.055
1285,628.1440000015431,0.03
1286,628.1480000015431,0.02
1287,628.1520000015431,0.005
1288,628.1560000015431,-0.01
1289,628.1600000015432,-0.025
1290,628.1640000015432,-0.045
1291,628.1680000015432,-0.065
1292,628.1720000015432,-0.09
1293,628.1760000015432,-0.115
1294,628.1800000015432,-0.14
1295,628.1840000015433,-0.16
1296,628.1880000015433,-0.185
1297,628.1920000015433,-0.20500000000000002
1298,628.1960000015433,-0.23500000000000001
1299,628.2000000015433,-0.25
1300,628.2040000015434,-0.27
1301,628.2080000015434,-0.28
1302,628.2120000015434,-0.295
1303,628.2160000015434,-0.31
1304,628.2200000015434,-0.32
1305,628.2240000015435,-0.335
1306,628.2280000015435,-0.34500000000000003
1307,628.2320000015435,-0.35000000000000003
1308,628.2360000015435,-0.365
1309,628.2400000015435,-0.37
1310,628.2440000015436,-0.39
1311,628.2480000015436,-0.4
1312,628.2520000015436,-0.405
1313,628.2560000015436,-0.41000000000000003
1314,628.2600000015436,-0.42
1315,628.2640000015436,-0.425
1316,628.2680000015437,-0.435
1317,628.2720000015437,-0.435
1318,628.2760000015437,-0.435
1319,628.2800000015437,-0.44
1320,628.2840000015437,-0.425
1321,628.2880000015438,-0.41500000000000004
1322,628.2920000015438,-0.4
1323,628.2960000015438,-0.385
1324,628.3000000015438,-0.365
1325,628.3040000015438,-0.36
1326,628.3080000015439,-0.34500000000000003
1327,628.3120000015439,-0.33
1328,628.3160000015439,-0.315
1329,628.3200000015439,-0.3
1330,628.3240000015439,-0.275
1331,628.328000001544,-0.26
1332,628.332000001544,-0.23500000000000001
1333,628.336000001544,-0.21
1334,628.340000001544,-0.185
1335,628.344000001544,-0.165
1336,628.348000001544,-0.135
1337,628.3520000015441,-0.125
1338,628.3560000015441,-0.095
1339,628.3600000015441,-0.09
1340,628.3640000015441,-0.065
1341,628.3680000015441,-0.045
1342,628.3720000015442,-0.025
1343,628.3760000015442,-0.01
1344,628.3800000015442,0.0
1345,628.3840000015442,0.005
1346,628.3880000015442,0.025
1347,628.3920000015443,0.035
1348,628.3960000015443,0.05
1349,628.4000000015443,0.07
1350,628.4040000015443,0.085
1351,628.4080000015443,0.105
1352,628.4120000015444,0.125
1353,628.4160000015444,0.15
1354,628.4200000015444,0.17
1355,628.4240000015444,0.20500000000000002
1356,628.4280000015444,0.225
1357,628.4320000015445,0.245
1358,628.4360000015445,0.26
1359,628.4400000015445,0.27
1360,628.4440000015445,0.275
1361,628.4480000015445,0.28
1362,628.4520000015445,0.28
1363,628.4560000015446,0.28500000000000003
1364,628.4600000015446,0.28500000000000003
1365,628.4640000015446,0.28
1366,628.4680000015446,0.28
1367,628.4720000015446,0.27
1368,628.4760000015447,0.275
1369,628.4800000015447,0.27
1370,628.4840000015447,0.265
1371,628.4880000015447,0.265
1372,628.4920000015447,0.26
1373,628.4960000015448,0.26
1374,628.5000000015448,0.26
1375,628.5040000015448,0.245
1376,628.5080000015448,0.24
1377,628.5120000015448,0.23
1378,628.5160000015449,0.225
1379,628.5200000015449,0.215
1380,628.5240000015449,0.2
1381,628.5280000015449,0.185
1382,628.5320000015449,0.18
1383,628.536000001545,0.165
1384,628.540000001545,0.16
1385,628.544000001545,0.145
1386,628.548000001545,0.15
1387,628.552000001545,0.145
1388,628.556000001545,0.145
1389,628.5600000015451,0.14
1390,628.5640000015451,0.135
1391,628.5680000015451,0.12
1392,628.5720000015451,0.12
1393,628.5760000015451,0.105
1394,628.5800000015452,0.1
1395,628.5840000015452,0.08
1396,628.5880000015452,0.07
1397,628.5920000015452,0.045
1398,628.5960000015452,0.035
1399,628.6000000015453,0.015
1400,628.6040000015453,0.005
1401,628.6080000015453,-0.005
1402,628.6120000015453,-0.02
1403,628.6160000015453,-0.04
1404,628.6200000015453,-0.055
1405,628.6240000015454,-0.07
1406,628.6280000015454,-0.09
1407,628.6320000015454,-0.105
1408,628.6360000015454,-0.125
1409,628.6400000015454,-0.14
1410,628.6440000015455,-0.16
1411,628.6480000015455,-0.18
1412,628.6520000015455,-0.195
1413,628.6560000015455,-0.215
1414,628.6600000015455,-0.23500000000000001
1415,628.6640000015456,-0.245
1416,628.6680000015456,-0.26
1417,628.6720000015456,-0.265
1418,628.6760000015456,-0.265
1419,628.6800000015456,-0.265
1420,628.6840000015457,-0.27
1421,628.6880000015457,-0.26
1422,628.6920000015457,-0.25
1423,628.6960000015457,-0.25
1424,628.7000000015457,-0.23
1425,628.7040000015458,-0.23
1426,628.7080000015458,-0.22
1427,628.7120000015458,-0.22
1428,628.7160000015458,-0.215
1429,628.7200000015458,-0.2
1430,628.7240000015458,-0.2
1431,628.7280000015459,-0.185
1432,628.7320000015459,-0.17
1433,628.7360000015459,-0.16
1434,628.7400000015459,-0.14
1435,628.7440000015459,-0.13
1436,628.748000001546,-0.105
1437,628.752000001546,-0.1
1438,628.756000001546,-0.08
1439,628.760000001546,-0.07
1440,628.764000001546,-0.065
1441,628.768000001546,-0.055
1442,628.7720000015461,-0.05
1443,628.7760000015461,-0.035
1444,628.7800000015461,-0.03
1445,628.7840000015461,-0.025
1446,628.7880000015462,-0.02
1447,628.7920000015462,-0.015
1448,628.7960000015462,-0.005
1449,628.8000000015462,0.0
1450,628.8040000015462,0.01
1451,628.8080000015462,0.02
1452,628.8120000015463,0.04
1453,628.8160000015463,0.05
1454,628.8200000015463,0.075
1455,628.8240000015463,0.09
1456,628.8280000015463,0.105
1457,628.8320000015464,0.105
1458,628.8360000015464,0.11
1459,628.8400000015464,0.115
1460,628.8440000015464,0.115
1461,628.8480000015464,0.105
1462,628.8520000015465,0.105
1463,628.8560000015465,0.095
1464,628.8600000015465,0.085
1465,628.8640000015465,0.075
1466,628.8680000015465,0.065
1467,628.8720000015466,0.055
1468,628.8760000015466,0.04
1469,628.8800000015466,0.03
1470,628.8840000015466,0.015
1471,628.8880000015466,0.005
1472,628.8920000015466,0.0
1473,628.8960000015467,-0.01
1474,628.9000000015467,-0.02
1475,628.9040000015467,-0.03
1476,628.9080000015467,-0.04
1477,628.9120000015467,-0.045
1478,628.9160000015468,-0.06
1479,628.9200000015468,-0.07
1480,628.9240000015468,-0.075
1481,628.9280000015468,-0.085
1482,628.9320000015468,-0.085
1483,628.9360000015469,-0.1
1484,628.9400000015469,-0.105
1485,628.9440000015469,-0.12
1486,628.9480000015469,-0.13
1487,628.9520000015469,-0.135
1488,628.956000001547,-0.145
1489,628.960000001547,-0.16
1490,628.964000001547,-0.165
1491,628.968000001547,-0.18
1492,628.972000001547,-0.19
1493,628.976000001547,-0.20500000000000002
1494,628.9800000015471,-0.22
1495,628.9840000015471,-0.24
1496,628.9880000015471,-0.255
1497,628.9920000015471,-0.265
1498,628.9960000015471,-0.275
1499,629.0000000015472,-0.28
1500,629.0040000015472,-0.29
1501,629.0080000015472,-0.3
1502,629.0120000015472,-0.295
1503,629.0160000015472,-0.3
1504,629.0200000015473,-0.305
1505,629.0240000015473,-0.31
1506,629.0280000015473,-0.315
1507,629.0320000015473,-0.32
1508,629.0360000015473,-0.325
1509,629.0400000015474,-0.34
1510,629.0440000015474,-0.35000000000000003
1511,629.0480000015474,-0.36
1512,629.0520000015474,-0.37
1513,629.0560000015474,-0.38
1514,629.0600000015475,-0.385
1515,629.0640000015475,-0.395
1516,629.0680000015475,-0.4
1517,629.0720000015475,-0.4
1518,629.0760000015475,-0.4
1519,629.0800000015475,-0.4
1520,629.0840000015476,-0.4
1521,629.0880000015476,-0.39
1522,629.0920000015476,-0.38
1523,629.0960000015476,-0.365
1524,629.1000000015476,-0.36
1525,629.1040000015477,-0.34500000000000003
1526,629.1080000015477,-0.33
1527,629.1120000015477,-0.32
1528,629.1160000015477,-0.305
1529,629.1200000015477,-0.295
1530,629.1240000015478,-0.275
1531,629.1280000015478,-0.26
1532,629.1320000015478,-0.245
1533,629.1360000015478,-0.215
1534,629.1400000015478,-0.20500000000000002
1535,629.1440000015479,-0.18
1536,629.1480000015479,-0.16
1537,629.1520000015479,-0.14
1538,629.1560000015479,-0.12
1539,629.1600000015479,-0.1
1540,629.164000001548,-0.085
1541,629.168000001548,-0.07
1542,629.172000001548,-0.055
1543,629.176000001548,-0.04
1544,629.180000001548,-0.025
1545,629.184000001548,-0.01
1546,629.1880000015481,0.0
1547,629.1920000015481,0.005
1548,629.1960000015481,0.03
1549,629.2000000015481,0.04
1550,629.2040000015481,0.055
1551,629.2080000015482,0.08
1552,629.2120000015482,0.105
1553,629.2160000015482,0.135
1554,629.2200000015482,0.165
1555,629.2240000015482,0.2
1556,629.2280000015483,0.225
1557,629.2320000015483,0.245
1558,629.2360000015483,0.27
1559,629.2400000015483,0.275
1560,629.2440000015483,0.29
1561,629.2480000015483,0.3
1562,629.2520000015484,0.305
1563,629.2560000015484,0.315
1564,629.2600000015484,0.32
1565,629.2640000015484,0.325
1566,629.2680000015484,0.325
1567,629.2720000015485,0.335
1568,629.2760000015485,0.335
1569,629.2800000015485,0.335
1570,629.2840000015485,0.325
1571,629.2880000015485,0.32
1572,629.2920000015486,0.32
1573,629.2960000015486,0.315
1574,629.3000000015486,0.305
1575,629.3040000015486,0.3
1576,629.3080000015486,0.295
1577,629.3120000015487,0.28500000000000003
1578,629.3160000015487,0.27
1579,629.3200000015487,0.26
1580,629.3240000015487,0.245
1581,629.3280000015487,0.23500000000000001
1582,629.3320000015487,0.215
1583,629.3360000015488,0.19
1584,629.3400000015488,0.18
1585,629.3440000015488,0.165
1586,629.3480000015488,0.15
1587,629.3520000015488,0.14
1588,629.3560000015489,0.125
1589,629.3600000015489,0.115
1590,629.3640000015489,0.1
1591,629.3680000015489,0.08
1592,629.3720000015489,0.075
1593,629.376000001549,0.06
1594,629.380000001549,0.05
1595,629.384000001549,0.035
1596,629.388000001549,0.02
1597,629.392000001549,0.005
1598,629.396000001549,0.0
1599,629.4000000015491,-0.015
1600,629.4040000015491,-0.025
1601,629.4080000015491,-0.035
1602,629.4120000015491,-0.05
1603,629.4160000015492,-0.07
1604,629.4200000015492,-0.08
1605,629.4240000015492,-0.09
1606,629.4280000015492,-0.105
1607,629.4320000015492,-0.12
1608,629.4360000015492,-0.13
1609,629.4400000015493,-0.145
1610,629.4440000015493,-0.155
1611,629.4480000015493,-0.165
1612,629.4520000015493,-0.17
1613,629.4560000015493,-0.19
1614,629.4600000015494,-0.20500000000000002
1615,629.4640000015494,-0.225
1616,629.4680000015494,-0.25
1617,629.4720000015494,-0.27
1618,629.4760000015494,-0.295
1619,629.4800000015495,-0.32
1620,629.4840000015495,-0.34
1621,629.4880000015495,-0.37
1622,629.4920000015495,-0.385
1623,629.4960000015495,-0.41000000000000003
1624,629.5000000015496,-0.43
1625,629.5040000015496,-0.44
1626,629.5080000015496,-0.455
1627,629.5120000015496,-0.465
1628,629.5160000015496,-0.46
1629,629.5200000015496,-0.465
1630,629.5240000015497,-0.465
1631,629.5280000015497,-0.47000000000000003
1632,629.5320000015497,-0.465
1633,629.5360000015497,-0.465
1634,629.5400000015497,-0.455
1635,629.5440000015498,-0.46
1636,629.5480000015498,-0.45
1637,629.5520000015498,-0.445
1638,629.5560000015498,-0.425
1639,629.5600000015498,-0.41500000000000004
1640,629.5640000015499,-0.4
1641,629.5680000015499,-0.385
1642,629.5720000015499,-0.375
1643,629.5760000015499,-0.36
1644,629.5800000015499,-0.355
1645,629.58400000155,-0.34
1646,629.58800000155,-0.33
1647,629.59200000155,-0.32
1648,629.59600000155,-0.3
1649,629.60000000155,-0.295
1650,629.60400000155,-0.28
1651,629.6080000015501,-0.27
1652,629.6120000015501,-0.255
1653,629.6160000015501,-0.24
1654,629.6200000015501,-0.22
1655,629.6240000015501,-0.20500000000000002
1656,629.6280000015502,-0.17500000000000002
1657,629.6320000015502,-0.155
1658,629.6360000015502,-0.125
1659,629.6400000015502,-0.095
1660,629.6440000015502,-0.06
1661,629.6480000015503,-0.035
1662,629.6520000015503,-0.015
1663,629.6560000015503,0.005
1664,629.6600000015503,0.015
1665,629.6640000015503,0.03
1666,629.6680000015504,0.04
1667,629.6720000015504,0.05
1668,629.6760000015504,0.06
1669,629.6800000015504,0.065
1670,629.6840000015504,0.065
1671,629.6880000015504,0.07
1672,629.6920000015505,0.07
1673,629.6960000015505,0.08
1674,629.7000000015505,0.08
1675,629.7040000015505,0.08
1676,629.7080000015505,0.085
1677,629.7120000015506,0.085
1678,629.7160000015506,0.09
1679,629.7200000015506,0.095
1680,629.7240000015506,0.085
1681,629.7280000015506,0.085
1682,629.7320000015507,0.085
1683,629.7360000015507,0.08
1684,629.7400000015507,0.08
1685,629.7440000015507,0.07
1686,629.7480000015507,0.065
1687,629.7520000015508,0.07
1688,629.7560000015508,0.065
1689,629.7600000015508,0.06
1690,629.7640000015508,0.06
1691,629.7680000015508,0.055
1692,629.7720000015509,0.06
1693,629.7760000015509,0.05
1694,629.7800000015509,0.04
1695,629.7840000015509,0.045
1696,629.7880000015509,0.03
1697,629.792000001551,0.03
1698,629.796000001551,0.02
1699,629.800000001551,0.015
1700,629.804000001551,0.0
1701,629.808000001551,-0.005
1702,629.812000001551,-0.015
1703,629.8160000015511,-0.02
1704,629.8200000015511,-0.03
1705,629.8240000015511,-0.045
1706,629.8280000015511,-0.055
1707,629.8320000015511,-0.06
1708,629.8360000015512,-0.07
1709,629.8400000015512,-0.08
1710,629.8440000015512,-0.09
1711,629.8480000015512,-0.095
1712,629.8520000015512,-0.1
1713,629.8560000015513,-0.105
1714,629.8600000015513,-0.11
1715,629.8640000015513,-0.115
1716,629.8680000015513,-0.12
1717,629.8720000015513,-0.12
1718,629.8760000015513,-0.125
1719,629.8800000015514,-0.13
1720,629.8840000015514,-0.135
1721,629.8880000015514,-0.14
1722,629.8920000015514,-0.135
1723,629.8960000015514,-0.135
1724,629.9000000015515,-0.135
1725,629.9040000015515,-0.14
1726,629.9080000015515,-0.14
1727,629.9120000015515,-0.14
1728,629.9160000015515,-0.135
1729,629.9200000015516,-0.14
1730,629.9240000015516,-0.145
1731,629.9280000015516,-0.145
1732,629.9320000015516,-0.14
1733,629.9360000015516,-0.14
1734,629.9400000015517,-0.14
1735,629.9440000015517,-0.14
1736,629.9480000015517,-0.135
1737,629.9520000015517,-0.13
1738,629.9560000015517,-0.135
1739,629.9600000015517,-0.13
1740,629.9640000015518,-0.125
1741,629.9680000015518,-0.125
1742,629.9720000015518,-0.12
1743,629.9760000015518,-0.115
1744,629.9800000015518,-0.115
1745,629.9840000015519,-0.115
1746,629.9880000015519,-0.11
1747,629.9920000015519,-0.11
1748,629.9960000015519,-0.115
1749,630.0000000015519,-0.12
1750,630.004000001552,-0.13
1751,630.008000001552,-0.14
1752,630.012000001552,-0.145
1753,630.016000001552,-0.145
1754,630.020000001552,-0.145
1755,630.024000001552,-0.14
1756,630.0280000015521,-0.135
1757,630.0320000015521,-0.125
1758,630.0360000015521,-0.115
1759,630.0400000015521,-0.105
1760,630.0440000015521,-0.105
1761,630.0480000015522,-0.095
1762,630.0520000015522,-0.095
1763,630.0560000015522,-0.09
1764,630.0600000015522,-0.085
1765,630.0640000015522,-0.08
1766,630.0680000015523,-0.07
1767,630.0720000015523,-0.07
1768,630.0760000015523,-0.055
1769,630.0800000015523,-0.045
1770,630.0840000015523,-0.04
1771,630.0880000015524,-0.025
1772,630.0920000015524,-0.01
1773,630.0960000015524,0.0
1774,630.1000000015524,0.02
1775,630.1040000015524,0.04
1776,630.1080000015525,0.06
1777,630.1120000015525,0.075
1778,630.1160000015525,0.095
1779,630.1200000015525,0.105
1780,630.1240000015525,0.105
1781,630.1280000015526,0.11
1782,630.1320000015526,0.115
1783,630.1360000015526,0.115
1784,630.1400000015526,0.12
1785,630.1440000015526,0.12
1786,630.1480000015526,0.12
1787,630.1520000015527,0.12
1788,630.1560000015527,0.115
1789,630.1600000015527,0.115
1790,630.1640000015527,0.105
1791,630.1680000015527,0.105
1792,630.1720000015528,0.105
1793,630.1760000015528,0.105
1794,630.1800000015528,0.1
1795,630.1840000015528,0.095
1796,630.1880000015528,0.09
1797,630.1920000015529,0.095
1798,630.1960000015529,0.095
1799,630.2000000015529,0.095
1800,630.2040000015529,0.085
1801,630.2080000015529,0.08
1802,630.212000001553,0.08
1803,630.216000001553,0.07
1804,630.220000001553,0.065
1805,630.224000001553,0.055
1806,630.228000001553,0.05
1807,630.232000001553,0.04
1808,630.2360000015531,0.035
1809,630.2400000015531,0.03
1810,630.2440000015531,0.02
1811,630.2480000015531,0.01
1812,630.2520000015531,0.005
1813,630.2560000015532,0.0
1814,630.2600000015532,0.0
1815,630.2640000015532,-0.01
1816,630.2680000015532,-0.015
1817,630.2720000015532,-0.02
1818,630.2760000015533,-0.03
1819,630.2800000015533,-0.04
1820,630.2840000015533,-0.05
1821,630.2880000015533,-0.055
1822,630.2920000015533,-0.06
1823,630.2960000015534,-0.07
1824,630.3000000015534,-0.07
1825,630.3040000015534,-0.08
1826,630.3080000015534,-0.085
1827,630.3120000015534,-0.09
1828,630.3160000015534,-0.095
1829,630.3200000015535,-0.1
1830,630.3240000015535,-0.11
1831,630.3280000015535,-0.115
1832,630.3320000015535,-0.12
1833,630.3360000015535,-0.125
1834,630.3400000015536,-0.13
1835,630.3440000015536,-0.135
1836,630.3480000015536,-0.135
1837,630.3520000015536,-0.135
1838,630.3560000015536,-0.14
1839,630.3600000015537,-0.145
1840,630.3640000015537,-0.15
1841,630.3680000015537,-0.155
1842,630.3720000015537,-0.155
1843,630.3760000015537,-0.16
1844,630.3800000015538,-0.16
1845,630.3840000015538,-0.165
1846,630.3880000015538,-0.17
1847,630.3920000015538,-0.165
1848,630.3960000015538,-0.165
1849,630.4000000015538,-0.17
1850,630.4040000015539,-0.17
1851,630.4080000015539,-0.17500000000000002
1852,630.4120000015539,-0.17
1853,630.4160000015539,-0.17
1854,630.420000001554,-0.17
1855,630.424000001554,-0.17
1856,630.428000001554,-0.165
1857,630.432000001554,-0.165
1858,630.436000001554,-0.165
1859,630.440000001554,-0.16
1860,630.4440000015541,-0.165
1861,630.4480000015541,-0.16
1862,630.4520000015541,-0.155
1863,630.4560000015541,-0.155
1864,630.4600000015541,-0.15
1865,630.4640000015542,-0.15
1866,630.4680000015542,-0.145
1867,630.4720000015542,-0.14
1868,630.4760000015542,-0.135
1869,630.4800000015542,-0.13
1870,630.4840000015543,-0.13
1871,630.4880000015543,-0.125
1872,630.4920000015543,-0.12
1873,630.4960000015543,-0.115
1874,630.5000000015543,-0.11
1875,630.5040000015543,-0.105
1876,630.5080000015544,-0.105
1877,630.5120000015544,-0.095
1878,630.5160000015544,-0.09
1879,630.5200000015544,-0.09
1880,630.5240000015544,-0.09
1881,630.5280000015545,-0.09
1882,630.5320000015545,-0.085
1883,630.5360000015545,-0.075
1884,630.5400000015545,-0.075
1885,630.5440000015545,-0.075
1886,630.5480000015546,-0.075
1887,630.5520000015546,-0.065
1888,630.5560000015546,-0.06
1889,630.5600000015546,-0.06
1890,630.5640000015546,-0.055
1891,630.5680000015547,-0.055
1892,630.5720000015547,-0.045
1893,630.5760000015547,-0.045
1894,630.5800000015547,-0.05
1895,630.5840000015547,-0.045
1896,630.5880000015547,-0.04
1897,630.5920000015548,-0.035
1898,630.5960000015548,-0.035
1899,630.6000000015548,-0.04
1900,630.6040000015548,-0.045
1901,630.6080000015548,-0.05
1902,630.6120000015549,-0.055
1903,630.6160000015549,-0.065
1904,630.6200000015549,-0.065
1905,630.6240000015549,-0.08
1906,630.6280000015549,-0.085
1907,630.632000001555,-0.1
1908,630.636000001555,-0.115
1909,630.640000001555,-0.125
1910,630.644000001555,-0.145
1911,630.648000001555,-0.145
1912,630.652000001555,-0.15
1913,630.6560000015551,-0.16
1914,630.6600000015551,-0.16
1915,630.6640000015551,-0.165
1916,630.6680000015551,-0.17
1917,630.6720000015551,-0.17
1918,630.6760000015552,-0.18
1919,630.6800000015552,-0.18
1920,630.6840000015552,-0.195
1921,630.6880000015552,-0.195
1922,630.6920000015552,-0.20500000000000002
1923,630.6960000015553,-0.215
1924,630.7000000015553,-0.22
1925,630.7040000015553,-0.23500000000000001
1926,630.7080000015553,-0.24
1927,630.7120000015553,-0.24
1928,630.7160000015554,-0.24
1929,630.7200000015554,-0.23500000000000001
1930,630.7240000015554,-0.22
1931,630.7280000015554,-0.21
1932,630.7320000015554,-0.2
1933,630.7360000015555,-0.185
1934,630.7400000015555,-0.17500000000000002
1935,630.7440000015555,-0.165
1936,630.7480000015555,-0.16
1937,630.7520000015555,-0.14
1938,630.7560000015555,-0.12
1939,630.7600000015556,-0.11
1940,630.7640000015556,-0.095
1941,630.7680000015556,-0.075
1942,630.7720000015556,-0.06
1943,630.7760000015556,-0.04
1944,630.7800000015557,-0.025
1945,630.7840000015557,-0.005
1946,630.7880000015557,0.005
1947,630.7920000015557,0.02
1948,630.7960000015557,0.035
1949,630.8000000015558,0.045
1950,630.8040000015558,0.065
1951,630.8080000015558,0.08
1952,630.8120000015558,0.095
1953,630.8160000015558,0.11
1954,630.8200000015559,0.135
1955,630.8240000015559,0.15
1956,630.8280000015559,0.17
1957,630.8320000015559,0.19
1958,630.8360000015559,0.20500000000000002
1959,630.840000001556,0.22
1960,630.844000001556,0.24
1961,630.848000001556,0.255
1962,630.852000001556,0.265
1963,630.856000001556,0.28500000000000003
1964,630.860000001556,0.295
1965,630.8640000015561,0.305
1966,630.8680000015561,0.315
1967,630.8720000015561,0.32
1968,630.8760000015561,0.32
1969,630.8800000015561,0.325
1970,630.8840000015562,0.32
1971,630.8880000015562,0.315
1972,630.8920000015562,0.315
1973,630.8960000015562,0.315
1974,630.9000000015562,0.31
1975,630.9040000015563,0.3
1976,630.9080000015563,0.3
1977,630.9120000015563,0.305
1978,630.9160000015563,0.295
1979,630.9200000015563,0.295
1980,630.9240000015564,0.29
1981,630.9280000015564,0.28500000000000003
1982,630.9320000015564,0.28500000000000003
1983,630.9360000015564,0.275
1984,630.9400000015564,0.27
1985,630.9440000015564,0.26
1986,630.9480000015565,0.25
1987,630.9520000015565,0.24
1988,630.9560000015565,0.23
1989,630.9600000015565,0.23
1990,630.9640000015565,0.21
1991,630.9680000015566,0.2
1992,630.9720000015566,0.19
1993,630.9760000015566,0.17500000000000002
1994,630.9800000015566,0.17
1995,630.9840000015566,0.15
1996,630.9880000015567,0.135
1997,630.9920000015567,0.12
1998,630.9960000015567,0.105
1999,631.0000000015567,0.095
2000,631.0040000015567,0.075
2001,631.0080000015568,0.065
2002,631.0120000015568,0.045
2003,631.0160000015568,0.03
2004,631.0200000015568,0.015
2005,631.0240000015568,0.0
2006,631.0280000015568,-0.005
2007,631.0320000015569,-0.02
2008,631.0360000015569,-0.04
2009,631.0400000015569,-0.05
2010,631.0440000015569,-0.07
2011,631.0480000015569,-0.095
2012,631.052000001557,-0.105
2013,631.056000001557,-0.125
2014,631.060000001557,-0.14
2015,631.064000001557,-0.16
2016,631.068000001557,-0.17
2017,631.0720000015571,-0.19
2018,631.0760000015571,-0.215
2019,631.0800000015571,-0.23
2020,631.0840000015571,-0.25
2021,631.0880000015571,-0.26
2022,631.0920000015572,-0.275
2023,631.0960000015572,-0.28500000000000003
2024,631.1000000015572,-0.29
2025,631.1040000015572,-0.3
2026,631.1080000015572,-0.305
2027,631.1120000015572,-0.31
2028,631.1160000015573,-0.315
2029,631.1200000015573,-0.32
2030,631.1240000015573,-0.325
2031,631.1280000015573,-0.33
2032,631.1320000015573,-0.325
2033,631.1360000015574,-0.33
2034,631.1400000015574,-0.335
2035,631.1440000015574,-0.34
2036,631.1480000015574,-0.34500000000000003
2037,631.1520000015574,-0.34500000000000003
2038,631.1560000015575,-0.355
2039,631.1600000015575,-0.365
2040,631.1640000015575,-0.375
2041,631.1680000015575,-0.38
2042,631.1720000015575,-0.38
2043,631.1760000015576,-0.385
2044,631.1800000015576,-0.38
2045,631.1840000015576,-0.375
2046,631.1880000015576,-0.365
2047,631.1920000015576,-0.355
2048,631.1960000015576,-0.34
2049,631.2000000015577,-0.33
2050,631.2040000015577,-0.325
2051,631.2080000015577,-0.31
2052,631.2120000015577,-0.3
2053,631.2160000015577,-0.28500000000000003
2054,631.2200000015578,-0.275
2055,631.2240000015578,-0.265
2056,631.2280000015578,-0.255
2057,631.2320000015578,-0.24
2058,631.2360000015578,-0.225
2059,631.2400000015579,-0.20500000000000002
2060,631.2440000015579,-0.19
2061,631.2480000015579,-0.17500000000000002
2062,631.2520000015579,-0.16
2063,631.2560000015579,-0.145
2064,631.260000001558,-0.135
2065,631.264000001558,-0.12
2066,631.268000001558,-0.105
2067,631.272000001558,-0.095
2068,631.276000001558,-0.085
2069,631.280000001558,-0.07
2070,631.2840000015581,-0.06
2071,631.2880000015581,-0.05
2072,631.2920000015581,-0.04
2073,631.2960000015581,-0.02
2074,631.3000000015581,-0.015
2075,631.3040000015582,0.0
2076,631.3080000015582,0.01
2077,631.3120000015582,0.02
2078,631.3160000015582,0.04
2079,631.3200000015582,0.06
2080,631.3240000015583,0.08
2081,631.3280000015583,0.09
2082,631.3320000015583,0.11
2083,631.3360000015583,0.125
2084,631.3400000015583,0.135
2085,631.3440000015584,0.145
2086,631.3480000015584,0.155
2087,631.3520000015584,0.17
2088,631.3560000015584,0.17500000000000002
2089,631.3600000015584,0.17500000000000002
2090,631.3640000015585,0.185
2091,631.3680000015585,0.185
2092,631.3720000015585,0.19
2093,631.3760000015585,0.185
2094,631.3800000015585,0.185
2095,631.3840000015585,0.17500000000000002
2096,631.3880000015586,0.17
2097,631.3920000015586,0.17
2098,631.3960000015586,0.16
2099,631.4000000015586,0.15
2100,631.4040000015586,0.13
2101,631.4080000015587,0.125
2102,631.4120000015587,0.11
2103,631.4160000015587,0.1
2104,631.4200000015587,0.095
2105,631.4240000015587,0.085
2106,631.4280000015588,0.08
2107,631.4320000015588,0.07
2108,631.4360000015588,0.065
2109,631.4400000015588,0.06
2110,631.4440000015588,0.05
2111,631.4480000015589,0.035
2112,631.4520000015589,0.03
2113,631.4560000015589,0.015
2114,631.4600000015589,0.015
2115,631.4640000015589,0.0
2116,631.468000001559,-0.005
2117,631.472000001559,-0.02
2118,631.476000001559,-0.03
2119,631.480000001559,-0.04
2120,631.484000001559,-0.05
2121,631.488000001559,-0.065
2122,631.4920000015591,-0.07
2123,631.4960000015591,-0.075
2124,631.5000000015591,-0.085
2125,631.5040000015591,-0.09
2126,631.5080000015591,-0.1
2127,631.5120000015592,-0.1
2128,631.5160000015592,-0.105
2129,631.5200000015592,-0.11
2130,631.5240000015592,-0.11
2131,631.5280000015592,-0.115
2132,631.5320000015593,-0.105
2133,631.5360000015593,-0.11
2134,631.5400000015593,-0.115
2135,631.5440000015593,-0.12
2136,631.5480000015593,-0.125
2137,631.5520000015593,-0.135
2138,631.5560000015594,-0.145
2139,631.5600000015594,-0.155
2140,631.5640000015594,-0.17
2141,631.5680000015594,-0.17500000000000002
2142,631.5720000015594,-0.185
2143,631.5760000015595,-0.2
2144,631.5800000015595,-0.20500000000000002
2145,631.5840000015595,-0.215
2146,631.5880000015595,-0.22
2147,631.5920000015595,-0.215
2148,631.5960000015596,-0.225
2149,631.6000000015596,-0.225
2150,631.6040000015596,-0.225
2151,631.6080000015596,-0.23
2152,631.6120000015596,-0.225
2153,631.6160000015597,-0.23500000000000001
2154,631.6200000015597,-0.23
2155,631.6240000015597,-0.23500000000000001
2156,631.6280000015597,-0.24
2157,631.6320000015597,-0.23500000000000001
2158,631.6360000015598,-0.24
2159,631.6400000015598,-0.245
2160,631.6440000015598,-0.245
2161,631.6480000015598,-0.25
2162,631.6520000015598,-0.245
2163,631.6560000015598,-0.245
2164,631.6600000015599,-0.25
2165,631.6640000015599,-0.255
2166,631.6680000015599,-0.265
2167,631.6720000015599,-0.26
2168,631.6760000015599,-0.27
2169,631.68000000156,-0.275
2170,631.68400000156,-0.275
2171,631.68800000156,-0.28
2172,631.69200000156,-0.28
2173,631.69600000156,-0.28
2174,631.70000000156,-0.28
2175,631.7040000015601,-0.275
2176,631.7080000015601,-0.265
2177,631.7120000015601,-0.265
2178,631.7160000015601,-0.25
2179,631.7200000015602,-0.23500000000000001
2180,631.7240000015602,-0.23
2181,631.7280000015602,-0.225
2182,631.7320000015602,-0.215
2183,631.7360000015602,-0.21
2184,631.7400000015602,-0.2
2185,631.7440000015603,-0.2
2186,631.7480000015603,-0.18
2187,631.7520000015603,-0.165
2188,631.7560000015603,-0.14
2189,631.7600000015603,-0.125
2190,631.7640000015604,-0.105
2191,631.7680000015604,-0.09
2192,631.7720000015604,-0.075
2193,631.7760000015604,-0.055
2194,631.7800000015604,-0.045
2195,631.7840000015605,-0.035
2196,631.7880000015605,-0.015
2197,631.7920000015605,-0.01
2198,631.7960000015605,0.0
2199,631.8000000015605,0.01
2200,631.8040000015606,0.025
2201,631.8080000015606,0.04
2202,631.8120000015606,0.06
2203,631.8160000015606,0.08
2204,631.8200000015606,0.105
2205,631.8240000015606,0.13
2206,631.8280000015607,0.155
2207,631.8320000015607,0.18
2208,631.8360000015607,0.2
2209,631.8400000015607,0.22
2210,631.8440000015607,0.24
2211,631.8480000015608,0.255
2212,631.8520000015608,0.265
2213,631.8560000015608,0.28
2214,631.8600000015608,0.28
2215,631.8640000015608,0.28500000000000003
2216,631.8680000015609,0.29
2217,631.8720000015609,0.29
2218,631.8760000015609,0.295
2219,631.8800000015609,0.3
2220,631.8840000015609,0.29
2221,631.888000001561,0.28500000000000003
2222,631.892000001561,0.28500000000000003
2223,631.896000001561,0.275
2224,631.900000001561,0.27
2225,631.904000001561,0.255
2226,631.908000001561,0.245
2227,631.9120000015611,0.225
2228,631.9160000015611,0.20500000000000002
2229,631.9200000015611,0.19
2230,631.9240000015611,0.17
2231,631.9280000015611,0.15
2232,631.9320000015612,0.135
2233,631.9360000015612,0.115
2234,631.9400000015612,0.1
2235,631.9440000015612,0.085
2236,631.9480000015612,0.07
2237,631.9520000015613,0.05
2238,631.9560000015613,0.03
2239,631.9600000015613,0.015
2240,631.9640000015613,0.005
2241,631.9680000015613,-0.01
2242,631.9720000015614,-0.015
2243,631.9760000015614,-0.03
2244,631.9800000015614,-0.045
2245,631.9840000015614,-0.055
2246,631.9880000015614,-0.075
2247,631.9920000015615,-0.085
2248,631.9960000015615,-0.1
2249,632.0000000015615,-0.115
2250,632.0040000015615,-0.13
2251,632.0080000015615,-0.145
2252,632.0120000015615,-0.16
2253,632.0160000015616,-0.17500000000000002
2254,632.0200000015616,-0.195
2255,632.0240000015616,-0.215
2256,632.0280000015616,-0.23
2257,632.0320000015616,-0.25
2258,632.0360000015617,-0.27
2259,632.0400000015617,-0.28500000000000003
2260,632.0440000015617,-0.305
2261,632.0480000015617,-0.32
2262,632.0520000015617,-0.34
2263,632.0560000015618,-0.355
2264,632.0600000015618,-0.365
2265,632.0640000015618,-0.375
2266,632.0680000015618,-0.39
2267,632.0720000015618,-0.395
2268,632.0760000015619,-0.4
2269,632.0800000015619,-0.405
2270,632.0840000015619,-0.41000000000000003
2271,632.0880000015619,-0.41000000000000003
2272,632.0920000015619,-0.41500000000000004
2273,632.096000001562,-0.42
2274,632.100000001562,-0.42
2275,632.104000001562,-0.43
2276,632.108000001562,-0.435
2277,632.112000001562,-0.435
2278,632.116000001562,-0.44
2279,632.1200000015621,-0.44
2280,632.1240000015621,-0.45
2281,632.1280000015621,-0.445
2282,632.1320000015621,-0.44
2283,632.1360000015621,-0.44
2284,632.1400000015622,-0.43
2285,632.1440000015622,-0.42
2286,632.1480000015622,-0.41000000000000003
2287,632.1520000015622,-0.395
2288,632.1560000015622,-0.37
2289,632.1600000015623,-0.355
2290,632.1640000015623,-0.335
2291,632.1680000015623,-0.32
2292,632.1720000015623,-0.305
2293,632.1760000015623,-0.28500000000000003
2294,632.1800000015623,-0.27
2295,632.1840000015624,-0.25
2296,632.1880000015624,-0.23500000000000001
2297,632.1920000015624,-0.215
2298,632.1960000015624,-0.19
2299,632.2000000015624,-0.165
2300,632.2040000015625,-0.14
2301,632.2080000015625,-0.12
2302,632.2120000015625,-0.095
2303,632.2160000015625,-0.07
2304,632.2200000015625,-0.055
2305,632.2240000015626,-0.03
2306,632.2280000015626,-0.01
2307,632.2320000015626,0.005
2308,632.2360000015626,0.02
2309,632.2400000015626,0.04
2310,632.2440000015627,0.06
2311,632.2480000015627,0.075
2312,632.2520000015627,0.085
2313,632.2560000015627,0.1
2314,632.2600000015627,0.115
2315,632.2640000015627,0.13
2316,632.2680000015628,0.15
2317,632.2720000015628,0.165
2318,632.2760000015628,0.19
2319,632.2800000015628,0.215
2320,632.2840000015628,0.24
2321,632.2880000015629,0.265
2322,632.2920000015629,0.28
2323,632.2960000015629,0.3
2324,632.3000000015629,0.3
2325,632.3040000015629,0.31
2326,632.308000001563,0.315
2327,632.312000001563,0.32
2328,632.316000001563,0.325
2329,632.320000001563,0.32
2330,632.324000001563,0.315
2331,632.328000001563,0.32
2332,632.3320000015631,0.315
2333,632.3360000015631,0.31
2334,632.3400000015631,0.31
2335,632.3440000015631,0.295
2336,632.3480000015632,0.29
2337,632.3520000015632,0.29
2338,632.3560000015632,0.28500000000000003
2339,632.3600000015632,0.28
2340,632.3640000015632,0.265
2341,632.3680000015632,0.265
2342,632.3720000015633,0.25
2343,632.3760000015633,0.23500000000000001
2344,632.3800000015633,0.23
2345,632.3840000015633,0.22
2346,632.3880000015633,0.20500000000000002
2347,632.3920000015634,0.195
2348,632.3960000015634,0.185
2349,632.4000000015634,0.17
2350,632.4040000015634,0.165
2351,632.4080000015634,0.15
2352,632.4120000015635,0.145
2353,632.4160000015635,0.13
2354,632.4200000015635,0.125
2355,632.4240000015635,0.11
2356,632.4280000015635,0.095
2357,632.4320000015636,0.085
2358,632.4360000015636,0.075
2359,632.4400000015636,0.07
2360,632.4440000015636,0.05
2361,632.4480000015636,0.045
2362,632.4520000015636,0.04
2363,632.4560000015637,0.035
2364,632.4600000015637,0.025
2365,632.4640000015637,0.015
2366,632.4680000015637,0.01
2367,632.4720000015637,0.005
2368,632.4760000015638,0.0
2369,632.4800000015638,0.0
2370,632.4840000015638,-0.005
2371,632.4880000015638,-0.01
2372,632.4920000015638,-0.01
2373,632.4960000015639,-0.015
2374,632.5000000015639,-0.02
2375,632.5040000015639,-0.03
2376,632.5080000015639,-0.035
2377,632.5120000015639,-0.03
2378,632.516000001564,-0.035
2379,632.520000001564,-0.035
2380,632.524000001564,-0.04
2381,632.528000001564,-0.035
2382,632.532000001564,-0.035
2383,632.536000001564,-0.03
2384,632.5400000015641,-0.03
2385,632.5440000015641,-0.035
2386,632.5480000015641,-0.035
2387,632.5520000015641,-0.035
2388,632.5560000015641,-0.04
2389,632.5600000015642,-0.04
2390,632.5640000015642,-0.05
2391,632.5680000015642,-0.06
2392,632.5720000015642,-0.06
2393,632.5760000015642,-0.07
2394,632.5800000015643,-0.08
2395,632.5840000015643,-0.09
2396,632.5880000015643,-0.105
2397,632.5920000015643,-0.125
2398,632.5960000015643,-0.14
2399,632.6000000015644,-0.16
2400,632.6040000015644,-0.18
2401,632.6080000015644,-0.20500000000000002
2402,632.6120000015644,-0.23
2403,632.6160000015644,-0.255
2404,632.6200000015644,-0.27
2405,632.6240000015645,-0.295
2406,632.6280000015645,-0.31
2407,632.6320000015645,-0.33
2408,632.6360000015645,-0.34500000000000003
2409,632.6400000015645,-0.355
2410,632.6440000015646,-0.36
2411,632.6480000015646,-0.365
2412,632.6520000015646,-0.36
2413,632.6560000015646,-0.36
2414,632.6600000015646,-0.365
2415,632.6640000015647,-0.365
2416,632.6680000015647,-0.365
2417,632.6720000015647,-0.355
2418,632.6760000015647,-0.355
2419,632.6800000015647,-0.36
2420,632.6840000015648,-0.36
2421,632.6880000015648,-0.36
2422,632.6920000015648,-0.365
2423,632.6960000015648,-0.37
2424,632.7000000015648,-0.375
2425,632.7040000015649,-0.38
2426,632.7080000015649,-0.385
2427,632.7120000015649,-0.375
2428,632.7160000015649,-0.37
2429,632.7200000015649,-0.365
2430,632.724000001565,-0.35000000000000003
2431,632.728000001565,-0.34
2432,632.732000001565,-0.33
2433,632.736000001565,-0.315
2434,632.740000001565,-0.305
2435,632.744000001565,-0.28500000000000003
2436,632.7480000015651,-0.28
2437,632.7520000015651,-0.265
2438,632.7560000015651,-0.245
2439,632.7600000015651,-0.23500000000000001
2440,632.7640000015651,-0.21
2441,632.7680000015652,-0.19
2442,632.7720000015652,-0.17
2443,632.7760000015652,-0.145
2444,632.7800000015652,-0.135
2445,632.7840000015652,-0.115
2446,632.7880000015653,-0.09
2447,632.7920000015653,-0.08
2448,632.7960000015653,-0.06
2449,632.8000000015653,-0.05
2450,632.8040000015653,-0.035
2451,632.8080000015653,-0.025
2452,632.8120000015654,-0.005
2453,632.8160000015654,0.005
2454,632.8200000015654,0.025
2455,632.8240000015654,0.045
2456,632.8280000015654,0.065
2457,632.8320000015655,0.08
2458,632.8360000015655,0.105
2459,632.8400000015655,0.115
2460,632.8440000015655,0.135
2461,632.8480000015655,0.155
2462,632.8520000015656,0.17500000000000002
2463,632.8560000015656,0.195
2464,632.8600000015656,0.20500000000000002
2465,632.8640000015656,0.23
2466,632.8680000015656,0.245
2467,632.8720000015657,0.26
2468,632.8760000015657,0.275
2469,632.8800000015657,0.29
2470,632.8840000015657,0.305
2471,632.8880000015657,0.315
2472,632.8920000015657,0.325
2473,632.8960000015658,0.34
2474,632.9000000015658,0.34500000000000003
2475,632.9040000015658,0.34500000000000003
2476,632.9080000015658,0.35000000000000003
2477,632.9120000015658,0.35000000000000003
2478,632.9160000015659,0.355
2479,632.9200000015659,0.35000000000000003
2480,632.9240000015659,0.35000000000000003
2481,632.9280000015659,0.34500000000000003
2482,632.9320000015659,0.335
2483,632.936000001566,0.34
2484,632.940000001566,0.33
2485,632.944000001566,0.325
2486,632.948000001566,0.31
2487,632.952000001566,0.305
2488,632.956000001566,0.295
2489,632.9600000015661,0.275
2490,632.9640000015661,0.265
2491,632.9680000015661,0.245
2492,632.9720000015661,0.23500000000000001
2493,632.9760000015661,0.215
2494,632.9800000015662,0.195
2495,632.9840000015662,0.18
2496,632.9880000015662,0.165
2497,632.9920000015662,0.145
2498,632.9960000015662,0.13
2499,633.0000000015663,0.115
2500,633.0040000015663,0.1
2501,633.0080000015663,0.085
2502,633.0120000015663,0.07
2503,633.0160000015663,0.05
2504,633.0200000015664,0.04
2505,633.0240000015664,0.025
2506,633.0280000015664,0.005
2507,633.0320000015664,0.0
2508,633.0360000015664,-0.02
2509,633.0400000015665,-0.03
2510,633.0440000015665,-0.04
2511,633.0480000015665,-0.055
2512,633.0520000015665,-0.07
2513,633.0560000015665,-0.08
2514,633.0600000015666,-0.09
2515,633.0640000015666,-0.1
2516,633.0680000015666,-0.11
2517,633.0720000015666,-0.115
2518,633.0760000015666,-0.12
2519,633.0800000015666,-0.13
2520,633.0840000015667,-0.135
2521,633.0880000015667,-0.14
2522,633.0920000015667,-0.145
2523,633.0960000015667,-0.15
2524,633.1000000015667,-0.15
2525,633.1040000015668,-0.16
2526,633.1080000015668,-0.165
2527,633.1120000015668,-0.16
2528,633.1160000015668,-0.17
2529,633.1200000015668,-0.165
2530,633.1240000015669,-0.165
2531,633.1280000015669,-0.17500000000000002
2532,633.1320000015669,-0.18
2533,633.1360000015669,-0.185
2534,633.1400000015669,-0.185
2535,633.144000001567,-0.195
2536,633.148000001567,-0.2
2537,633.152000001567,-0.20500000000000002
2538,633.156000001567,-0.215
2539,633.160000001567,-0.215
2540,633.164000001567,-0.23
2541,633.1680000015671,-0.245
2542,633.1720000015671,-0.255
2543,633.1760000015671,-0.27
2544,633.1800000015671,-0.28
2545,633.1840000015671,-0.3
2546,633.1880000015672,-0.315
2547,633.1920000015672,-0.325
2548,633.1960000015672,-0.34500000000000003
2549,633.2000000015672,-0.36
2550,633.2040000015672,-0.375
2551,633.2080000015673,-0.395
2552,633.2120000015673,-0.41000000000000003
2553,633.2160000015673,-0.425
2554,633.2200000015673,-0.44
2555,633.2240000015673,-0.46
2556,633.2280000015674,-0.465
2557,633.2320000015674,-0.47000000000000003
2558,633.2360000015674,-0.47500000000000003
2559,633.2400000015674,-0.47500000000000003
2560,633.2440000015674,-0.48
2561,633.2480000015674,-0.48
2562,633.2520000015675,-0.47500000000000003
2563,633.2560000015675,-0.47500000000000003
2564,633.2600000015675,-0.47500000000000003
2565,633.2640000015675,-0.47500000000000003
2566,633.2680000015675,-0.48
2567,633.2720000015676,-0.48
2568,633.2760000015676,-0.49
2569,633.2800000015676,-0.49
2570,633.2840000015676,-0.49
2571,633.2880000015676,-0.495
2572,633.2920000015677,-0.485
2573,633.2960000015677,-0.48
2574,633.3000000015677,-0.48
2575,633.3040000015677,-0.465
2576,633.3080000015677,-0.45
2577,633.3120000015678,-0.435
2578,633.3160000015678,-0.42
2579,633.3200000015678,-0.41000000000000003
2580,633.3240000015678,-0.395
2581,633.3280000015678,-0.375
2582,633.3320000015678,-0.365
2583,633.3360000015679,-0.35000000000000003
2584,633.3400000015679,-0.33
2585,633.3440000015679,-0.315
2586,633.3480000015679,-0.295
2587,633.352000001568,-0.275
2588,633.356000001568,-0.25
2589,633.360000001568,-0.23500000000000001
2590,633.364000001568,-0.215
2591,633.368000001568,-0.2
2592,633.372000001568,-0.185
2593,633.3760000015681,-0.16
2594,633.3800000015681,-0.15
2595,633.3840000015681,-0.14
2596,633.3880000015681,-0.125
2597,633.3920000015681,-0.11
2598,633.3960000015682,-0.095
2599,633.4000000015682,-0.07
2600,633.4040000015682,-0.045
2601,633.4080000015682,-0.025
2602,633.4120000015682,-0.01
2603,633.4160000015682,0.005
2604,633.4200000015683,0.025
2605,633.4240000015683,0.045
2606,633.4280000015683,0.065
2607,633.4320000015683,0.085
2608,633.4360000015683,0.115
2609,633.4400000015684,0.125
2610,633.4440000015684,0.145
2611,633.4480000015684,0.17
2612,633.4520000015684,0.17500000000000002
2613,633.4560000015684,0.2
2614,633.4600000015685,0.20500000000000002
2615,633.4640000015685,0.22
2616,633.4680000015685,0.23
2617,633.4720000015685,0.24
2618,633.4760000015685,0.25
2619,633.4800000015686,0.255
2620,633.4840000015686,0.255
2621,633.4880000015686,0.265
2622,633.4920000015686,0.27
2623,633.4960000015686,0.275
2624,633.5000000015687,0.275
2625,633.5040000015687,0.27
2626,633.5080000015687,0.27
2627,633.5120000015687,0.275
2628,633.5160000015687,0.275
2629,633.5200000015687,0.275
2630,633.5240000015688,0.27
2631,633.5280000015688,0.265
2632,633.5320000015688,0.26
2633,633.5360000015688,0.25
2634,633.5400000015688,0.245
2635,633.5440000015689,0.23500000000000001
2636,633.5480000015689,0.22
2637,633.5520000015689,0.21
2638,633.5560000015689,0.2
2639,633.5600000015689,0.19
2640,633.564000001569,0.17500000000000002
2641,633.568000001569,0.165
2642,633.572000001569,0.155
2643,633.576000001569,0.145
2644,633.580000001569,0.13
2645,633.584000001569,0.11
2646,633.5880000015691,0.1
2647,633.5920000015691,0.09
2648,633.5960000015691,0.08
2649,633.6000000015691,0.065
2650,633.6040000015691,0.055
2651,633.6080000015692,0.035
2652,633.6120000015692,0.025
2653,633.6160000015692,0.015
2654,633.6200000015692,0.0
2655,633.6240000015692,-0.005
2656,633.6280000015693,-0.01
2657,633.6320000015693,-0.02
2658,633.6360000015693,-0.035
2659,633.6400000015693,-0.04
2660,633.6440000015693,-0.05
2661,633.6480000015694,-0.055
2662,633.6520000015694,-0.06
2663,633.6560000015694,-0.06
2664,633.6600000015694,-0.07
2665,633.6640000015694,-0.08
2666,633.6680000015695,-0.08
2667,633.6720000015695,-0.085
2668,633.6760000015695,-0.09
2669,633.6800000015695,-0.095
2670,633.6840000015695,-0.095
2671,633.6880000015695,-0.1
2672,633.6920000015696,-0.095
2673,633.6960000015696,-0.1
2674,633.7000000015696,-0.1
2675,633.7040000015696,-0.105
2676,633.7080000015696,-0.11
2677,633.7120000015697,-0.115
2678,633.7160000015697,-0.11
2679,633.7200000015697,-0.115
2680,633.7240000015697,-0.115
2681,633.7280000015697,-0.12
2682,633.7320000015698,-0.125
2683,633.7360000015698,-0.13
2684,633.7400000015698,-0.145
2685,633.7440000015698,-0.16
2686,633.7480000015698,-0.165
2687,633.7520000015699,-0.18
2688,633.7560000015699,-0.2
2689,633.7600000015699,-0.21
2690,633.7640000015699,-0.23
2691,633.7680000015699,-0.245
2692,633.77200000157,-0.255
2693,633.77600000157,-0.275
2694,633.78000000157,-0.29
2695,633.78400000157,-0.3
2696,633.78800000157,-0.31
2697,633.79200000157,-0.32
2698,633.7960000015701,-0.32
2699,633.8000000015701,-0.325
2700,633.8040000015701,-0.325
2701,633.8080000015701,-0.33
2702,633.8120000015701,-0.325
2703,633.8160000015702,-0.32
2704,633.8200000015702,-0.325
2705,633.8240000015702,-0.32
2706,633.8280000015702,-0.32
2707,633.8320000015702,-0.315
2708,633.8360000015703,-0.31
2709,633.8400000015703,-0.31
2710,633.8440000015703,-0.315
2711,633.8480000015703,-0.315
2712,633.8520000015703,-0.325
2713,633.8560000015704,-0.32
2714,633.8600000015704,-0.33
2715,633.8640000015704,-0.325
2716,633.8680000015704,-0.32
2717,633.8720000015704,-0.31
2718,633.8760000015704,-0.3
2719,633.8800000015705,-0.28500000000000003
2720,633.8840000015705,-0.275
2721,633.8880000015705,-0.26
2722,633.8920000015705,-0.24
2723,633.8960000015705,-0.23
2724,633.9000000015706,-0.21
2725,633.9040000015706,-0.195
2726,633.9080000015706,-0.18
2727,633.9120000015706,-0.16
2728,633.9160000015706,-0.145
2729,633.9200000015707,-0.125
2730,633.9240000015707,-0.1
2731,633.9280000015707,-0.075
2732,633.9320000015707,-0.06
2733,633.9360000015707,-0.04
2734,633.9400000015708,-0.02
2735,633.9440000015708,0.0
2736,633.9480000015708,0.02
2737,633.9520000015708,0.035
2738,633.9560000015708,0.06
2739,633.9600000015708,0.07
2740,633.9640000015709,0.09
2741,633.9680000015709,0.115
2742,633.9720000015709,0.13
2743,633.9760000015709,0.155
2744,633.9800000015709,0.17
2745,633.984000001571,0.19
2746,633.988000001571,0.21
2747,633.992000001571,0.225
2748,633.996000001571,0.255
2749,634.000000001571,0.275
2750,634.0040000015711,0.295
2751,634.0080000015711,0.31
2752,634.0120000015711,0.335
2753,634.0160000015711,0.35000000000000003
2754,634.0200000015711,0.36
2755,634.0240000015712,0.375
2756,634.0280000015712,0.39
2757,634.0320000015712,0.405
2758,634.0360000015712,0.41500000000000004
2759,634.0400000015712,0.405
2760,634.0440000015712,0.41500000000000004
2761,634.0480000015713,0.41000000000000003
2762,634.0520000015713,0.405
2763,634.0560000015713,0.395
2764,634.0600000015713,0.39
2765,634.0640000015713,0.375
2766,634.0680000015714,0.36
2767,634.0720000015714,0.35000000000000003
2768,634.0760000015714,0.34
2769,634.0800000015714,0.33
2770,634.0840000015714,0.31
2771,634.0880000015715,0.305
2772,634.0920000015715,0.28500000000000003
2773,634.0960000015715,0.275
2774,634.1000000015715,0.255
2775,634.1040000015715,0.23500000000000001
2776,634.1080000015716,0.22
2777,634.1120000015716,0.2
2778,634.1160000015716,0.185
2779,634.1200000015716,0.165
2780,634.1240000015716,0.15
2781,634.1280000015716,0.13
2782,634.1320000015717,0.11
2783,634.1360000015717,0.085
2784,634.1400000015717,0.07
2785,634.1440000015717,0.045
2786,634.1480000015717,0.03
2787,634.1520000015718,0.015
2788,634.1560000015718,0.0
2789,634.1600000015718,-0.015
2790,634.1640000015718,-0.035
2791,634.1680000015718,-0.05
2792,634.1720000015719,-0.07
2793,634.1760000015719,-0.085
2794,634.1800000015719,-0.1
2795,634.1840000015719,-0.12
2796,634.1880000015719,-0.13
2797,634.192000001572,-0.155
2798,634.196000001572,-0.165
2799,634.200000001572,-0.18
2800,634.204000001572,-0.2
2801,634.208000001572,-0.21
2802,634.212000001572,-0.23
2803,634.2160000015721,-0.245
2804,634.2200000015721,-0.26
2805,634.2240000015721,-0.275
2806,634.2280000015721,-0.28500000000000003
2807,634.2320000015721,-0.3
2808,634.2360000015722,-0.315
2809,634.2400000015722,-0.325
2810,634.2440000015722,-0.335
2811,634.2480000015722,-0.34500000000000003
2812,634.2520000015722,-0.34500000000000003
2813,634.2560000015723,-0.35000000000000003
2814,634.2600000015723,-0.35000000000000003
2815,634.2640000015723,-0.36
2816,634.2680000015723,-0.365
2817,634.2720000015723,-0.365
2818,634.2760000015724,-0.37
2819,634.2800000015724,-0.375
2820,634.2840000015724,-0.38
2821,634.2880000015724,-0.39
2822,634.2920000015724,-0.385
2823,634.2960000015725,-0.395
2824,634.3000000015725,-0.4
2825,634.3040000015725,-0.405
2826,634.3080000015725,-0.41500000000000004
2827,634.3120000015725,-0.41000000000000003
2828,634.3160000015725,-0.41500000000000004
2829,634.3200000015726,-0.42
2830,634.3240000015726,-0.41000000000000003
2831,634.3280000015726,-0.405
2832,634.3320000015726,-0.395
2833,634.3360000015726,-0.38
2834,634.3400000015727,-0.37
2835,634.3440000015727,-0.355
2836,634.3480000015727,-0.34
2837,634.3520000015727,-0.325
2838,634.3560000015727,-0.31
2839,634.3600000015728,-0.305
2840,634.3640000015728,-0.29
2841,634.3680000015728,-0.28
2842,634.3720000015728,-0.26
2843,634.3760000015728,-0.245
2844,634.3800000015729,-0.225
2845,634.3840000015729,-0.2
2846,634.3880000015729,-0.185
2847,634.3920000015729,-0.165
2848,634.3960000015729,-0.15
2849,634.400000001573,-0.13
2850,634.404000001573,-0.12
2851,634.408000001573,-0.11
2852,634.412000001573,-0.09
2853,634.416000001573,-0.08
2854,634.420000001573,-0.07
2855,634.4240000015731,-0.055
2856,634.4280000015731,-0.05
2857,634.4320000015731,-0.035
2858,634.4360000015731,-0.025
2859,634.4400000015731,-0.005
2860,634.4440000015732,0.005
2861,634.4480000015732,0.035
2862,634.4520000015732,0.065
2863,634.4560000015732,0.09
2864,634.4600000015732,0.13
2865,634.4640000015733,0.16
2866,634.4680000015733,0.19
2867,634.4720000015733,0.21
2868,634.4760000015733,0.23500000000000001
2869,634.4800000015733,0.245
2870,634.4840000015733,0.255
2871,634.4880000015734,0.265
2872,634.4920000015734,0.275
2873,634.4960000015734,0.28500000000000003
2874,634.5000000015734,0.28500000000000003
2875,634.5040000015734,0.29
2876,634.5080000015735,0.28500000000000003
2877,634.5120000015735,0.295
2878,634.5160000015735,0.29
2879,634.5200000015735,0.28500000000000003
2880,634.5240000015735,0.275
2881,634.5280000015736,0.28500000000000003
2882,634.5320000015736,0.27
2883,634.5360000015736,0.265
2884,634.5400000015736,0.26
2885,634.5440000015736,0.25
2886,634.5480000015737,0.245
2887,634.5520000015737,0.23500000000000001
2888,634.5560000015737,0.225
2889,634.5600000015737,0.22
2890,634.5640000015737,0.20500000000000002
2891,634.5680000015738,0.2
2892,634.5720000015738,0.185
2893,634.5760000015738,0.17500000000000002
2894,634.5800000015738,0.165
2895,634.5840000015738,0.15
2896,634.5880000015738,0.14
2897,634.5920000015739,0.13
2898,634.5960000015739,0.115
2899,634.6000000015739,0.105
2900,634.6040000015739,0.085
2901,634.6080000015739,0.075
2902,634.612000001574,0.055
2903,634.616000001574,0.04
2904,634.620000001574,0.025
2905,634.624000001574,0.005
2906,634.628000001574,-0.005
2907,634.632000001574,-0.025
2908,634.6360000015741,-0.05
2909,634.6400000015741,-0.07
2910,634.6440000015741,-0.095
2911,634.6480000015741,-0.12
2912,634.6520000015742,-0.145
2913,634.6560000015742,-0.165
2914,634.6600000015742,-0.18
2915,634.6640000015742,-0.2
2916,634.6680000015742,-0.21
2917,634.6720000015742,-0.225
2918,634.6760000015743,-0.24
2919,634.6800000015743,-0.245
2920,634.6840000015743,-0.265
2921,634.6880000015743,-0.275
2922,634.6920000015743,-0.29
2923,634.6960000015744,-0.3
2924,634.7000000015744,-0.315
2925,634.7040000015744,-0.335
2926,634.7080000015744,-0.34500000000000003
2927,634.7120000015744,-0.36
2928,634.7160000015745,-0.37
2929,634.7200000015745,-0.385
2930,634.7240000015745,-0.395
2931,634.7280000015745,-0.395
2932,634.7320000015745,-0.395
2933,634.7360000015746,-0.395
2934,634.7400000015746,-0.39
2935,634.7440000015746,-0.38
2936,634.7480000015746,-0.37
2937,634.7520000015746,-0.36
2938,634.7560000015746,-0.34500000000000003
2939,634.7600000015747,-0.335
2940,634.7640000015747,-0.325
2941,634.7680000015747,-0.31
2942,634.7720000015747,-0.295
2943,634.7760000015747,-0.28500000000000003
2944,634.7800000015748,-0.27
2945,634.7840000015748,-0.255
2946,634.7880000015748,-0.24
2947,634.7920000015748,-0.22
2948,634.7960000015748,-0.2
2949,634.8000000015749,-0.17500000000000002
2950,634.8040000015749,-0.155
2951,634.8080000015749,-0.14
2952,634.8120000015749,-0.115
2953,634.8160000015749,-0.1
2954,634.820000001575,-0.075
2955,634.824000001575,-0.06
2956,634.828000001575,-0.035
2957,634.832000001575,-0.015
2958,634.836000001575,-0.005
2959,634.840000001575,0.01
2960,634.8440000015751,0.03
2961,634.8480000015751,0.04
2962,634.8520000015751,0.055
2963,634.8560000015751,0.07
2964,634.8600000015751,0.075
2965,634.8640000015752,0.09
2966,634.8680000015752,0.105
2967,634.8720000015752,0.115
2968,634.8760000015752,0.135
2969,634.8800000015752,0.15
2970,634.8840000015753,0.165
2971,634.8880000015753,0.185
2972,634.8920000015753,0.195
2973,634.8960000015753,0.215
2974,634.9000000015753,0.23
2975,634.9040000015754,0.24
2976,634.9080000015754,0.245
2977,634.9120000015754,0.25
2978,634.9160000015754,0.25
2979,634.9200000015754,0.245
2980,634.9240000015755,0.24
2981,634.9280000015755,0.24
2982,634.9320000015755,0.23500000000000001
2983,634.9360000015755,0.225
2984,634.9400000015755,0.22
2985,634.9440000015755,0.20500000000000002
2986,634.9480000015756,0.2
2987,634.9520000015756,0.19
2988,634.9560000015756,0.185
2989,634.9600000015756,0.17
2990,634.9640000015756,0.16
2991,634.9680000015757,0.15
2992,634.9720000015757,0.14
2993,634.9760000015757,0.125
2994,634.9800000015757,0.12
2995,634.9840000015757,0.105
2996,634.9880000015758,0.09
2997,634.9920000015758,0.08
2998,634.9960000015758,0.065
