,622.0000000015137,-0.065
0,622.0040000015138,-0.065
1,622.0080000015138,-0.07
2,622.0120000015138,-0.07
3,622.0160000015138,-0.065
4,622.0200000015138,-0.06
5,622.0240000015139,-0.055
6,622.0280000015139,-0.06
7,622.0320000015139,-0.055
8,622.0360000015139,-0.06
9,622.0400000015139,-0.05
10,622.044000001514,-0.05
11,622.048000001514,-0.055
12,622.052000001514,-0.05
13,622.056000001514,-0.05
14,622.060000001514,-0.045
15,622.064000001514,-0.045
16,622.0680000015141,-0.045
17,622.0720000015141,-0.055
18,622.0760000015141,-0.045
19,622.0800000015141,-0.045
20,622.0840000015141,-0.045
21,622.0880000015142,-0.045
22,622.0920000015142,-0.045
23,622.0960000015142,-0.04
24,622.1000000015142,-0.04
25,622.1040000015142,-0.045
26,622.1080000015143,-0.04
27,622.1120000015143,-0.045
28,622.1160000015143,-0.035
29,622.1200000015143,-0.035
30,622.1240000015143,-0.045
31,622.1280000015144,-0.045
32,622.1320000015144,-0.045
33,622.1360000015144,-0.04
34,622.1400000015144,-0.04
35,622.1440000015144,-0.04
36,622.1480000015144,-0.035
37,622.1520000015145,-0.035
38,622.1560000015145,-0.03
39,622.1600000015145,-0.025
40,622.1640000015145,-0.02
41,622.1680000015145,-0.015
42,622.1720000015146,-0.01
43,622.1760000015146,-0.015
44,622.1800000015146,-0.01
45,622.1840000015146,-0.01
46,622.1880000015146,0.0
47,622.1920000015147,0.0
48,622.1960000015147,0.0
49,622.2000000015147,0.0
50,622.2040000015147,0.01
51,622.2080000015147,0.01
52,622.2120000015148,0.02
53,622.2160000015148,0.02
54,622.2200000015148,0.02
55,622.2240000015148,0.02
56,622.2280000015148,0.02
57,622.2320000015148,0.025
58,622.2360000015149,0.025
59,622.2400000015149,0.02
60,622.2440000015149,0.02
61,622.2480000015149,0.015
62,622.252000001515,0.015
63,622.256000001515,0.01
64,622.260000001515,0.015
65,622.264000001515,0.01
66,622.268000001515,0.005
67,622.272000001515,0.02
68,622.2760000015151,0.015
69,622.2800000015151,0.015
70,622.2840000015151,0.015
71,622.2880000015151,0.03
72,622.2920000015151,0.035
73,622.2960000015152,0.04
74,622.3000000015152,0.045
75,622.3040000015152,0.04
76,622.3080000015152,0.04
77,622.3120000015152,0.025
78,622.3160000015152,0.025
79,622.3200000015153,0.015
80,622.3240000015153,0.015
81,622.3280000015153,0.005
82,622.3320000015153,0.0
83,622.3360000015153,0.0
84,622.3400000015154,-0.005
85,622.3440000015154,-0.01
86,622.3480000015154,-0.02
87,622.3520000015154,-0.025
88,622.3560000015154,-0.025
89,622.3600000015155,-0.025
90,622.3640000015155,-0.035
91,622.3680000015155,-0.035
92,622.3720000015155,-0.035
93,622.3760000015155,-0.035
94,622.3800000015156,-0.03
95,622.3840000015156,-0.03
96,622.3880000015156,-0.025
97,622.3920000015156,-0.025
98,622.3960000015156,-0.015
99,622.4000000015157,-0.02
100,622.4040000015157,-0.02
101,622.4080000015157,-0.02
102,622.4120000015157,-0.02
103,622.4160000015157,-0.015
104,622.4200000015157,-0.015
105,622.4240000015158,-0.02
106,622.4280000015158,-0.015
107,622.4320000015158,-0.015
108,622.4360000015158,-0.02
109,622.4400000015158,-0.015
110,622.4440000015159,-0.02
111,622.4480000015159,-0.02
112,622.4520000015159,-0.02
113,622.4560000015159,-0.015
114,622.4600000015159,-0.02
115,622.464000001516,-0.02
116,622.468000001516,-0.025
117,622.472000001516,-0.03
118,622.476000001516,-0.03
119,622.480000001516,-0.03
120,622.484000001516,-0.035
121,622.4880000015161,-0.035
122,622.4920000015161,-0.03
123,622.4960000015161,-0.02
124,622.5000000015161,-0.01
125,622.5040000015161,-0.005
126,622.5080000015162,0.0
127,622.5120000015162,0.0
128,622.5160000015162,0.005
129,622.5200000015162,0.005
130,622.5240000015162,-0.005
131,622.5280000015163,-0.005
132,622.5320000015163,-0.005
133,622.5360000015163,-0.005
134,622.5400000015163,-0.01
135,622.5440000015163,-0.015
136,622.5480000015164,-0.02
137,622.5520000015164,-0.025
138,622.5560000015164,-0.02
139,622.5600000015164,-0.03
140,622.5640000015164,-0.03
141,622.5680000015165,-0.025
142,622.5720000015165,-0.03
143,622.5760000015165,-0.035
144,622.5800000015165,-0.04
145,622.5840000015165,-0.05
146,622.5880000015165,-0.05
147,622.5920000015166,-0.05
148,622.5960000015166,-0.05
149,622.6000000015166,-0.055
150,622.6040000015166,-0.055
151,622.6080000015166,-0.065
152,622.6120000015167,-0.07
153,622.6160000015167,-0.07
154,622.6200000015167,-0.075
155,622.6240000015167,-0.075
156,622.6280000015167,-0.075
157,622.6320000015168,-0.07
158,622.6360000015168,-0.065
159,622.6400000015168,-0.06
160,622.6440000015168,-0.065
161,622.6480000015168,-0.06
162,622.6520000015169,-0.055
163,622.6560000015169,-0.05
164,622.6600000015169,-0.05
165,622.6640000015169,-0.045
166,622.6680000015169,-0.055
167,622.672000001517,-0.045
168,622.676000001517,-0.05
169,622.680000001517,-0.045
170,622.684000001517,-0.04
171,622.688000001517,-0.04
172,622.692000001517,-0.035
173,622.6960000015171,-0.025
174,622.7000000015171,-0.02
175,622.7040000015171,-0.01
176,622.7080000015171,-0.015
177,622.7120000015171,-0.02
178,622.7160000015172,-0.01
179,622.7200000015172,-0.015
180,622.7240000015172,-0.01
181,622.7280000015172,-0.015
182,622.7320000015172,-0.015
183,622.7360000015173,-0.015
184,622.7400000015173,-0.01
185,622.7440000015173,-0.015
186,622.7480000015173,-0.015
187,622.7520000015173,-0.02
188,622.7560000015174,-0.005
189,622.7600000015174,-0.01
190,622.7640000015174,0.0
191,622.7680000015174,0.0
192,622.7720000015174,0.025
193,622.7760000015174,0.045
194,622.7800000015175,0.055
195,622.7840000015175,0.07
196,622.7880000015175,0.08
197,622.7920000015175,0.08
198,622.7960000015175,0.095
199,622.8000000015176,0.115
200,622.8040000015176,0.135
201,622.8080000015176,0.145
202,622.8120000015176,0.165
203,622.8160000015176,0.165
204,622.8200000015177,0.155
205,622.8240000015177,0.155
206,622.8280000015177,0.145
207,622.8320000015177,0.14
208,622.8360000015177,0.145
209,622.8400000015178,0.13
210,622.8440000015178,0.13
211,622.8480000015178,0.125
212,622.8520000015178,0.115
213,622.8560000015178,0.105
214,622.8600000015178,0.085
215,622.8640000015179,0.08
216,622.8680000015179,0.07
217,622.8720000015179,0.06
218,622.8760000015179,0.055
219,622.8800000015179,0.04
220,622.884000001518,0.03
221,622.888000001518,0.025
222,622.892000001518,0.01
223,622.896000001518,0.005
224,622.900000001518,0.01
225,622.904000001518,0.005
226,622.9080000015181,0.0
227,622.9120000015181,0.0
228,622.9160000015181,0.0
229,622.9200000015181,0.0
230,622.9240000015182,-0.005
231,622.9280000015182,-0.01
232,622.9320000015182,-0.01
233,622.9360000015182,-0.015
234,622.9400000015182,-0.01
235,622.9440000015182,-0.005
236,622.9480000015183,-0.01
237,622.9520000015183,-0.015
238,622.9560000015183,-0.01
239,622.9600000015183,-0.01
240,622.9640000015183,-0.005
241,622.9680000015184,-0.005
242,622.9720000015184,-0.005
243,622.9760000015184,-0.01
244,622.9800000015184,-0.015
245,622.9840000015184,-0.015
246,622.9880000015185,-0.02
247,622.9920000015185,-0.03
248,622.9960000015185,-0.03
249,623.0000000015185,-0.04
250,623.0040000015185,-0.035
251,623.0080000015186,-0.04
252,623.0120000015186,-0.045
253,623.0160000015186,-0.05
254,623.0200000015186,-0.05
255,623.0240000015186,-0.05
256,623.0280000015186,-0.05
257,623.0320000015187,-0.055
258,623.0360000015187,-0.06
259,623.0400000015187,-0.07
260,623.0440000015187,-0.07
261,623.0480000015187,-0.065
262,623.0520000015188,-0.065
263,623.0560000015188,-0.065
264,623.0600000015188,-0.07
265,623.0640000015188,-0.065
266,623.0680000015188,-0.07
267,623.0720000015189,-0.065
268,623.0760000015189,-0.075
269,623.0800000015189,-0.075
270,623.0840000015189,-0.09
271,623.0880000015189,-0.09
272,623.092000001519,-0.095
273,623.096000001519,-0.1
274,623.100000001519,-0.105
275,623.104000001519,-0.105
276,623.108000001519,-0.105
277,623.112000001519,-0.105
278,623.1160000015191,-0.11
279,623.1200000015191,-0.11
280,623.1240000015191,-0.12
281,623.1280000015191,-0.12
282,623.1320000015191,-0.11
283,623.1360000015192,-0.11
284,623.1400000015192,-0.11
285,623.1440000015192,-0.11
286,623.1480000015192,-0.105
287,623.1520000015192,-0.1
288,623.1560000015193,-0.1
289,623.1600000015193,-0.095
290,623.1640000015193,-0.09
291,623.1680000015193,-0.09
292,623.1720000015193,-0.09
293,623.1760000015194,-0.09
294,623.1800000015194,-0.085
295,623.1840000015194,-0.08
296,623.1880000015194,-0.075
297,623.1920000015194,-0.075
298,623.1960000015195,-0.065
299,623.2000000015195,-0.06
300,623.2040000015195,-0.055
301,623.2080000015195,-0.05
302,623.2120000015195,-0.04
303,623.2160000015195,-0.035
304,623.2200000015196,-0.035
305,623.2240000015196,-0.04
306,623.2280000015196,-0.035
307,623.2320000015196,-0.035
308,623.2360000015196,-0.04
309,623.2400000015197,-0.045
310,623.2440000015197,-0.045
311,623.2480000015197,-0.055
312,623.2520000015197,-0.045
313,623.2560000015197,-0.045
314,623.2600000015198,-0.045
315,623.2640000015198,-0.045
316,623.2680000015198,-0.04
317,623.2720000015198,-0.03
318,623.2760000015198,-0.03
319,623.2800000015199,-0.025
320,623.2840000015199,-0.02
321,623.2880000015199,-0.015
322,623.2920000015199,-0.015
323,623.2960000015199,-0.015
324,623.30000000152,-0.02
325,623.30400000152,-0.025
326,623.30800000152,-0.015
327,623.31200000152,-0.015
328,623.31600000152,-0.02
329,623.32000000152,-0.015
330,623.3240000015201,-0.015
331,623.3280000015201,-0.015
332,623.3320000015201,-0.025
333,623.3360000015201,-0.02
334,623.3400000015201,-0.03
335,623.3440000015202,-0.04
336,623.3480000015202,-0.045
337,623.3520000015202,-0.055
338,623.3560000015202,-0.06
339,623.3600000015202,-0.065
340,623.3640000015203,-0.07
341,623.3680000015203,-0.075
342,623.3720000015203,-0.08
343,623.3760000015203,-0.08
344,623.3800000015203,-0.085
345,623.3840000015203,-0.075
346,623.3880000015204,-0.075
347,623.3920000015204,-0.08
348,623.3960000015204,-0.075
349,623.4000000015204,-0.07
350,623.4040000015204,-0.07
351,623.4080000015205,-0.06
352,623.4120000015205,-0.065
353,623.4160000015205,-0.055
354,623.4200000015205,-0.05
355,623.4240000015205,-0.045
356,623.4280000015206,-0.035
357,623.4320000015206,-0.035
358,623.4360000015206,-0.03
359,623.4400000015206,-0.025
360,623.4440000015206,-0.025
361,623.4480000015207,-0.015
362,623.4520000015207,-0.01
363,623.4560000015207,-0.01
364,623.4600000015207,-0.01
365,623.4640000015207,-0.005
366,623.4680000015207,-0.005
367,623.4720000015208,-0.005
368,623.4760000015208,-0.005
369,623.4800000015208,-0.005
370,623.4840000015208,0.0
371,623.4880000015208,0.0
372,623.4920000015209,0.0
373,623.4960000015209,-0.01
374,623.5000000015209,-0.005
375,623.5040000015209,-0.005
376,623.5080000015209,-0.005
377,623.512000001521,-0.005
378,623.516000001521,-0.015
379,623.520000001521,-0.01
380,623.524000001521,-0.01
381,623.528000001521,-0.005
382,623.532000001521,-0.005
383,623.5360000015211,-0.005
384,623.5400000015211,-0.005
385,623.5440000015211,-0.005
386,623.5480000015211,-0.005
387,623.5520000015212,0.0
388,623.5560000015212,-0.01
389,623.5600000015212,-0.01
390,623.5640000015212,-0.005
391,623.5680000015212,0.0
392,623.5720000015212,0.0
393,623.5760000015213,0.0
394,623.5800000015213,-0.005
395,623.5840000015213,-0.005
396,623.5880000015213,0.0
397,623.5920000015213,0.0
398,623.5960000015214,0.0
399,623.6000000015214,0.005
400,623.6040000015214,0.005
401,623.6080000015214,0.015
402,623.6120000015214,0.015
403,623.6160000015215,0.02
404,623.6200000015215,0.035
405,623.6240000015215,0.045
406,623.6280000015215,0.055
407,623.6320000015215,0.065
408,623.6360000015216,0.065
409,623.6400000015216,0.06
410,623.6440000015216,0.06
411,623.6480000015216,0.06
412,623.6520000015216,0.055
413,623.6560000015216,0.055
414,623.6600000015217,0.05
415,623.6640000015217,0.05
416,623.6680000015217,0.05
417,623.6720000015217,0.06
418,623.6760000015217,0.05
419,623.6800000015218,0.05
420,623.6840000015218,0.04
421,623.6880000015218,0.04
422,623.6920000015218,0.04
423,623.6960000015218,0.04
424,623.7000000015219,0.035
425,623.7040000015219,0.025
426,623.7080000015219,0.025
427,623.7120000015219,0.02
428,623.7160000015219,0.015
429,623.720000001522,0.01
430,623.724000001522,0.005
431,623.728000001522,0.0
432,623.732000001522,0.0
433,623.736000001522,-0.005
434,623.740000001522,-0.005
435,623.7440000015221,-0.005
436,623.7480000015221,-0.01
437,623.7520000015221,-0.015
438,623.7560000015221,-0.015
439,623.7600000015221,-0.01
440,623.7640000015222,-0.015
441,623.7680000015222,-0.02
442,623.7720000015222,-0.015
443,623.7760000015222,-0.02
444,623.7800000015222,-0.03
445,623.7840000015223,-0.035
446,623.7880000015223,-0.045
447,623.7920000015223,-0.05
448,623.7960000015223,-0.05
449,623.8000000015223,-0.055
450,623.8040000015224,-0.065
451,623.8080000015224,-0.06
452,623.8120000015224,-0.07
453,623.8160000015224,-0.07
454,623.8200000015224,-0.07
455,623.8240000015224,-0.075
456,623.8280000015225,-0.065
457,623.8320000015225,-0.07
458,623.8360000015225,-0.06
459,623.8400000015225,-0.07
460,623.8440000015225,-0.06
461,623.8480000015226,-0.06
462,623.8520000015226,-0.07
463,623.8560000015226,-0.07
464,623.8600000015226,-0.065
465,623.8640000015226,-0.065
466,623.8680000015227,-0.065
467,623.8720000015227,-0.07
468,623.8760000015227,-0.065
469,623.8800000015227,-0.065
470,623.8840000015227,-0.06
471,623.8880000015228,-0.055
472,623.8920000015228,-0.055
473,623.8960000015228,-0.045
474,623.9000000015228,-0.035
475,623.9040000015228,-0.025
476,623.9080000015229,-0.02
477,623.9120000015229,-0.02
478,623.9160000015229,-0.015
479,623.9200000015229,-0.015
480,623.9240000015229,-0.005
481,623.928000001523,-0.005
482,623.932000001523,-0.005
483,623.936000001523,-0.005
484,623.940000001523,-0.005
485,623.944000001523,0.0
486,623.948000001523,0.0
487,623.9520000015231,0.0
488,623.9560000015231,0.0
489,623.9600000015231,0.0
490,623.9640000015231,0.0
491,623.9680000015231,0.005
492,623.9720000015232,0.0
493,623.9760000015232,0.0
494,623.9800000015232,0.0
495,623.9840000015232,0.01
496,623.9880000015232,0.01
497,623.9920000015233,0.01
498,623.9960000015233,0.01
499,624.0000000015233,0.015
500,624.0040000015233,0.025
501,624.0080000015233,0.025
502,624.0120000015233,0.025
503,624.0160000015234,0.025
504,624.0200000015234,0.025
505,624.0240000015234,0.02
506,624.0280000015234,0.01
507,624.0320000015234,0.01
508,624.0360000015235,0.0
509,624.0400000015235,0.0
510,624.0440000015235,-0.005
511,624.0480000015235,-0.01
512,624.0520000015235,-0.02
513,624.0560000015236,-0.025
514,624.0600000015236,-0.03
515,624.0640000015236,-0.035
516,624.0680000015236,-0.035
517,624.0720000015236,-0.045
518,624.0760000015237,-0.05
519,624.0800000015237,-0.055
520,624.0840000015237,-0.05
521,624.0880000015237,-0.06
522,624.0920000015237,-0.06
523,624.0960000015237,-0.06
524,624.1000000015238,-0.06
525,624.1040000015238,-0.065
526,624.1080000015238,-0.065
527,624.1120000015238,-0.065
528,624.1160000015238,-0.055
529,624.1200000015239,-0.05
530,624.1240000015239,-0.05
531,624.1280000015239,-0.045
532,624.1320000015239,-0.035
533,624.1360000015239,-0.03
534,624.140000001524,-0.025
535,624.144000001524,-0.02
536,624.148000001524,-0.02
537,624.152000001524,-0.02
538,624.156000001524,-0.015
539,624.160000001524,-0.01
540,624.1640000015241,-0.015
541,624.1680000015241,-0.015
542,624.1720000015241,-0.015
543,624.1760000015241,-0.02
544,624.1800000015241,-0.02
545,624.1840000015242,-0.025
546,624.1880000015242,-0.03
547,624.1920000015242,-0.025
548,624.1960000015242,-0.03
549,624.2000000015242,-0.03
550,624.2040000015243,-0.035
551,624.2080000015243,-0.04
552,624.2120000015243,-0.035
553,624.2160000015243,-0.035
554,624.2200000015243,-0.035
555,624.2240000015244,-0.035
556,624.2280000015244,-0.035
557,624.2320000015244,-0.03
558,624.2360000015244,-0.025
559,624.2400000015244,-0.03
560,624.2440000015245,-0.03
561,624.2480000015245,-0.03
562,624.2520000015245,-0.03
563,624.2560000015245,-0.03
564,624.2600000015245,-0.035
565,624.2640000015246,-0.04
566,624.2680000015246,-0.045
567,624.2720000015246,-0.035
568,624.2760000015246,-0.04
569,624.2800000015246,-0.045
570,624.2840000015246,-0.045
571,624.2880000015247,-0.055
572,624.2920000015247,-0.055
573,624.2960000015247,-0.045
574,624.3000000015247,-0.045
575,624.3040000015247,-0.04
576,624.3080000015248,-0.04
577,624.3120000015248,-0.03
578,624.3160000015248,-0.03
579,624.3200000015248,-0.025
580,624.3240000015248,-0.025
581,624.3280000015249,-0.02
582,624.3320000015249,-0.02
583,624.3360000015249,-0.025
584,624.3400000015249,-0.03
585,624.3440000015249,-0.03
586,624.348000001525,-0.03
587,624.352000001525,-0.025
588,624.356000001525,-0.025
589,624.360000001525,-0.02
590,624.364000001525,-0.02
591,624.368000001525,-0.02
592,624.3720000015251,-0.02
593,624.3760000015251,-0.015
594,624.3800000015251,-0.01
595,624.3840000015251,-0.015
596,624.3880000015251,-0.015
597,624.3920000015252,-0.01
598,624.3960000015252,-0.005
599,624.4000000015252,-0.005
600,624.4040000015252,0.005
601,624.4080000015252,0.005
602,624.4120000015253,0.0
603,624.4160000015253,0.0
604,624.4200000015253,0.005
605,624.4240000015253,0.0
606,624.4280000015253,0.0
607,624.4320000015254,-0.005
608,624.4360000015254,-0.005
609,624.4400000015254,-0.005
610,624.4440000015254,0.0
611,624.4480000015254,0.0
612,624.4520000015254,-0.005
613,624.4560000015255,-0.005
614,624.4600000015255,-0.005
615,624.4640000015255,0.0
616,624.4680000015255,0.0
617,624.4720000015255,0.0
618,624.4760000015256,0.0
619,624.4800000015256,-0.005
620,624.4840000015256,-0.005
621,624.4880000015256,0.0
622,624.4920000015256,0.0
623,624.4960000015257,0.0
624,624.5000000015257,-0.005
625,624.5040000015257,0.0
626,624.5080000015257,-0.005
627,624.5120000015257,0.0
628,624.5160000015258,0.0
629,624.5200000015258,0.0
630,624.5240000015258,-0.005
631,624.5280000015258,-0.005
632,624.5320000015258,-0.005
633,624.5360000015258,-0.015
634,624.5400000015259,-0.01
635,624.5440000015259,-0.01
636,624.5480000015259,-0.02
637,624.5520000015259,-0.025
638,624.556000001526,-0.025
639,624.560000001526,-0.03
640,624.564000001526,-0.04
641,624.568000001526,-0.035
642,624.572000001526,-0.045
643,624.576000001526,-0.045
644,624.5800000015261,-0.04
645,624.5840000015261,-0.045
646,624.5880000015261,-0.045
647,624.5920000015261,-0.045
648,624.5960000015261,-0.045
649,624.6000000015262,-0.035
650,624.6040000015262,-0.045
651,624.6080000015262,-0.04
652,624.6120000015262,-0.04
653,624.6160000015262,-0.035
654,624.6200000015263,-0.035
655,624.6240000015263,-0.025
656,624.6280000015263,-0.025
657,624.6320000015263,-0.02
658,624.6360000015263,-0.015
659,624.6400000015263,-0.02
660,624.6440000015264,-0.02
661,624.6480000015264,-0.025
662,624.6520000015264,-0.025
663,624.6560000015264,-0.025
664,624.6600000015264,-0.015
665,624.6640000015265,-0.02
666,624.6680000015265,-0.02
667,624.6720000015265,-0.015
668,624.6760000015265,-0.01
669,624.6800000015265,-0.015
670,624.6840000015266,-0.01
671,624.6880000015266,-0.005
672,624.6920000015266,-0.005
673,624.6960000015266,0.0
674,624.7000000015266,-0.005
675,624.7040000015267,-0.01
676,624.7080000015267,-0.01
677,624.7120000015267,-0.01
678,624.7160000015267,-0.01
679,624.7200000015267,-0.005
680,624.7240000015267,-0.015
681,624.7280000015268,-0.01
682,624.7320000015268,-0.005
683,624.7360000015268,0.0
684,624.7400000015268,-0.005
685,624.7440000015268,-0.005
686,624.7480000015269,-0.01
687,624.7520000015269,-0.015
688,624.7560000015269,-0.02
689,624.7600000015269,-0.025
690,624.7640000015269,-0.03
691,624.768000001527,-0.035
692,624.772000001527,-0.035
693,624.776000001527,-0.04
694,624.780000001527,-0.045
695,624.784000001527,-0.04
696,624.788000001527,-0.04
697,624.7920000015271,-0.035
698,624.7960000015271,-0.035
699,624.8000000015271,-0.025
700,624.8040000015271,-0.025
701,624.8080000015271,-0.025
702,624.8120000015272,-0.015
703,624.8160000015272,-0.01
704,624.8200000015272,-0.005
705,624.8240000015272,0.0
706,624.8280000015272,-0.005
707,624.8320000015273,0.0
708,624.8360000015273,0.005
709,624.8400000015273,0.015
710,624.8440000015273,0.025
711,624.8480000015273,0.04
712,624.8520000015274,0.055
713,624.8560000015274,0.06
714,624.8600000015274,0.07
715,624.8640000015274,0.065
716,624.8680000015274,0.07
717,624.8720000015275,0.055
718,624.8760000015275,0.055
719,624.8800000015275,0.055
720,624.8840000015275,0.05
721,624.8880000015275,0.045
722,624.8920000015275,0.04
723,624.8960000015276,0.04
724,624.9000000015276,0.035
725,624.9040000015276,0.03
726,624.9080000015276,0.025
727,624.9120000015276,0.025
728,624.9160000015277,0.01
729,624.9200000015277,0.01
730,624.9240000015277,0.005
731,624.9280000015277,0.0
732,624.9320000015277,-0.005
733,624.9360000015278,-0.01
734,624.9400000015278,-0.02
735,624.9440000015278,-0.02
736,624.9480000015278,-0.03
737,624.9520000015278,-0.03
738,624.9560000015279,-0.03
739,624.9600000015279,-0.03
740,624.9640000015279,-0.03
741,624.9680000015279,-0.03
742,624.9720000015279,-0.025
743,624.976000001528,-0.03
744,624.980000001528,-0.025
745,624.984000001528,-0.025
746,624.988000001528,-0.025
747,624.992000001528,-0.03
748,624.996000001528,-0.03
749,625.0000000015281,-0.035
750,625.0040000015281,-0.045
751,625.0080000015281,-0.055
752,625.0120000015281,-0.06
753,625.0160000015281,-0.07
754,625.0200000015282,-0.07
755,625.0240000015282,-0.075
756,625.0280000015282,-0.08
757,625.0320000015282,-0.085
758,625.0360000015282,-0.08
759,625.0400000015283,-0.075
760,625.0440000015283,-0.07
761,625.0480000015283,-0.07
762,625.0520000015283,-0.055
763,625.0560000015283,-0.05
764,625.0600000015284,-0.02
765,625.0640000015284,0.0
766,625.0680000015284,0.015
767,625.0720000015284,0.045
768,625.0760000015284,0.075
769,625.0800000015284,0.1
770,625.0840000015285,0.13
771,625.0880000015285,0.14
772,625.0920000015285,0.15
773,625.0960000015285,0.145
774,625.1000000015285,0.145
775,625.1040000015286,0.135
776,625.1080000015286,0.13
777,625.1120000015286,0.13
778,625.1160000015286,0.125
779,625.1200000015286,0.12
780,625.1240000015287,0.105
781,625.1280000015287,0.105
782,625.1320000015287,0.1
783,625.1360000015287,0.1
784,625.1400000015287,0.09
785,625.1440000015288,0.09
786,625.1480000015288,0.09
787,625.1520000015288,0.08
788,625.1560000015288,0.08
789,625.1600000015288,0.07
790,625.1640000015288,0.06
791,625.1680000015289,0.055
792,625.1720000015289,0.045
793,625.1760000015289,0.035
794,625.1800000015289,0.03
795,625.184000001529,0.02
796,625.188000001529,0.015
797,625.192000001529,0.0
798,625.196000001529,0.0
799,625.200000001529,-0.005
800,625.204000001529,-0.02
801,625.2080000015291,-0.015
802,625.2120000015291,-0.025
803,625.2160000015291,-0.03
804,625.2200000015291,-0.04
805,625.2240000015291,-0.05
806,625.2280000015292,-0.05
807,625.2320000015292,-0.05
808,625.2360000015292,-0.055
809,625.2400000015292,-0.06
810,625.2440000015292,-0.065
811,625.2480000015292,-0.07
812,625.2520000015293,-0.075
813,625.2560000015293,-0.08
814,625.2600000015293,-0.08
815,625.2640000015293,-0.095
816,625.2680000015293,-0.095
817,625.2720000015294,-0.1
818,625.2760000015294,-0.1
819,625.2800000015294,-0.105
820,625.2840000015294,-0.115
821,625.2880000015294,-0.12
822,625.2920000015295,-0.125
823,625.2960000015295,-0.125
824,625.3000000015295,-0.135
825,625.3040000015295,-0.13
826,625.3080000015295,-0.135
827,625.3120000015296,-0.13
828,625.3160000015296,-0.13
829,625.3200000015296,-0.135
830,625.3240000015296,-0.13
831,625.3280000015296,-0.125
832,625.3320000015297,-0.12
833,625.3360000015297,-0.115
834,625.3400000015297,-0.115
835,625.3440000015297,-0.11
836,625.3480000015297,-0.11
837,625.3520000015297,-0.1
838,625.3560000015298,-0.095
839,625.3600000015298,-0.095
840,625.3640000015298,-0.09
841,625.3680000015298,-0.085
842,625.3720000015298,-0.075
843,625.3760000015299,-0.07
844,625.3800000015299,-0.07
845,625.3840000015299,-0.055
846,625.3880000015299,-0.055
847,625.3920000015299,-0.04
848,625.39600000153,-0.04
849,625.40000000153,-0.035
850,625.40400000153,-0.04
851,625.40800000153,-0.035
852,625.41200000153,-0.03
853,625.41600000153,-0.03
854,625.4200000015301,-0.035
855,625.4240000015301,-0.04
856,625.4280000015301,-0.04
857,625.4320000015301,-0.045
858,625.4360000015301,-0.045
859,625.4400000015302,-0.05
860,625.4440000015302,-0.055
861,625.4480000015302,-0.06
862,625.4520000015302,-0.055
863,625.4560000015302,-0.06
864,625.4600000015303,-0.065
865,625.4640000015303,-0.065
866,625.4680000015303,-0.07
867,625.4720000015303,-0.07
868,625.4760000015303,-0.075
869,625.4800000015304,-0.08
870,625.4840000015304,-0.075
871,625.4880000015304,-0.085
872,625.4920000015304,-0.085
873,625.4960000015304,-0.09
874,625.5000000015305,-0.09
875,625.5040000015305,-0.085
876,625.5080000015305,-0.085
877,625.5120000015305,-0.085
878,625.5160000015305,-0.09
879,625.5200000015305,-0.09
880,625.5240000015306,-0.085
881,625.5280000015306,-0.08
882,625.5320000015306,-0.085
883,625.5360000015306,-0.085
884,625.5400000015306,-0.085
885,625.5440000015307,-0.08
886,625.5480000015307,-0.075
887,625.5520000015307,-0.08
888,625.5560000015307,-0.075
889,625.5600000015307,-0.075
890,625.5640000015308,-0.06
891,625.5680000015308,-0.07
892,625.5720000015308,-0.065
893,625.5760000015308,-0.065
894,625.5800000015308,-0.065
895,625.5840000015309,-0.065
896,625.5880000015309,-0.055
897,625.5920000015309,-0.06
898,625.5960000015309,-0.06
899,625.6000000015309,-0.055
900,625.604000001531,-0.055
901,625.608000001531,-0.045
902,625.612000001531,-0.04
903,625.616000001531,-0.035
904,625.620000001531,-0.035
905,625.624000001531,-0.03
906,625.6280000015311,-0.02
907,625.6320000015311,-0.02
908,625.6360000015311,-0.02
909,625.6400000015311,-0.01
910,625.6440000015311,-0.005
911,625.6480000015312,0.0
912,625.6520000015312,0.0
913,625.6560000015312,0.0
914,625.6600000015312,0.0
915,625.6640000015312,0.0
916,625.6680000015313,0.005
917,625.6720000015313,0.005
918,625.6760000015313,-0.005
919,625.6800000015313,0.0
920,625.6840000015313,0.0
921,625.6880000015313,-0.005
922,625.6920000015314,-0.005
923,625.6960000015314,-0.005
924,625.7000000015314,0.0
925,625.7040000015314,-0.005
926,625.7080000015314,-0.005
927,625.7120000015315,-0.01
928,625.7160000015315,-0.015
929,625.7200000015315,-0.005
930,625.7240000015315,-0.01
931,625.7280000015315,-0.015
932,625.7320000015316,-0.02
933,625.7360000015316,-0.02
934,625.7400000015316,-0.025
935,625.7440000015316,-0.025
936,625.7480000015316,-0.025
937,625.7520000015317,-0.03
938,625.7560000015317,-0.04
939,625.7600000015317,-0.045
940,625.7640000015317,-0.05
941,625.7680000015317,-0.06
942,625.7720000015318,-0.06
943,625.7760000015318,-0.07
944,625.7800000015318,-0.07
945,625.7840000015318,-0.065
946,625.7880000015318,-0.065
947,625.7920000015318,-0.065
948,625.7960000015319,-0.065
949,625.8000000015319,-0.06
950,625.8040000015319,-0.06
951,625.8080000015319,-0.055
952,625.8120000015319,-0.05
953,625.816000001532,-0.055
954,625.820000001532,-0.055
955,625.824000001532,-0.05
956,625.828000001532,-0.04
957,625.832000001532,-0.035
958,625.836000001532,-0.035
959,625.8400000015321,-0.025
960,625.8440000015321,-0.02
961,625.8480000015321,-0.01
962,625.8520000015321,-0.005
963,625.8560000015322,-0.005
964,625.8600000015322,0.0
965,625.8640000015322,0.0
966,625.8680000015322,0.0
967,625.8720000015322,0.0
968,625.8760000015322,0.0
969,625.8800000015323,0.0
970,625.8840000015323,0.0
971,625.8880000015323,0.0
972,625.8920000015323,-0.005
973,625.8960000015323,0.0
974,625.9000000015324,0.0
975,625.9040000015324,0.0
976,625.9080000015324,-0.005
977,625.9120000015324,0.0
978,625.9160000015324,0.0
979,625.9200000015325,0.005
980,625.9240000015325,0.005
981,625.9280000015325,0.01
982,625.9320000015325,0.02
983,625.9360000015325,0.025
984,625.9400000015326,0.03
985,625.9440000015326,0.04
986,625.9480000015326,0.04
987,625.9520000015326,0.045
988,625.9560000015326,0.045
989,625.9600000015326,0.055
990,625.9640000015327,0.05
991,625.9680000015327,0.045
992,625.9720000015327,0.035
993,625.9760000015327,0.035
994,625.9800000015327,0.02
995,625.9840000015328,0.015
996,625.9880000015328,0.01
997,625.9920000015328,0.005
998,625.9960000015328,0.0
999,626.0000000015328,-0.005
1000,626.0040000015329,-0.01
1001,626.0080000015329,-0.015
1002,626.0120000015329,-0.025
1003,626.0160000015329,-0.035
1004,626.0200000015329,-0.035
1005,626.024000001533,-0.045
1006,626.028000001533,-0.05
1007,626.032000001533,-0.045
1008,626.036000001533,-0.055
1009,626.040000001533,-0.055
1010,626.044000001533,-0.06
1011,626.0480000015331,-0.06
1012,626.0520000015331,-0.06
1013,626.0560000015331,-0.05
1014,626.0600000015331,-0.045
1015,626.0640000015331,-0.04
1016,626.0680000015332,-0.03
1017,626.0720000015332,-0.02
1018,626.0760000015332,-0.005
1019,626.0800000015332,0.0
1020,626.0840000015332,0.01
1021,626.0880000015333,0.02
1022,626.0920000015333,0.055
1023,626.0960000015333,0.075
1024,626.1000000015333,0.085
1025,626.1040000015333,0.105
1026,626.1080000015334,0.11
1027,626.1120000015334,0.115
1028,626.1160000015334,0.13
1029,626.1200000015334,0.145
1030,626.1240000015334,0.165
1031,626.1280000015335,0.19
1032,626.1320000015335,0.2
1033,626.1360000015335,0.20500000000000002
1034,626.1400000015335,0.215
1035,626.1440000015335,0.21
1036,626.1480000015335,0.21
1037,626.1520000015336,0.21
1038,626.1560000015336,0.21
1039,626.1600000015336,0.20500000000000002
1040,626.1640000015336,0.195
1041,626.1680000015336,0.185
1042,626.1720000015337,0.17500000000000002
1043,626.1760000015337,0.165
1044,626.1800000015337,0.155
1045,626.1840000015337,0.145
1046,626.1880000015337,0.13
1047,626.1920000015338,0.12
1048,626.1960000015338,0.105
1049,626.2000000015338,0.1
1050,626.2040000015338,0.095
1051,626.2080000015338,0.08
1052,626.2120000015339,0.065
1053,626.2160000015339,0.06
1054,626.2200000015339,0.055
1055,626.2240000015339,0.045
1056,626.2280000015339,0.035
1057,626.232000001534,0.035
1058,626.236000001534,0.02
1059,626.240000001534,0.025
1060,626.244000001534,0.02
1061,626.248000001534,0.02
1062,626.252000001534,0.01
1063,626.2560000015341,0.01
1064,626.2600000015341,0.005
1065,626.2640000015341,0.0
1066,626.2680000015341,0.0
1067,626.2720000015341,-0.01
1068,626.2760000015342,-0.015
1069,626.2800000015342,-0.02
1070,626.2840000015342,-0.03
1071,626.2880000015342,-0.04
1072,626.2920000015342,-0.05
1073,626.2960000015343,-0.05
1074,626.3000000015343,-0.07
1075,626.3040000015343,-0.075
1076,626.3080000015343,-0.085
1077,626.3120000015343,-0.09
1078,626.3160000015343,-0.1
1079,626.3200000015344,-0.11
1080,626.3240000015344,-0.11
1081,626.3280000015344,-0.115
1082,626.3320000015344,-0.12
1083,626.3360000015344,-0.125
1084,626.3400000015345,-0.13
1085,626.3440000015345,-0.12
1086,626.3480000015345,-0.125
1087,626.3520000015345,-0.12
1088,626.3560000015345,-0.125
1089,626.3600000015346,-0.13
1090,626.3640000015346,-0.125
1091,626.3680000015346,-0.125
1092,626.3720000015346,-0.13
1093,626.3760000015346,-0.13
1094,626.3800000015347,-0.13
1095,626.3840000015347,-0.125
1096,626.3880000015347,-0.125
1097,626.3920000015347,-0.125
1098,626.3960000015347,-0.13
1099,626.4000000015347,-0.13
1100,626.4040000015348,-0.125
1101,626.4080000015348,-0.125
1102,626.4120000015348,-0.13
1103,626.4160000015348,-0.135
1104,626.4200000015348,-0.13
1105,626.4240000015349,-0.13
1106,626.4280000015349,-0.125
1107,626.4320000015349,-0.13
1108,626.4360000015349,-0.125
1109,626.4400000015349,-0.13
1110,626.444000001535,-0.125
1111,626.448000001535,-0.12
1112,626.452000001535,-0.115
1113,626.456000001535,-0.11
1114,626.460000001535,-0.115
1115,626.464000001535,-0.115
1116,626.4680000015351,-0.115
1117,626.4720000015351,-0.105
1118,626.4760000015351,-0.105
1119,626.4800000015351,-0.11
1120,626.4840000015352,-0.11
1121,626.4880000015352,-0.105
1122,626.4920000015352,-0.105
1123,626.4960000015352,-0.1
1124,626.5000000015352,-0.09
1125,626.5040000015352,-0.09
1126,626.5080000015353,-0.08
1127,626.5120000015353,-0.08
1128,626.5160000015353,-0.08
1129,626.5200000015353,-0.075
1130,626.5240000015353,-0.07
1131,626.5280000015354,-0.075
1132,626.5320000015354,-0.07
1133,626.5360000015354,-0.07
1134,626.5400000015354,-0.07
1135,626.5440000015354,-0.075
1136,626.5480000015355,-0.075
1137,626.5520000015355,-0.07
1138,626.5560000015355,-0.07
1139,626.5600000015355,-0.075
1140,626.5640000015355,-0.07
1141,626.5680000015356,-0.075
1142,626.5720000015356,-0.075
1143,626.5760000015356,-0.07
1144,626.5800000015356,-0.07
1145,626.5840000015356,-0.07
1146,626.5880000015356,-0.065
1147,626.5920000015357,-0.06
1148,626.5960000015357,-0.055
1149,626.6000000015357,-0.05
1150,626.6040000015357,-0.055
1151,626.6080000015357,-0.045
1152,626.6120000015358,-0.04
1153,626.6160000015358,-0.03
1154,626.6200000015358,-0.03
1155,626.6240000015358,-0.025
1156,626.6280000015358,-0.02
1157,626.6320000015359,-0.015
1158,626.6360000015359,-0.01
1159,626.6400000015359,-0.005
1160,626.6440000015359,-0.015
1161,626.6480000015359,-0.01
1162,626.652000001536,-0.015
1163,626.656000001536,-0.015
1164,626.660000001536,-0.015
1165,626.664000001536,-0.025
1166,626.668000001536,-0.03
1167,626.672000001536,-0.03
1168,626.6760000015361,-0.03
1169,626.6800000015361,-0.04
1170,626.6840000015361,-0.045
1171,626.6880000015361,-0.05
1172,626.6920000015361,-0.055
1173,626.6960000015362,-0.055
1174,626.7000000015362,-0.055
1175,626.7040000015362,-0.055
1176,626.7080000015362,-0.07
1177,626.7120000015362,-0.06
1178,626.7160000015363,-0.06
1179,626.7200000015363,-0.06
1180,626.7240000015363,-0.055
1181,626.7280000015363,-0.055
1182,626.7320000015363,-0.045
1183,626.7360000015364,-0.045
1184,626.7400000015364,-0.04
1185,626.7440000015364,-0.04
1186,626.7480000015364,-0.03
1187,626.7520000015364,-0.03
1188,626.7560000015364,-0.025
1189,626.7600000015365,-0.025
1190,626.7640000015365,-0.02
1191,626.7680000015365,-0.02
1192,626.7720000015365,-0.02
1193,626.7760000015365,-0.025
1194,626.7800000015366,-0.02
1195,626.7840000015366,-0.015
1196,626.7880000015366,-0.015
1197,626.7920000015366,-0.02
1198,626.7960000015366,-0.02
1199,626.8000000015367,-0.02
1200,626.8040000015367,-0.02
1201,626.8080000015367,-0.02
1202,626.8120000015367,-0.02
1203,626.8160000015367,-0.025
1204,626.8200000015368,-0.025
1205,626.8240000015368,-0.02
1206,626.8280000015368,-0.02
1207,626.8320000015368,-0.02
1208,626.8360000015368,-0.025
1209,626.8400000015369,-0.025
1210,626.8440000015369,-0.02
1211,626.8480000015369,-0.015
1212,626.8520000015369,-0.01
1213,626.8560000015369,-0.01
1214,626.860000001537,-0.015
1215,626.864000001537,-0.01
1216,626.868000001537,-0.01
1217,626.872000001537,-0.005
1218,626.876000001537,-0.01
1219,626.880000001537,-0.005
1220,626.8840000015371,0.0
1221,626.8880000015371,0.0
1222,626.8920000015371,-0.005
1223,626.8960000015371,-0.005
1224,626.9000000015371,-0.005
1225,626.9040000015372,-0.005
1226,626.9080000015372,-0.01
1227,626.9120000015372,-0.015
1228,626.9160000015372,-0.025
1229,626.9200000015372,-0.025
1230,626.9240000015373,-0.035
1231,626.9280000015373,-0.035
1232,626.9320000015373,-0.045
1233,626.9360000015373,-0.045
1234,626.9400000015373,-0.04
1235,626.9440000015373,-0.045
1236,626.9480000015374,-0.04
1237,626.9520000015374,-0.04
1238,626.9560000015374,-0.04
1239,626.9600000015374,-0.04
1240,626.9640000015374,-0.03
1241,626.9680000015375,-0.035
1242,626.9720000015375,-0.03
1243,626.9760000015375,-0.03
1244,626.9800000015375,-0.02
1245,626.9840000015375,-0.025
1246,626.9880000015376,-0.02
1247,626.9920000015376,-0.015
1248,626.9960000015376,-0.015
1249,627.0000000015376,-0.015
1250,627.0040000015376,-0.015
1251,627.0080000015377,-0.015
1252,627.0120000015377,-0.015
1253,627.0160000015377,-0.015
1254,627.0200000015377,0.0
1255,627.0240000015377,0.0
1256,627.0280000015377,0.0
1257,627.0320000015378,0.0
1258,627.0360000015378,0.0
1259,627.0400000015378,0.005
1260,627.0440000015378,0.01
1261,627.0480000015378,0.0
1262,627.0520000015379,0.005
1263,627.0560000015379,0.005
1264,627.0600000015379,0.005
1265,627.0640000015379,0.005
1266,627.0680000015379,0.005
1267,627.072000001538,0.0
1268,627.076000001538,0.0
1269,627.080000001538,0.0
1270,627.084000001538,0.0
1271,627.088000001538,0.0
1272,627.092000001538,0.0
1273,627.0960000015381,0.0
1274,627.1000000015381,0.005
1275,627.1040000015381,0.01
1276,627.1080000015381,0.01
1277,627.1120000015381,0.01
1278,627.1160000015382,0.005
1279,627.1200000015382,0.0
1280,627.1240000015382,0.0
1281,627.1280000015382,-0.01
1282,627.1320000015382,-0.01
1283,627.1360000015383,-0.025
1284,627.1400000015383,-0.025
1285,627.1440000015383,-0.02
1286,627.1480000015383,-0.02
1287,627.1520000015383,-0.02
1288,627.1560000015384,-0.02
1289,627.1600000015384,-0.01
1290,627.1640000015384,-0.01
1291,627.1680000015384,-0.005
1292,627.1720000015384,-0.01
1293,627.1760000015385,-0.01
1294,627.1800000015385,-0.005
1295,627.1840000015385,-0.005
1296,627.1880000015385,0.0
1297,627.1920000015385,0.0
1298,627.1960000015386,0.0
1299,627.2000000015386,0.0
1300,627.2040000015386,0.0
1301,627.2080000015386,0.0
1302,627.2120000015386,0.01
1303,627.2160000015386,0.005
1304,627.2200000015387,0.005
1305,627.2240000015387,0.01
1306,627.2280000015387,0.01
1307,627.2320000015387,0.01
1308,627.2360000015387,0.005
1309,627.2400000015388,0.01
1310,627.2440000015388,0.01
1311,627.2480000015388,0.015
1312,627.2520000015388,0.015
1313,627.2560000015388,0.01
1314,627.2600000015389,0.005
1315,627.2640000015389,0.01
1316,627.2680000015389,0.005
1317,627.2720000015389,0.005
1318,627.2760000015389,0.0
1319,627.280000001539,0.0
1320,627.284000001539,0.0
1321,627.288000001539,0.0
1322,627.292000001539,-0.005
1323,627.296000001539,-0.01
1324,627.300000001539,-0.02
1325,627.3040000015391,-0.01
1326,627.3080000015391,-0.015
1327,627.3120000015391,-0.01
1328,627.3160000015391,-0.01
1329,627.3200000015391,-0.01
1330,627.3240000015392,-0.01
1331,627.3280000015392,-0.01
1332,627.3320000015392,0.0
1333,627.3360000015392,0.0
1334,627.3400000015392,-0.005
1335,627.3440000015393,-0.005
1336,627.3480000015393,0.0
1337,627.3520000015393,0.0
1338,627.3560000015393,0.0
1339,627.3600000015393,0.01
1340,627.3640000015394,0.02
1341,627.3680000015394,0.035
1342,627.3720000015394,0.05
1343,627.3760000015394,0.065
1344,627.3800000015394,0.08
1345,627.3840000015394,0.085
1346,627.3880000015395,0.095
1347,627.3920000015395,0.105
1348,627.3960000015395,0.105
1349,627.4000000015395,0.09
1350,627.4040000015395,0.09
1351,627.4080000015396,0.085
1352,627.4120000015396,0.09
1353,627.4160000015396,0.1
1354,627.4200000015396,0.11
1355,627.4240000015396,0.125
1356,627.4280000015397,0.125
1357,627.4320000015397,0.13
1358,627.4360000015397,0.125
1359,627.4400000015397,0.115
1360,627.4440000015397,0.11
1361,627.4480000015398,0.105
1362,627.4520000015398,0.1
1363,627.4560000015398,0.105
1364,627.4600000015398,0.1
1365,627.4640000015398,0.1
1366,627.4680000015398,0.095
1367,627.4720000015399,0.085
1368,627.4760000015399,0.085
1369,627.4800000015399,0.09
1370,627.4840000015399,0.075
1371,627.48800000154,0.075
1372,627.49200000154,0.075
1373,627.49600000154,0.075
1374,627.50000000154,0.07
1375,627.50400000154,0.06
1376,627.50800000154,0.055
1377,627.5120000015401,0.05
1378,627.5160000015401,0.035
1379,627.5200000015401,0.025
1380,627.5240000015401,0.03
1381,627.5280000015401,0.015
1382,627.5320000015402,0.015
1383,627.5360000015402,0.015
1384,627.5400000015402,0.01
1385,627.5440000015402,0.0
1386,627.5480000015402,-0.005
1387,627.5520000015403,-0.01
1388,627.5560000015403,-0.02
1389,627.5600000015403,-0.03
1390,627.5640000015403,-0.035
1391,627.5680000015403,-0.045
1392,627.5720000015403,-0.055
1393,627.5760000015404,-0.055
1394,627.5800000015404,-0.055
1395,627.5840000015404,-0.06
1396,627.5880000015404,-0.06
1397,627.5920000015404,-0.065
1398,627.5960000015405,-0.07
1399,627.6000000015405,-0.075
1400,627.6040000015405,-0.08
1401,627.6080000015405,-0.09
1402,627.6120000015405,-0.1
1403,627.6160000015406,-0.095
1404,627.6200000015406,-0.1
1405,627.6240000015406,-0.1
1406,627.6280000015406,-0.105
1407,627.6320000015406,-0.11
1408,627.6360000015407,-0.11
1409,627.6400000015407,-0.115
1410,627.6440000015407,-0.12
1411,627.6480000015407,-0.13
1412,627.6520000015407,-0.135
1413,627.6560000015407,-0.135
1414,627.6600000015408,-0.13
1415,627.6640000015408,-0.135
1416,627.6680000015408,-0.135
1417,627.6720000015408,-0.125
1418,627.6760000015408,-0.125
1419,627.6800000015409,-0.12
1420,627.6840000015409,-0.12
1421,627.6880000015409,-0.125
1422,627.6920000015409,-0.125
1423,627.6960000015409,-0.135
1424,627.700000001541,-0.135
1425,627.704000001541,-0.14
1426,627.708000001541,-0.14
1427,627.712000001541,-0.145
1428,627.716000001541,-0.145
1429,627.720000001541,-0.15
1430,627.7240000015411,-0.155
1431,627.7280000015411,-0.16
1432,627.7320000015411,-0.155
1433,627.7360000015411,-0.155
1434,627.7400000015411,-0.15
1435,627.7440000015412,-0.15
1436,627.7480000015412,-0.14
1437,627.7520000015412,-0.13
1438,627.7560000015412,-0.115
1439,627.7600000015412,-0.11
1440,627.7640000015413,-0.1
1441,627.7680000015413,-0.09
1442,627.7720000015413,-0.085
1443,627.7760000015413,-0.08
1444,627.7800000015413,-0.075
1445,627.7840000015414,-0.07
1446,627.7880000015414,-0.065
1447,627.7920000015414,-0.055
1448,627.7960000015414,-0.05
1449,627.8000000015414,-0.04
1450,627.8040000015415,-0.035
1451,627.8080000015415,-0.03
1452,627.8120000015415,-0.03
1453,627.8160000015415,-0.02
1454,627.8200000015415,-0.015
1455,627.8240000015415,-0.02
1456,627.8280000015416,-0.02
1457,627.8320000015416,-0.02
1458,627.8360000015416,-0.02
1459,627.8400000015416,-0.015
1460,627.8440000015416,-0.015
1461,627.8480000015417,-0.015
1462,627.8520000015417,-0.015
1463,627.8560000015417,-0.015
1464,627.8600000015417,-0.015
1465,627.8640000015417,-0.01
1466,627.8680000015418,-0.015
1467,627.8720000015418,-0.025
1468,627.8760000015418,-0.025
1469,627.8800000015418,-0.03
1470,627.8840000015418,-0.035
1471,627.8880000015419,-0.035
1472,627.8920000015419,-0.045
1473,627.8960000015419,-0.045
1474,627.9000000015419,-0.04
1475,627.9040000015419,-0.04
1476,627.908000001542,-0.04
1477,627.912000001542,-0.04
1478,627.916000001542,-0.04
1479,627.920000001542,-0.035
1480,627.924000001542,-0.025
1481,627.928000001542,-0.03
1482,627.9320000015421,-0.035
1483,627.9360000015421,-0.03
1484,627.9400000015421,-0.03
1485,627.9440000015421,-0.035
1486,627.9480000015421,-0.035
1487,627.9520000015422,-0.035
1488,627.9560000015422,-0.04
1489,627.9600000015422,-0.035
1490,627.9640000015422,-0.035
1491,627.9680000015422,-0.04
1492,627.9720000015423,-0.045
1493,627.9760000015423,-0.045
1494,627.9800000015423,-0.05
1495,627.9840000015423,-0.055
1496,627.9880000015423,-0.055
1497,627.9920000015424,-0.06
1498,627.9960000015424,-0.06
1499,628.0000000015424,-0.06
1500,628.0040000015424,-0.065
1501,628.0080000015424,-0.065
1502,628.0120000015424,-0.07
1503,628.0160000015425,-0.07
1504,628.0200000015425,-0.07
1505,628.0240000015425,-0.065
1506,628.0280000015425,-0.065
1507,628.0320000015425,-0.075
1508,628.0360000015426,-0.075
1509,628.0400000015426,-0.07
1510,628.0440000015426,-0.07
1511,628.0480000015426,-0.07
1512,628.0520000015426,-0.07
1513,628.0560000015427,-0.07
1514,628.0600000015427,-0.065
1515,628.0640000015427,-0.065
1516,628.0680000015427,-0.055
1517,628.0720000015427,-0.05
1518,628.0760000015428,-0.05
1519,628.0800000015428,-0.05
1520,628.0840000015428,-0.04
1521,628.0880000015428,-0.03
1522,628.0920000015428,-0.03
1523,628.0960000015428,-0.03
1524,628.1000000015429,-0.015
1525,628.1040000015429,-0.005
1526,628.1080000015429,0.0
1527,628.1120000015429,0.01
1528,628.116000001543,0.025
1529,628.120000001543,0.03
1530,628.124000001543,0.035
1531,628.128000001543,0.04
1532,628.132000001543,0.04
1533,628.136000001543,0.035
1534,628.1400000015431,0.03
1535,628.1440000015431,0.025
1536,628.1480000015431,0.025
1537,628.1520000015431,0.02
1538,628.1560000015431,0.005
1539,628.1600000015432,0.005
1540,628.1640000015432,0.005
1541,628.1680000015432,0.0
1542,628.1720000015432,0.0
1543,628.1760000015432,0.0
1544,628.1800000015432,0.0
1545,628.1840000015433,-0.005
1546,628.1880000015433,0.0
1547,628.1920000015433,-0.005
1548,628.1960000015433,-0.01
1549,628.2000000015433,-0.005
1550,628.2040000015434,-0.005
1551,628.2080000015434,-0.01
1552,628.2120000015434,-0.01
1553,628.2160000015434,-0.01
1554,628.2200000015434,0.0
1555,628.2240000015435,0.0
1556,628.2280000015435,-0.005
1557,628.2320000015435,-0.005
1558,628.2360000015435,-0.005
1559,628.2400000015435,0.0
1560,628.2440000015436,0.0
1561,628.2480000015436,-0.005
1562,628.2520000015436,-0.005
1563,628.2560000015436,-0.005
1564,628.2600000015436,0.0
1565,628.2640000015436,0.0
1566,628.2680000015437,-0.005
1567,628.2720000015437,-0.005
1568,628.2760000015437,-0.005
1569,628.2800000015437,-0.01
1570,628.2840000015437,-0.01
1571,628.2880000015438,-0.02
1572,628.2920000015438,-0.015
1573,628.2960000015438,-0.02
1574,628.3000000015438,-0.02
1575,628.3040000015438,-0.02
1576,628.3080000015439,-0.025
1577,628.3120000015439,-0.025
1578,628.3160000015439,-0.03
1579,628.3200000015439,-0.025
1580,628.3240000015439,-0.025
1581,628.328000001544,-0.03
1582,628.332000001544,-0.03
1583,628.336000001544,-0.03
1584,628.340000001544,-0.03
1585,628.344000001544,-0.03
1586,628.348000001544,-0.035
1587,628.3520000015441,-0.035
1588,628.3560000015441,-0.03
1589,628.3600000015441,-0.025
1590,628.3640000015441,-0.03
1591,628.3680000015441,-0.025
1592,628.3720000015442,-0.035
1593,628.3760000015442,-0.03
1594,628.3800000015442,-0.025
1595,628.3840000015442,-0.02
1596,628.3880000015442,-0.02
1597,628.3920000015443,-0.02
1598,628.3960000015443,-0.02
1599,628.4000000015443,-0.02
1600,628.4040000015443,-0.015
1601,628.4080000015443,-0.01
1602,628.4120000015444,-0.005
1603,628.4160000015444,-0.005
1604,628.4200000015444,0.0
1605,628.4240000015444,0.0
1606,628.4280000015444,0.005
1607,628.4320000015445,0.0
1608,628.4360000015445,0.0
1609,628.4400000015445,0.005
1610,628.4440000015445,0.005
1611,628.4480000015445,0.005
1612,628.4520000015445,0.005
1613,628.4560000015446,0.0
1614,628.4600000015446,0.0
1615,628.4640000015446,0.0
1616,628.4680000015446,-0.005
1617,628.4720000015446,-0.01
1618,628.4760000015447,-0.01
1619,628.4800000015447,-0.01
1620,628.4840000015447,-0.005
1621,628.4880000015447,-0.01
1622,628.4920000015447,-0.015
1623,628.4960000015448,-0.015
1624,628.5000000015448,-0.01
1625,628.5040000015448,-0.01
1626,628.5080000015448,0.0
1627,628.5120000015448,0.0
1628,628.5160000015449,-0.005
1629,628.5200000015449,-0.005
1630,628.5240000015449,-0.01
1631,628.5280000015449,-0.005
1632,628.5320000015449,-0.005
1633,628.536000001545,-0.01
1634,628.540000001545,-0.005
1635,628.544000001545,-0.005
1636,628.548000001545,0.0
1637,628.552000001545,0.0
1638,628.556000001545,0.0
1639,628.5600000015451,-0.005
1640,628.5640000015451,0.0
1641,628.5680000015451,0.0
1642,628.5720000015451,0.0
1643,628.5760000015451,-0.005
1644,628.5800000015452,-0.005
1645,628.5840000015452,-0.005
1646,628.5880000015452,-0.005
1647,628.5920000015452,0.0
1648,628.5960000015452,-0.005
1649,628.6000000015453,-0.005
1650,628.6040000015453,0.0
1651,628.6080000015453,0.0
1652,628.6120000015453,0.005
1653,628.6160000015453,0.0
1654,628.6200000015453,0.0
1655,628.6240000015454,0.005
1656,628.6280000015454,0.005
1657,628.6320000015454,0.005
1658,628.6360000015454,0.005
1659,628.6400000015454,0.005
1660,628.6440000015455,0.005
1661,628.6480000015455,0.005
1662,628.6520000015455,0.0
1663,628.6560000015455,0.0
1664,628.6600000015455,0.005
1665,628.6640000015456,0.005
1666,628.6680000015456,0.01
1667,628.6720000015456,0.005
1668,628.6760000015456,0.005
1669,628.6800000015456,0.0
1670,628.6840000015457,-0.005
1671,628.6880000015457,-0.005
1672,628.6920000015457,-0.005
1673,628.6960000015457,-0.01
1674,628.7000000015457,-0.005
1675,628.7040000015458,-0.01
1676,628.7080000015458,0.0
1677,628.7120000015458,0.0
1678,628.7160000015458,-0.005
1679,628.7200000015458,-0.005
1680,628.7240000015458,-0.005
1681,628.7280000015459,0.0
1682,628.7320000015459,0.0
1683,628.7360000015459,0.0
1684,628.7400000015459,0.0
1685,628.7440000015459,0.0
1686,628.748000001546,0.005
1687,628.752000001546,0.005
1688,628.756000001546,0.0
1689,628.760000001546,0.0
1690,628.764000001546,0.0
1691,628.768000001546,0.005
1692,628.7720000015461,0.01
1693,628.7760000015461,0.0
1694,628.7800000015461,0.005
1695,628.7840000015461,0.005
1696,628.7880000015462,0.005
1697,628.7920000015462,0.0
1698,628.7960000015462,0.0
1699,628.8000000015462,-0.005
1700,628.8040000015462,-0.01
1701,628.8080000015462,-0.015
1702,628.8120000015463,-0.015
1703,628.8160000015463,-0.025
1704,628.8200000015463,-0.025
1705,628.8240000015463,-0.025
1706,628.8280000015463,-0.025
1707,628.8320000015464,-0.035
1708,628.8360000015464,-0.03
1709,628.8400000015464,-0.03
1710,628.8440000015464,-0.04
1711,628.8480000015464,-0.045
1712,628.8520000015465,-0.045
1713,628.8560000015465,-0.055
1714,628.8600000015465,-0.05
1715,628.8640000015465,-0.045
1716,628.8680000015465,-0.035
1717,628.8720000015466,-0.035
1718,628.8760000015466,-0.03
1719,628.8800000015466,-0.025
1720,628.8840000015466,-0.035
1721,628.8880000015466,-0.035
1722,628.8920000015466,-0.03
1723,628.8960000015467,-0.035
1724,628.9000000015467,-0.04
1725,628.9040000015467,-0.035
1726,628.9080000015467,-0.035
1727,628.9120000015467,-0.03
1728,628.9160000015468,-0.02
1729,628.9200000015468,-0.01
1730,628.9240000015468,-0.01
1731,628.9280000015468,-0.005
1732,628.9320000015468,-0.01
1733,628.9360000015469,-0.015
1734,628.9400000015469,-0.025
1735,628.9440000015469,-0.04
1736,628.9480000015469,-0.05
1737,628.9520000015469,-0.055
1738,628.956000001547,-0.07
1739,628.960000001547,-0.07
1740,628.964000001547,-0.07
1741,628.968000001547,-0.075
1742,628.972000001547,-0.075
1743,628.976000001547,-0.075
1744,628.9800000015471,-0.08
1745,628.9840000015471,-0.065
1746,628.9880000015471,-0.07
1747,628.9920000015471,-0.065
1748,628.9960000015471,-0.065
1749,629.0000000015472,-0.06
1750,629.0040000015472,-0.055
1751,629.0080000015472,-0.055
1752,629.0120000015472,-0.05
1753,629.0160000015472,-0.045
1754,629.0200000015473,-0.04
1755,629.0240000015473,-0.04
1756,629.0280000015473,-0.04
1757,629.0320000015473,-0.04
1758,629.0360000015473,-0.04
1759,629.0400000015474,-0.04
1760,629.0440000015474,-0.035
1761,629.0480000015474,-0.04
1762,629.0520000015474,-0.035
1763,629.0560000015474,-0.04
1764,629.0600000015475,-0.04
1765,629.0640000015475,-0.035
1766,629.0680000015475,-0.04
1767,629.0720000015475,-0.04
1768,629.0760000015475,-0.045
1769,629.0800000015475,-0.04
1770,629.0840000015476,-0.04
1771,629.0880000015476,-0.045
1772,629.0920000015476,-0.045
1773,629.0960000015476,-0.045
1774,629.1000000015476,-0.04
1775,629.1040000015477,-0.035
1776,629.1080000015477,-0.03
1777,629.1120000015477,-0.025
1778,629.1160000015477,-0.025
1779,629.1200000015477,-0.025
1780,629.1240000015478,-0.01
1781,629.1280000015478,-0.005
1782,629.1320000015478,0.0
1783,629.1360000015478,0.0
1784,629.1400000015478,0.0
1785,629.1440000015479,0.0
1786,629.1480000015479,0.01
1787,629.1520000015479,0.005
1788,629.1560000015479,0.01
1789,629.1600000015479,0.005
1790,629.164000001548,0.0
1791,629.168000001548,0.0
1792,629.172000001548,0.0
1793,629.176000001548,-0.005
1794,629.180000001548,-0.01
1795,629.184000001548,-0.01
1796,629.1880000015481,-0.015
1797,629.1920000015481,-0.015
1798,629.1960000015481,-0.02
1799,629.2000000015481,-0.025
1800,629.2040000015481,-0.02
1801,629.2080000015482,-0.02
1802,629.2120000015482,-0.025
1803,629.2160000015482,-0.03
1804,629.2200000015482,-0.03
1805,629.2240000015482,-0.03
1806,629.2280000015483,-0.025
1807,629.2320000015483,-0.03
1808,629.2360000015483,-0.03
1809,629.2400000015483,-0.035
1810,629.2440000015483,-0.035
1811,629.2480000015483,-0.03
1812,629.2520000015484,-0.03
1813,629.2560000015484,-0.03
1814,629.2600000015484,-0.03
1815,629.2640000015484,-0.02
1816,629.2680000015484,-0.015
1817,629.2720000015485,-0.01
1818,629.2760000015485,0.0
1819,629.2800000015485,0.025
1820,629.2840000015485,0.035
1821,629.2880000015485,0.05
1822,629.2920000015486,0.06
1823,629.2960000015486,0.065
1824,629.3000000015486,0.065
1825,629.3040000015486,0.08
1826,629.3080000015486,0.095
1827,629.3120000015487,0.11
1828,629.3160000015487,0.125
1829,629.3200000015487,0.125
1830,629.3240000015487,0.12
1831,629.3280000015487,0.12
1832,629.3320000015487,0.115
1833,629.3360000015488,0.11
1834,629.3400000015488,0.105
1835,629.3440000015488,0.1
1836,629.3480000015488,0.095
1837,629.3520000015488,0.095
1838,629.3560000015489,0.095
1839,629.3600000015489,0.085
1840,629.3640000015489,0.085
1841,629.3680000015489,0.095
1842,629.3720000015489,0.09
1843,629.376000001549,0.095
1844,629.380000001549,0.095
1845,629.384000001549,0.1
1846,629.388000001549,0.105
1847,629.392000001549,0.105
1848,629.396000001549,0.095
1849,629.4000000015491,0.085
1850,629.4040000015491,0.07
1851,629.4080000015491,0.055
1852,629.4120000015491,0.035
1853,629.4160000015492,0.015
1854,629.4200000015492,0.0
1855,629.4240000015492,-0.01
1856,629.4280000015492,-0.02
1857,629.4320000015492,-0.035
1858,629.4360000015492,-0.035
1859,629.4400000015493,-0.045
1860,629.4440000015493,-0.05
1861,629.4480000015493,-0.055
1862,629.4520000015493,-0.055
1863,629.4560000015493,-0.055
1864,629.4600000015494,-0.06
1865,629.4640000015494,-0.06
1866,629.4680000015494,-0.07
1867,629.4720000015494,-0.07
1868,629.4760000015494,-0.07
1869,629.4800000015495,-0.065
1870,629.4840000015495,-0.07
1871,629.4880000015495,-0.07
1872,629.4920000015495,-0.08
1873,629.4960000015495,-0.075
1874,629.5000000015496,-0.075
1875,629.5040000015496,-0.08
1876,629.5080000015496,-0.08
1877,629.5120000015496,-0.085
1878,629.5160000015496,-0.09
1879,629.5200000015496,-0.09
1880,629.5240000015497,-0.095
1881,629.5280000015497,-0.095
1882,629.5320000015497,-0.1
1883,629.5360000015497,-0.1
1884,629.5400000015497,-0.095
1885,629.5440000015498,-0.095
1886,629.5480000015498,-0.09
1887,629.5520000015498,-0.09
1888,629.5560000015498,-0.095
1889,629.5600000015498,-0.095
1890,629.5640000015499,-0.1
1891,629.5680000015499,-0.1
1892,629.5720000015499,-0.095
1893,629.5760000015499,-0.095
1894,629.5800000015499,-0.095
1895,629.58400000155,-0.1
1896,629.58800000155,-0.095
1897,629.59200000155,-0.1
1898,629.59600000155,-0.09
1899,629.60000000155,-0.09
1900,629.60400000155,-0.095
1901,629.6080000015501,-0.09
1902,629.6120000015501,-0.095
1903,629.6160000015501,-0.09
1904,629.6200000015501,-0.09
1905,629.6240000015501,-0.095
1906,629.6280000015502,-0.09
1907,629.6320000015502,-0.085
1908,629.6360000015502,-0.08
1909,629.6400000015502,-0.08
1910,629.6440000015502,-0.085
1911,629.6480000015503,-0.085
1912,629.6520000015503,-0.085
1913,629.6560000015503,-0.085
1914,629.6600000015503,-0.075
1915,629.6640000015503,-0.075
1916,629.6680000015504,-0.08
1917,629.6720000015504,-0.07
1918,629.6760000015504,-0.07
1919,629.6800000015504,-0.07
1920,629.6840000015504,-0.065
1921,629.6880000015504,-0.065
1922,629.6920000015505,-0.07
1923,629.6960000015505,-0.07
1924,629.7000000015505,-0.06
1925,629.7040000015505,-0.06
1926,629.7080000015505,-0.065
1927,629.7120000015506,-0.06
1928,629.7160000015506,-0.055
1929,629.7200000015506,-0.055
1930,629.7240000015506,-0.06
1931,629.7280000015506,-0.05
1932,629.7320000015507,-0.06
1933,629.7360000015507,-0.055
1934,629.7400000015507,-0.05
1935,629.7440000015507,-0.05
1936,629.7480000015507,-0.05
1937,629.7520000015508,-0.05
1938,629.7560000015508,-0.05
1939,629.7600000015508,-0.045
1940,629.7640000015508,-0.045
1941,629.7680000015508,-0.04
1942,629.7720000015509,-0.045
1943,629.7760000015509,-0.045
1944,629.7800000015509,-0.04
1945,629.7840000015509,-0.045
1946,629.7880000015509,-0.04
1947,629.792000001551,-0.04
1948,629.796000001551,-0.04
1949,629.800000001551,-0.035
1950,629.804000001551,-0.035
1951,629.808000001551,-0.035
1952,629.812000001551,-0.035
1953,629.8160000015511,-0.035
1954,629.8200000015511,-0.025
1955,629.8240000015511,-0.025
1956,629.8280000015511,-0.025
1957,629.8320000015511,-0.025
1958,629.8360000015512,-0.03
1959,629.8400000015512,-0.02
1960,629.8440000015512,-0.02
1961,629.8480000015512,-0.025
1962,629.8520000015512,-0.03
1963,629.8560000015513,-0.025
1964,629.8600000015513,-0.02
1965,629.8640000015513,-0.015
1966,629.8680000015513,-0.01
1967,629.8720000015513,-0.005
1968,629.8760000015513,-0.005
1969,629.8800000015514,-0.01
1970,629.8840000015514,-0.005
1971,629.8880000015514,0.0
1972,629.8920000015514,-0.005
1973,629.8960000015514,0.0
1974,629.9000000015515,0.0
1975,629.9040000015515,0.005
1976,629.9080000015515,0.01
1977,629.9120000015515,0.01
1978,629.9160000015515,0.015
1979,629.9200000015516,0.025
1980,629.9240000015516,0.035
1981,629.9280000015516,0.04
1982,629.9320000015516,0.045
1983,629.9360000015516,0.045
1984,629.9400000015517,0.04
1985,629.9440000015517,0.035
1986,629.9480000015517,0.035
1987,629.9520000015517,0.03
1988,629.9560000015517,0.025
1989,629.9600000015517,0.02
1990,629.9640000015518,0.025
1991,629.9680000015518,0.015
1992,629.9720000015518,0.01
1993,629.9760000015518,0.015
1994,629.9800000015518,0.015
1995,629.9840000015519,0.01
1996,629.9880000015519,0.005
1997,629.9920000015519,0.005
1998,629.9960000015519,0.01
1999,630.0000000015519,0.0
2000,630.004000001552,0.0
2001,630.008000001552,0.0
2002,630.012000001552,0.0
2003,630.016000001552,-0.005
2004,630.020000001552,-0.015
2005,630.024000001552,-0.01
2006,630.0280000015521,-0.015
2007,630.0320000015521,-0.02
2008,630.0360000015521,-0.025
2009,630.0400000015521,-0.02
2010,630.0440000015521,-0.025
2011,630.0480000015522,-0.03
2012,630.0520000015522,-0.025
2013,630.0560000015522,-0.03
2014,630.0600000015522,-0.03
2015,630.0640000015522,-0.035
2016,630.0680000015523,-0.03
2017,630.0720000015523,-0.04
2018,630.0760000015523,-0.035
2019,630.0800000015523,-0.04
2020,630.0840000015523,-0.045
2021,630.0880000015524,-0.045
2022,630.0920000015524,-0.05
2023,630.0960000015524,-0.045
2024,630.1000000015524,-0.04
2025,630.1040000015524,-0.05
2026,630.1080000015525,-0.05
2027,630.1120000015525,-0.05
2028,630.1160000015525,-0.05
2029,630.1200000015525,-0.05
2030,630.1240000015525,-0.05
2031,630.1280000015526,-0.045
2032,630.1320000015526,-0.04
2033,630.1360000015526,-0.03
2034,630.1400000015526,-0.025
2035,630.1440000015526,-0.03
2036,630.1480000015526,-0.03
2037,630.1520000015527,-0.025
2038,630.1560000015527,-0.025
2039,630.1600000015527,-0.03
2040,630.1640000015527,-0.035
2041,630.1680000015527,-0.035
2042,630.1720000015528,-0.035
2043,630.1760000015528,-0.03
2044,630.1800000015528,-0.035
2045,630.1840000015528,-0.035
2046,630.1880000015528,-0.04
2047,630.1920000015529,-0.035
2048,630.1960000015529,-0.03
2049,630.2000000015529,-0.04
2050,630.2040000015529,-0.035
2051,630.2080000015529,-0.035
2052,630.212000001553,-0.03
2053,630.216000001553,-0.03
2054,630.220000001553,-0.035
2055,630.224000001553,-0.035
2056,630.228000001553,-0.035
2057,630.232000001553,-0.035
2058,630.2360000015531,-0.025
2059,630.2400000015531,-0.03
2060,630.2440000015531,-0.03
2061,630.2480000015531,-0.03
2062,630.2520000015531,-0.035
2063,630.2560000015532,-0.035
2064,630.2600000015532,-0.03
2065,630.2640000015532,-0.03
2066,630.2680000015532,-0.025
2067,630.2720000015532,-0.025
2068,630.2760000015533,-0.025
2069,630.2800000015533,-0.03
2070,630.2840000015533,-0.03
2071,630.2880000015533,-0.025
2072,630.2920000015533,-0.025
2073,630.2960000015534,-0.025
2074,630.3000000015534,-0.03
2075,630.3040000015534,-0.025
2076,630.3080000015534,-0.025
2077,630.3120000015534,-0.025
2078,630.3160000015534,-0.02
2079,630.3200000015535,-0.02
2080,630.3240000015535,-0.025
2081,630.3280000015535,-0.025
2082,630.3320000015535,-0.025
2083,630.3360000015535,-0.02
2084,630.3400000015536,-0.025
2085,630.3440000015536,-0.02
2086,630.3480000015536,-0.015
2087,630.3520000015536,-0.025
2088,630.3560000015536,-0.025
2089,630.3600000015537,-0.02
2090,630.3640000015537,-0.02
2091,630.3680000015537,-0.02
2092,630.3720000015537,-0.02
2093,630.3760000015537,-0.02
2094,630.3800000015538,-0.02
2095,630.3840000015538,-0.015
2096,630.3880000015538,-0.025
2097,630.3920000015538,-0.02
2098,630.3960000015538,-0.02
2099,630.4000000015538,-0.02
2100,630.4040000015539,-0.01
2101,630.4080000015539,-0.02
2102,630.4120000015539,-0.025
2103,630.4160000015539,-0.015
2104,630.420000001554,-0.015
2105,630.424000001554,-0.02
2106,630.428000001554,-0.02
2107,630.432000001554,-0.015
2108,630.436000001554,-0.01
2109,630.440000001554,-0.015
2110,630.4440000015541,-0.015
2111,630.4480000015541,-0.015
2112,630.4520000015541,-0.02
2113,630.4560000015541,-0.015
2114,630.4600000015541,-0.02
2115,630.4640000015542,-0.015
2116,630.4680000015542,-0.01
2117,630.4720000015542,-0.02
2118,630.4760000015542,-0.01
2119,630.4800000015542,-0.015
2120,630.4840000015543,-0.01
2121,630.4880000015543,-0.02
2122,630.4920000015543,-0.015
2123,630.4960000015543,-0.015
2124,630.5000000015543,-0.01
2125,630.5040000015543,-0.015
2126,630.5080000015544,-0.02
2127,630.5120000015544,-0.015
2128,630.5160000015544,-0.015
2129,630.5200000015544,-0.015
2130,630.5240000015544,-0.015
2131,630.5280000015545,-0.015
2132,630.5320000015545,-0.015
2133,630.5360000015545,-0.01
2134,630.5400000015545,-0.02
2135,630.5440000015545,-0.015
2136,630.5480000015546,-0.015
2137,630.5520000015546,-0.015
2138,630.5560000015546,-0.01
2139,630.5600000015546,-0.015
2140,630.5640000015546,-0.015
2141,630.5680000015547,-0.015
2142,630.5720000015547,-0.01
2143,630.5760000015547,-0.01
2144,630.5800000015547,-0.015
2145,630.5840000015547,-0.015
2146,630.5880000015547,-0.01
2147,630.5920000015548,-0.01
2148,630.5960000015548,-0.01
2149,630.6000000015548,-0.015
2150,630.6040000015548,-0.02
2151,630.6080000015548,-0.01
2152,630.6120000015549,-0.01
2153,630.6160000015549,-0.01
2154,630.6200000015549,-0.02
2155,630.6240000015549,-0.01
2156,630.6280000015549,-0.01
2157,630.632000001555,-0.015
2158,630.636000001555,-0.015
2159,630.640000001555,-0.01
2160,630.644000001555,-0.01
2161,630.648000001555,-0.01
2162,630.652000001555,-0.015
2163,630.6560000015551,-0.02
2164,630.6600000015551,-0.01
2165,630.6640000015551,-0.015
2166,630.6680000015551,-0.01
2167,630.6720000015551,-0.015
2168,630.6760000015552,-0.01
2169,630.6800000015552,-0.01
2170,630.6840000015552,-0.015
2171,630.6880000015552,-0.02
2172,630.6920000015552,-0.01
2173,630.6960000015553,-0.015
2174,630.7000000015553,-0.015
2175,630.7040000015553,-0.015
2176,630.7080000015553,-0.015
2177,630.7120000015553,-0.015
2178,630.7160000015554,-0.01
2179,630.7200000015554,-0.015
2180,630.7240000015554,-0.015
2181,630.7280000015554,-0.015
2182,630.7320000015554,-0.015
2183,630.7360000015555,-0.01
2184,630.7400000015555,-0.015
2185,630.7440000015555,-0.015
2186,630.7480000015555,-0.01
2187,630.7520000015555,-0.015
2188,630.7560000015555,-0.01
2189,630.7600000015556,-0.015
2190,630.7640000015556,-0.02
2191,630.7680000015556,-0.01
2192,630.7720000015556,-0.01
2193,630.7760000015556,-0.01
2194,630.7800000015557,-0.02
2195,630.7840000015557,-0.015
2196,630.7880000015557,-0.015
2197,630.7920000015557,-0.01
2198,630.7960000015557,-0.015
2199,630.8000000015558,-0.015
2200,630.8040000015558,-0.015
2201,630.8080000015558,-0.01
2202,630.8120000015558,-0.015
2203,630.8160000015558,-0.01
2204,630.8200000015559,-0.015
2205,630.8240000015559,-0.015
2206,630.8280000015559,-0.01
2207,630.8320000015559,-0.01
2208,630.8360000015559,-0.01
2209,630.840000001556,-0.015
2210,630.844000001556,-0.015
2211,630.848000001556,-0.015
2212,630.852000001556,-0.01
2213,630.856000001556,-0.02
2214,630.860000001556,-0.02
2215,630.8640000015561,-0.015
2216,630.8680000015561,-0.015
2217,630.8720000015561,-0.01
2218,630.8760000015561,-0.01
2219,630.8800000015561,-0.015
2220,630.8840000015562,-0.015
2221,630.8880000015562,-0.015
2222,630.8920000015562,-0.01
2223,630.8960000015562,-0.01
2224,630.9000000015562,-0.015
2225,630.9040000015563,-0.015
2226,630.9080000015563,-0.015
2227,630.9120000015563,-0.015
2228,630.9160000015563,-0.01
2229,630.9200000015563,-0.015
2230,630.9240000015564,-0.01
2231,630.9280000015564,-0.015
2232,630.9320000015564,-0.01
2233,630.9360000015564,-0.01
2234,630.9400000015564,-0.015
2235,630.9440000015564,-0.015
2236,630.9480000015565,-0.02
2237,630.9520000015565,-0.01
2238,630.9560000015565,-0.01
2239,630.9600000015565,-0.015
2240,630.9640000015565,-0.015
2241,630.9680000015566,-0.015
2242,630.9720000015566,-0.01
2243,630.9760000015566,-0.015
2244,630.9800000015566,-0.02
2245,630.9840000015566,-0.01
2246,630.9880000015567,-0.015
2247,630.9920000015567,-0.01
2248,630.9960000015567,-0.015
2249,631.0000000015567,-0.015
2250,631.0040000015567,-0.015
2251,631.0080000015568,-0.01
2252,631.0120000015568,-0.015
2253,631.0160000015568,-0.015
2254,631.0200000015568,-0.015
2255,631.0240000015568,-0.01
2256,631.0280000015568,-0.01
2257,631.0320000015569,-0.015
2258,631.0360000015569,-0.015
2259,631.0400000015569,-0.015
2260,631.0440000015569,-0.01
2261,631.0480000015569,-0.01
2262,631.052000001557,-0.015
2263,631.056000001557,-0.015
2264,631.060000001557,-0.01
2265,631.064000001557,-0.01
2266,631.068000001557,-0.01
2267,631.0720000015571,-0.01
2268,631.0760000015571,-0.015
2269,631.0800000015571,-0.015
2270,631.0840000015571,-0.01
2271,631.0880000015571,-0.005
2272,631.0920000015572,-0.01
2273,631.0960000015572,-0.01
2274,631.1000000015572,-0.015
2275,631.1040000015572,-0.005
2276,631.1080000015572,-0.005
2277,631.1120000015572,-0.005
2278,631.1160000015573,0.0
2279,631.1200000015573,0.0
2280,631.1240000015573,0.0
2281,631.1280000015573,-0.005
2282,631.1320000015573,0.0
2283,631.1360000015574,0.0
2284,631.1400000015574,0.0
2285,631.1440000015574,0.0
2286,631.1480000015574,0.005
2287,631.1520000015574,0.0
2288,631.1560000015575,0.01
2289,631.1600000015575,0.015
2290,631.1640000015575,0.02
2291,631.1680000015575,0.025
2292,631.1720000015575,0.03
2293,631.1760000015576,0.045
2294,631.1800000015576,0.045
2295,631.1840000015576,0.04
2296,631.1880000015576,0.04
2297,631.1920000015576,0.04
2298,631.1960000015576,0.04
2299,631.2000000015577,0.03
2300,631.2040000015577,0.035
2301,631.2080000015577,0.025
2302,631.2120000015577,0.02
2303,631.2160000015577,0.02
2304,631.2200000015578,0.02
2305,631.2240000015578,0.015
2306,631.2280000015578,0.01
2307,631.2320000015578,0.01
2308,631.2360000015578,0.01
2309,631.2400000015579,0.01
2310,631.2440000015579,0.0
2311,631.2480000015579,0.0
2312,631.2520000015579,0.0
2313,631.2560000015579,0.0
2314,631.260000001558,0.0
2315,631.264000001558,-0.01
2316,631.268000001558,-0.01
2317,631.272000001558,-0.015
2318,631.276000001558,-0.02
2319,631.280000001558,-0.02
2320,631.2840000015581,-0.025
2321,631.2880000015581,-0.025
2322,631.2920000015581,-0.025
2323,631.2960000015581,-0.025
2324,631.3000000015581,-0.025
2325,631.3040000015582,-0.035
2326,631.3080000015582,-0.035
2327,631.3120000015582,-0.03
2328,631.3160000015582,-0.035
2329,631.3200000015582,-0.035
2330,631.3240000015583,-0.045
2331,631.3280000015583,-0.045
2332,631.3320000015583,-0.045
2333,631.3360000015583,-0.045
2334,631.3400000015583,-0.05
2335,631.3440000015584,-0.055
2336,631.3480000015584,-0.05
2337,631.3520000015584,-0.055
2338,631.3560000015584,-0.05
2339,631.3600000015584,-0.05
2340,631.3640000015585,-0.06
2341,631.3680000015585,-0.06
2342,631.3720000015585,-0.06
2343,631.3760000015585,-0.055
2344,631.3800000015585,-0.05
2345,631.3840000015585,-0.05
2346,631.3880000015586,-0.04
2347,631.3920000015586,-0.035
2348,631.3960000015586,-0.03
2349,631.4000000015586,-0.035
2350,631.4040000015586,-0.035
2351,631.4080000015587,-0.035
2352,631.4120000015587,-0.035
2353,631.4160000015587,-0.035
2354,631.4200000015587,-0.045
2355,631.4240000015587,-0.045
2356,631.4280000015588,-0.04
2357,631.4320000015588,-0.045
2358,631.4360000015588,-0.035
2359,631.4400000015588,-0.045
2360,631.4440000015588,-0.045
2361,631.4480000015589,-0.04
2362,631.4520000015589,-0.04
2363,631.4560000015589,-0.04
2364,631.4600000015589,-0.04
2365,631.4640000015589,-0.045
2366,631.468000001559,-0.045
2367,631.472000001559,-0.04
2368,631.476000001559,-0.04
2369,631.480000001559,-0.04
2370,631.484000001559,-0.04
2371,631.488000001559,-0.04
2372,631.4920000015591,-0.045
2373,631.4960000015591,-0.045
2374,631.5000000015591,-0.045
2375,631.5040000015591,-0.05
2376,631.5080000015591,-0.045
2377,631.5120000015592,-0.045
2378,631.5160000015592,-0.04
2379,631.5200000015592,-0.045
2380,631.5240000015592,-0.04
2381,631.5280000015592,-0.04
2382,631.5320000015593,-0.04
2383,631.5360000015593,-0.04
2384,631.5400000015593,-0.045
2385,631.5440000015593,-0.045
2386,631.5480000015593,-0.035
2387,631.5520000015593,-0.04
2388,631.5560000015594,-0.04
2389,631.5600000015594,-0.03
2390,631.5640000015594,-0.035
2391,631.5680000015594,-0.035
2392,631.5720000015594,-0.035
2393,631.5760000015595,-0.03
2394,631.5800000015595,-0.04
2395,631.5840000015595,-0.035
2396,631.5880000015595,-0.035
2397,631.5920000015595,-0.03
2398,631.5960000015596,-0.03
2399,631.6000000015596,-0.03
2400,631.6040000015596,-0.035
2401,631.6080000015596,-0.035
2402,631.6120000015596,-0.03
2403,631.6160000015597,-0.03
2404,631.6200000015597,-0.03
2405,631.6240000015597,-0.035
2406,631.6280000015597,-0.03
2407,631.6320000015597,-0.03
2408,631.6360000015598,-0.025
2409,631.6400000015598,-0.03
2410,631.6440000015598,-0.03
2411,631.6480000015598,-0.03
2412,631.6520000015598,-0.025
2413,631.6560000015598,-0.02
2414,631.6600000015599,-0.025
2415,631.6640000015599,-0.03
2416,631.6680000015599,-0.03
2417,631.6720000015599,-0.025
2418,631.6760000015599,-0.02
2419,631.68000000156,-0.025
2420,631.68400000156,-0.025
2421,631.68800000156,-0.03
2422,631.69200000156,-0.03
2423,631.69600000156,-0.025
2424,631.70000000156,-0.025
2425,631.7040000015601,-0.025
2426,631.7080000015601,-0.02
2427,631.7120000015601,-0.03
2428,631.7160000015601,-0.025
2429,631.7200000015602,-0.025
2430,631.7240000015602,-0.015
2431,631.7280000015602,-0.015
2432,631.7320000015602,-0.02
2433,631.7360000015602,-0.02
2434,631.7400000015602,-0.02
2435,631.7440000015603,-0.02
2436,631.7480000015603,-0.025
2437,631.7520000015603,-0.02
2438,631.7560000015603,-0.015
2439,631.7600000015603,-0.025
2440,631.7640000015604,-0.02
2441,631.7680000015604,-0.02
2442,631.7720000015604,-0.015
2443,631.7760000015604,-0.02
2444,631.7800000015604,-0.015
2445,631.7840000015605,-0.025
2446,631.7880000015605,-0.025
2447,631.7920000015605,-0.02
2448,631.7960000015605,-0.015
2449,631.8000000015605,-0.025
2450,631.8040000015606,-0.025
2451,631.8080000015606,-0.02
2452,631.8120000015606,-0.02
2453,631.8160000015606,-0.02
2454,631.8200000015606,-0.025
2455,631.8240000015606,-0.015
2456,631.8280000015607,-0.02
2457,631.8320000015607,-0.02
2458,631.8360000015607,-0.02
2459,631.8400000015607,-0.025
2460,631.8440000015607,-0.02
2461,631.8480000015608,-0.015
2462,631.8520000015608,-0.02
2463,631.8560000015608,-0.025
2464,631.8600000015608,-0.02
2465,631.8640000015608,-0.02
2466,631.8680000015609,-0.025
2467,631.8720000015609,-0.02
2468,631.8760000015609,-0.02
2469,631.8800000015609,-0.015
2470,631.8840000015609,-0.015
2471,631.888000001561,-0.015
2472,631.892000001561,-0.02
2473,631.896000001561,-0.02
2474,631.900000001561,-0.015
2475,631.904000001561,-0.015
2476,631.908000001561,-0.015
2477,631.9120000015611,-0.02
2478,631.9160000015611,-0.02
2479,631.9200000015611,-0.015
2480,631.9240000015611,-0.01
2481,631.9280000015611,-0.02
2482,631.9320000015612,-0.015
2483,631.9360000015612,-0.02
2484,631.9400000015612,-0.015
2485,631.9440000015612,-0.015
2486,631.9480000015612,-0.02
2487,631.9520000015613,-0.02
2488,631.9560000015613,-0.02
2489,631.9600000015613,-0.015
2490,631.9640000015613,-0.02
2491,631.9680000015613,-0.015
2492,631.9720000015614,-0.015
2493,631.9760000015614,-0.02
2494,631.9800000015614,-0.015
2495,631.9840000015614,-0.015
2496,631.9880000015614,-0.02
2497,631.9920000015615,-0.02
2498,631.9960000015615,-0.02
2499,632.0000000015615,-0.015
2500,632.0040000015615,-0.015
2501,632.0080000015615,-0.02
2502,632.0120000015615,-0.02
2503,632.0160000015616,-0.02
2504,632.0200000015616,-0.015
2505,632.0240000015616,-0.01
2506,632.0280000015616,-0.02
2507,632.0320000015616,-0.02
2508,632.0360000015617,-0.015
2509,632.0400000015617,-0.015
2510,632.0440000015617,-0.02
2511,632.0480000015617,-0.015
2512,632.0520000015617,-0.015
2513,632.0560000015618,-0.02
2514,632.0600000015618,-0.015
2515,632.0640000015618,-0.015
2516,632.0680000015618,-0.015
2517,632.0720000015618,-0.02
2518,632.0760000015619,-0.02
2519,632.0800000015619,-0.015
2520,632.0840000015619,-0.015
2521,632.0880000015619,-0.015
2522,632.0920000015619,-0.02
2523,632.096000001562,-0.01
2524,632.100000001562,-0.01
2525,632.104000001562,-0.01
2526,632.108000001562,-0.015
2527,632.112000001562,-0.015
2528,632.116000001562,-0.015
2529,632.1200000015621,-0.015
2530,632.1240000015621,-0.02
2531,632.1280000015621,-0.015
2532,632.1320000015621,-0.01
2533,632.1360000015621,-0.015
2534,632.1400000015622,-0.02
2535,632.1440000015622,-0.015
2536,632.1480000015622,-0.01
2537,632.1520000015622,-0.015
2538,632.1560000015622,-0.02
2539,632.1600000015623,-0.01
2540,632.1640000015623,-0.01
2541,632.1680000015623,-0.02
2542,632.1720000015623,-0.015
2543,632.1760000015623,-0.015
2544,632.1800000015623,-0.02
2545,632.1840000015624,-0.02
2546,632.1880000015624,-0.02
2547,632.1920000015624,-0.015
2548,632.1960000015624,-0.015
2549,632.2000000015624,-0.015
2550,632.2040000015625,-0.02
2551,632.2080000015625,-0.015
2552,632.2120000015625,-0.015
2553,632.2160000015625,-0.02
2554,632.2200000015625,-0.02
2555,632.2240000015626,-0.02
2556,632.2280000015626,-0.015
2557,632.2320000015626,-0.01
2558,632.2360000015626,-0.02
2559,632.2400000015626,-0.015
2560,632.2440000015627,-0.015
2561,632.2480000015627,-0.01
2562,632.2520000015627,-0.015
2563,632.2560000015627,-0.015
2564,632.2600000015627,-0.02
2565,632.2640000015627,-0.015
2566,632.2680000015628,-0.01
2567,632.2720000015628,-0.015
2568,632.2760000015628,-0.015
2569,632.2800000015628,-0.015
2570,632.2840000015628,-0.01
2571,632.2880000015629,-0.02
2572,632.2920000015629,-0.02
2573,632.2960000015629,-0.02
2574,632.3000000015629,-0.015
2575,632.3040000015629,-0.015
2576,632.308000001563,-0.02
2577,632.312000001563,-0.015
2578,632.316000001563,-0.02
2579,632.320000001563,-0.015
2580,632.324000001563,-0.015
2581,632.328000001563,-0.02
2582,632.3320000015631,-0.015
2583,632.3360000015631,-0.015
2584,632.3400000015631,-0.01
2585,632.3440000015631,-0.015
2586,632.3480000015632,-0.01
2587,632.3520000015632,-0.015
2588,632.3560000015632,-0.01
2589,632.3600000015632,-0.005
2590,632.3640000015632,-0.005
2591,632.3680000015632,-0.01
2592,632.3720000015633,-0.015
2593,632.3760000015633,-0.015
2594,632.3800000015633,-0.015
2595,632.3840000015633,-0.005
2596,632.3880000015633,-0.01
2597,632.3920000015634,-0.005
2598,632.3960000015634,-0.005
2599,632.4000000015634,0.0
2600,632.4040000015634,0.0
2601,632.4080000015634,0.0
2602,632.4120000015635,-0.005
2603,632.4160000015635,0.0
2604,632.4200000015635,0.0
2605,632.4240000015635,0.0
2606,632.4280000015635,0.005
2607,632.4320000015636,0.005
2608,632.4360000015636,0.005
2609,632.4400000015636,0.02
2610,632.4440000015636,0.025
2611,632.4480000015636,0.03
2612,632.4520000015636,0.035
2613,632.4560000015637,0.05
2614,632.4600000015637,0.05
2615,632.4640000015637,0.045
2616,632.4680000015637,0.045
2617,632.4720000015637,0.04
2618,632.4760000015638,0.035
2619,632.4800000015638,0.035
2620,632.4840000015638,0.03
2621,632.4880000015638,0.025
2622,632.4920000015638,0.025
2623,632.4960000015639,0.02
2624,632.5000000015639,0.02
2625,632.5040000015639,0.01
2626,632.5080000015639,0.015
2627,632.5120000015639,0.005
2628,632.516000001564,0.005
2629,632.520000001564,0.01
2630,632.524000001564,0.005
2631,632.528000001564,0.0
2632,632.532000001564,0.0
2633,632.536000001564,-0.005
2634,632.5400000015641,-0.005
2635,632.5440000015641,0.0
2636,632.5480000015641,-0.01
2637,632.5520000015641,-0.01
2638,632.5560000015641,-0.015
2639,632.5600000015642,-0.02
2640,632.5640000015642,-0.015
2641,632.5680000015642,-0.02
2642,632.5720000015642,-0.025
2643,632.5760000015642,-0.025
2644,632.5800000015643,-0.03
2645,632.5840000015643,-0.03
2646,632.5880000015643,-0.03
2647,632.5920000015643,-0.035
2648,632.5960000015643,-0.035
2649,632.6000000015644,-0.04
2650,632.6040000015644,-0.04
2651,632.6080000015644,-0.04
2652,632.6120000015644,-0.04
2653,632.6160000015644,-0.04
2654,632.6200000015644,-0.055
2655,632.6240000015645,-0.05
2656,632.6280000015645,-0.045
2657,632.6320000015645,-0.05
2658,632.6360000015645,-0.055
2659,632.6400000015645,-0.055
2660,632.6440000015646,-0.06
2661,632.6480000015646,-0.06
2662,632.6520000015646,-0.05
2663,632.6560000015646,-0.05
2664,632.6600000015646,-0.05
2665,632.6640000015647,-0.045
2666,632.6680000015647,-0.04
2667,632.6720000015647,-0.035
2668,632.6760000015647,-0.03
2669,632.6800000015647,-0.035
2670,632.6840000015648,-0.035
2671,632.6880000015648,-0.035
2672,632.6920000015648,-0.04
2673,632.6960000015648,-0.035
2674,632.7000000015648,-0.035
2675,632.7040000015649,-0.04
2676,632.7080000015649,-0.045
2677,632.7120000015649,-0.045
2678,632.7160000015649,-0.04
2679,632.7200000015649,-0.04
2680,632.724000001565,-0.04
2681,632.728000001565,-0.045
2682,632.732000001565,-0.045
2683,632.736000001565,-0.04
2684,632.740000001565,-0.04
2685,632.744000001565,-0.035
2686,632.7480000015651,-0.035
2687,632.7520000015651,-0.04
2688,632.7560000015651,-0.04
2689,632.7600000015651,-0.045
2690,632.7640000015651,-0.04
2691,632.7680000015652,-0.04
2692,632.7720000015652,-0.04
2693,632.7760000015652,-0.035
2694,632.7800000015652,-0.035
2695,632.7840000015652,-0.035
2696,632.7880000015653,-0.04
2697,632.7920000015653,-0.035
2698,632.7960000015653,-0.03
2699,632.8000000015653,-0.035
2700,632.8040000015653,-0.03
2701,632.8080000015653,-0.03
2702,632.8120000015654,-0.03
2703,632.8160000015654,-0.025
2704,632.8200000015654,-0.03
2705,632.8240000015654,-0.03
2706,632.8280000015654,-0.025
2707,632.8320000015655,-0.03
2708,632.8360000015655,-0.03
2709,632.8400000015655,-0.03
2710,632.8440000015655,-0.03
2711,632.8480000015655,-0.03
2712,632.8520000015656,-0.03
2713,632.8560000015656,-0.03
2714,632.8600000015656,-0.035
2715,632.8640000015656,-0.035
2716,632.8680000015656,-0.03
2717,632.8720000015657,-0.025
2718,632.8760000015657,-0.025
2719,632.8800000015657,-0.03
2720,632.8840000015657,-0.035
2721,632.8880000015657,-0.03
2722,632.8920000015657,-0.03
2723,632.8960000015658,-0.03
2724,632.9000000015658,-0.035
2725,632.9040000015658,-0.03
2726,632.9080000015658,-0.025
2727,632.9120000015658,-0.03
2728,632.9160000015659,-0.025
2729,632.9200000015659,-0.03
2730,632.9240000015659,-0.03
2731,632.9280000015659,-0.03
2732,632.9320000015659,-0.025
2733,632.936000001566,-0.03
2734,632.940000001566,-0.03
2735,632.944000001566,-0.025
2736,632.948000001566,-0.02
2737,632.952000001566,-0.025
2738,632.956000001566,-0.02
2739,632.9600000015661,-0.025
2740,632.9640000015661,-0.025
2741,632.9680000015661,-0.02
2742,632.9720000015661,-0.025
2743,632.9760000015661,-0.02
2744,632.9800000015662,-0.02
2745,632.9840000015662,-0.025
2746,632.9880000015662,-0.025
2747,632.9920000015662,-0.025
2748,632.9960000015662,-0.025
2749,633.0000000015663,-0.02
2750,633.0040000015663,-0.025
2751,633.0080000015663,-0.02
2752,633.0120000015663,-0.02
2753,633.0160000015663,-0.02
2754,633.0200000015664,-0.03
2755,633.0240000015664,-0.025
2756,633.0280000015664,-0.02
2757,633.0320000015664,-0.02
2758,633.0360000015664,-0.02
2759,633.0400000015665,-0.02
2760,633.0440000015665,-0.025
2761,633.0480000015665,-0.02
2762,633.0520000015665,-0.015
2763,633.0560000015665,-0.025
2764,633.0600000015666,-0.025
2765,633.0640000015666,-0.025
2766,633.0680000015666,-0.02
2767,633.0720000015666,-0.015
2768,633.0760000015666,-0.025
2769,633.0800000015666,-0.02
2770,633.0840000015667,-0.025
2771,633.0880000015667,-0.02
2772,633.0920000015667,-0.015
2773,633.0960000015667,-0.025
2774,633.1000000015667,-0.025
2775,633.1040000015668,-0.025
2776,633.1080000015668,-0.02
2777,633.1120000015668,-0.025
2778,633.1160000015668,-0.03
2779,633.1200000015668,-0.02
2780,633.1240000015669,-0.025
2781,633.1280000015669,-0.02
2782,633.1320000015669,-0.025
2783,633.1360000015669,-0.03
2784,633.1400000015669,-0.02
2785,633.144000001567,-0.02
2786,633.148000001567,-0.025
2787,633.152000001567,-0.025
2788,633.156000001567,-0.02
2789,633.160000001567,-0.02
2790,633.164000001567,-0.02
2791,633.1680000015671,-0.025
2792,633.1720000015671,-0.025
2793,633.1760000015671,-0.02
2794,633.1800000015671,-0.02
2795,633.1840000015671,-0.025
2796,633.1880000015672,-0.02
2797,633.1920000015672,-0.025
2798,633.1960000015672,-0.025
2799,633.2000000015672,-0.025
2800,633.2040000015672,-0.025
2801,633.2080000015673,-0.02
2802,633.2120000015673,-0.025
2803,633.2160000015673,-0.03
2804,633.2200000015673,-0.02
2805,633.2240000015673,-0.02
2806,633.2280000015674,-0.02
2807,633.2320000015674,-0.02
2808,633.2360000015674,-0.02
2809,633.2400000015674,-0.01
2810,633.2440000015674,-0.01
2811,633.2480000015674,-0.015
2812,633.2520000015675,-0.015
2813,633.2560000015675,-0.015
2814,633.2600000015675,-0.01
2815,633.2640000015675,-0.01
2816,633.2680000015675,-0.01
2817,633.2720000015676,-0.01
2818,633.2760000015676,-0.015
2819,633.2800000015676,-0.015
2820,633.2840000015676,-0.01
2821,633.2880000015676,-0.01
2822,633.2920000015677,-0.01
2823,633.2960000015677,-0.015
2824,633.3000000015677,-0.015
2825,633.3040000015677,-0.015
2826,633.3080000015677,-0.02
2827,633.3120000015678,-0.02
2828,633.3160000015678,-0.02
2829,633.3200000015678,-0.02
2830,633.3240000015678,-0.02
2831,633.3280000015678,-0.025
2832,633.3320000015678,-0.025
2833,633.3360000015679,-0.02
2834,633.3400000015679,-0.02
2835,633.3440000015679,-0.02
2836,633.3480000015679,-0.025
2837,633.352000001568,-0.025
2838,633.356000001568,-0.02
2839,633.360000001568,-0.02
2840,633.364000001568,-0.015
2841,633.368000001568,-0.02
2842,633.372000001568,-0.02
2843,633.3760000015681,-0.025
2844,633.3800000015681,-0.025
2845,633.3840000015681,-0.02
2846,633.3880000015681,-0.02
2847,633.3920000015681,-0.02
2848,633.3960000015682,-0.015
2849,633.4000000015682,-0.02
2850,633.4040000015682,-0.025
2851,633.4080000015682,-0.01
2852,633.4120000015682,-0.015
2853,633.4160000015682,-0.02
2854,633.4200000015683,-0.02
2855,633.4240000015683,-0.02
2856,633.4280000015683,-0.025
2857,633.4320000015683,-0.02
2858,633.4360000015683,-0.02
2859,633.4400000015684,-0.02
2860,633.4440000015684,-0.02
2861,633.4480000015684,-0.02
2862,633.4520000015684,-0.015
2863,633.4560000015684,-0.015
2864,633.4600000015685,-0.02
2865,633.4640000015685,-0.02
2866,633.4680000015685,-0.02
2867,633.4720000015685,-0.015
2868,633.4760000015685,-0.015
2869,633.4800000015686,-0.02
2870,633.4840000015686,-0.02
2871,633.4880000015686,-0.02
2872,633.4920000015686,-0.01
2873,633.4960000015686,-0.015
2874,633.5000000015687,-0.015
2875,633.5040000015687,-0.02
2876,633.5080000015687,-0.015
2877,633.5120000015687,-0.02
2878,633.5160000015687,-0.015
2879,633.5200000015687,-0.015
2880,633.5240000015688,-0.015
2881,633.5280000015688,-0.015
2882,633.5320000015688,-0.02
2883,633.5360000015688,-0.015
2884,633.5400000015688,-0.015
2885,633.5440000015689,-0.02
2886,633.5480000015689,-0.025
2887,633.5520000015689,-0.02
2888,633.5560000015689,-0.02
2889,633.5600000015689,-0.015
2890,633.564000001569,-0.02
2891,633.568000001569,-0.025
2892,633.572000001569,-0.015
2893,633.576000001569,-0.02
2894,633.580000001569,-0.02
2895,633.584000001569,-0.025
2896,633.5880000015691,-0.025
2897,633.5920000015691,-0.025
2898,633.5960000015691,-0.02
2899,633.6000000015691,-0.02
2900,633.6040000015691,-0.025
2901,633.6080000015692,-0.025
2902,633.6120000015692,-0.02
2903,633.6160000015692,-0.015
2904,633.6200000015692,-0.015
2905,633.6240000015692,-0.01
2906,633.6280000015693,-0.005
2907,633.6320000015693,-0.01
2908,633.6360000015693,-0.01
2909,633.6400000015693,-0.005
2910,633.6440000015693,0.0
2911,633.6480000015694,0.0
2912,633.6520000015694,-0.005
2913,633.6560000015694,-0.005
2914,633.6600000015694,-0.005
2915,633.6640000015694,0.0
2916,633.6680000015695,0.0
2917,633.6720000015695,0.0
2918,633.6760000015695,0.0
2919,633.6800000015695,0.0
2920,633.6840000015695,0.0
2921,633.6880000015695,-0.005
2922,633.6920000015696,-0.005
2923,633.6960000015696,0.0
2924,633.7000000015696,0.0
2925,633.7040000015696,0.0
2926,633.7080000015696,0.0
2927,633.7120000015697,0.005
2928,633.7160000015697,0.01
2929,633.7200000015697,0.02
2930,633.7240000015697,0.025
2931,633.7280000015697,0.03
2932,633.7320000015698,0.03
2933,633.7360000015698,0.03
2934,633.7400000015698,0.025
2935,633.7440000015698,0.025
2936,633.7480000015698,0.02
2937,633.7520000015699,0.02
2938,633.7560000015699,0.015
2939,633.7600000015699,0.015
2940,633.7640000015699,0.015
2941,633.7680000015699,0.015
2942,633.77200000157,0.015
2943,633.77600000157,0.01
2944,633.78000000157,0.015
2945,633.78400000157,0.01
2946,633.78800000157,0.015
2947,633.79200000157,0.015
2948,633.7960000015701,0.005
2949,633.8000000015701,0.01
2950,633.8040000015701,0.005
2951,633.8080000015701,0.0
2952,633.8120000015701,0.0
2953,633.8160000015702,0.0
2954,633.8200000015702,-0.005
2955,633.8240000015702,-0.01
2956,633.8280000015702,-0.005
2957,633.8320000015702,-0.01
2958,633.8360000015703,-0.01
2959,633.8400000015703,-0.02
2960,633.8440000015703,-0.02
2961,633.8480000015703,-0.015
2962,633.8520000015703,-0.02
2963,633.8560000015704,-0.025
2964,633.8600000015704,-0.025
2965,633.8640000015704,-0.03
2966,633.8680000015704,-0.03
2967,633.8720000015704,-0.035
2968,633.8760000015704,-0.035
2969,633.8800000015705,-0.04
2970,633.8840000015705,-0.035
2971,633.8880000015705,-0.035
2972,633.8920000015705,-0.03
2973,633.8960000015705,-0.035
2974,633.9000000015706,-0.035
2975,633.9040000015706,-0.035
2976,633.9080000015706,-0.04
2977,633.9120000015706,-0.03
2978,633.9160000015706,-0.03
2979,633.9200000015707,-0.035
2980,633.9240000015707,-0.03
2981,633.9280000015707,-0.025
2982,633.9320000015707,-0.015
2983,633.9360000015707,-0.015
2984,633.9400000015708,-0.015
2985,633.9440000015708,-0.015
2986,633.9480000015708,-0.02
2987,633.9520000015708,-0.015
2988,633.9560000015708,-0.015
2989,633.9600000015708,-0.025
2990,633.9640000015709,-0.03
2991,633.9680000015709,-0.02
2992,633.9720000015709,-0.025
2993,633.9760000015709,-0.03
2994,633.9800000015709,-0.025
2995,633.984000001571,-0.03
2996,633.988000001571,-0.035
2997,633.992000001571,-0.03
2998,633.996000001571,-0.03
2999,634.000000001571,-0.035
